EESchema Schematic File Version 4
EELAYER 30 0
EELAYER END
$Descr A3 16535 11693
encoding utf-8
Sheet 1 1
Title "Oak-65XX-IO"
Date "2019-12-29"
Rev "0.1"
Comp "Uwe Gottschling"
Comment1 ""
Comment2 ""
Comment3 ""
Comment4 ""
$EndDescr
$Comp
L 65xx-Computer:65C22 U6
U 1 1 59EFA190
P 9050 3800
F 0 "U6" H 9050 4900 60  0000 C CNN
F 1 "65C22" H 9050 3800 60  0000 C CNN
F 2 "" H 9050 4450 60  0000 C CNN
F 3 "" H 9050 4450 60  0000 C CNN
	1    9050 3800
	1    0    0    -1  
$EndComp
$Comp
L 65xx-Computer:65C22 U7
U 1 1 59EFA1EA
P 9050 6350
F 0 "U7" H 9050 7450 60  0000 C CNN
F 1 "65C22" H 9050 6350 60  0000 C CNN
F 2 "" H 9050 7000 60  0000 C CNN
F 3 "" H 9050 7000 60  0000 C CNN
	1    9050 6350
	1    0    0    -1  
$EndComp
$Comp
L 65xx-IO-rescue:65C51-RESCUE-65xx-IO U5
U 1 1 59EFA243
P 8250 9850
F 0 "U5" H 8250 10600 60  0000 C CNN
F 1 "65C51" H 8250 9850 60  0000 C CNN
F 2 "" H 8250 10150 60  0000 C CNN
F 3 "" H 8250 10150 60  0000 C CNN
	1    8250 9850
	1    0    0    -1  
$EndComp
$Comp
L 65xx-Computer:Crystal_oscillator U2
U 1 1 59EFA49B
P 7150 8250
F 0 "U2" H 7100 8500 60  0000 C CNN
F 1 "Crystal_oscillator_1,8432MHz" H 7150 8000 60  0000 C CNN
F 2 "" H 7100 8250 60  0001 C CNN
F 3 "" H 7100 8250 60  0001 C CNN
	1    7150 8250
	1    0    0    -1  
$EndComp
$Comp
L 65xx-IO-rescue:C64AC_DIN41612_BUS-RESCUE-65xx-IO X1
U 1 1 59EFA531
P 15300 4850
F 0 "X1" H 15200 8150 50  0000 C CNN
F 1 "C64AC_DIN41612_BUS" V 15700 4800 50  0000 C CNN
F 2 "" H 15200 4850 50  0001 C CNN
F 3 "" H 15200 4850 50  0001 C CNN
	1    15300 4850
	1    0    0    -1  
$EndComp
$Comp
L 65xx-Computer:HIN232CP U1
U 1 1 59EFA5E2
P 4150 9750
F 0 "U1" H 4100 10675 50  0000 C CNN
F 1 "HIN232CP" H 4150 9900 50  0000 C CNN
F 2 "" H 4200 9900 50  0001 L CNN
F 3 "" H 4150 10050 50  0001 C CNN
	1    4150 9750
	-1   0    0    -1  
$EndComp
$Comp
L power1:+5V #PWR01
U 1 1 59EFB08C
P 14100 1000
F 0 "#PWR01" H 14100 850 50  0001 C CNN
F 1 "+5V" H 14100 1140 50  0000 C CNN
F 2 "" H 14100 1000 50  0001 C CNN
F 3 "" H 14100 1000 50  0001 C CNN
	1    14100 1000
	1    0    0    -1  
$EndComp
$Comp
L power1:GNDD #PWR02
U 1 1 59EFB0C4
P 14100 1550
F 0 "#PWR02" H 14100 1300 50  0001 C CNN
F 1 "GNDD" H 14100 1425 50  0000 C CNN
F 2 "" H 14100 1550 50  0001 C CNN
F 3 "" H 14100 1550 50  0001 C CNN
	1    14100 1550
	1    0    0    -1  
$EndComp
$Comp
L atmel:ATTINY26-16PU U3
U 1 1 59EFB277
P 4550 3850
F 0 "U3" H 3950 4800 50  0000 C CNN
F 1 "ATTINY26-16PU" H 5000 2900 50  0000 C CNN
F 2 "Housings_DIP:DIP-20_W7.62mm" H 4550 3850 50  0001 C CIN
F 3 "" H 4550 3850 50  0001 C CNN
	1    4550 3850
	1    0    0    -1  
$EndComp
$Comp
L 65xx-Computer:74HCT245 U10
U 1 1 59EFB954
P 12700 2450
F 0 "U10" H 13000 2950 50  0000 L CNN
F 1 "74HCT245" H 12800 1850 50  0000 L CNN
F 2 "" H 12700 2450 60  0001 C CNN
F 3 "" H 12700 2450 60  0001 C CNN
	1    12700 2450
	1    0    0    -1  
$EndComp
$Comp
L 65xx-Computer:74LS30 U9
U 1 1 59EFBBEB
P 9400 1300
F 0 "U9" H 9550 1750 50  0000 C CNN
F 1 "74LS30" H 9600 850 50  0000 C CNN
F 2 "" H 9400 1300 60  0001 C CNN
F 3 "" H 9400 1300 60  0001 C CNN
	1    9400 1300
	1    0    0    -1  
$EndComp
$Comp
L 65xx-Computer:74HCT138 U8
U 1 1 59EFBF2D
P 7200 1150
F 0 "U8" H 7350 1500 50  0000 C CNN
F 1 "74HCT138" H 7550 500 50  0000 C CNN
F 2 "" H 7200 1150 60  0001 C CNN
F 3 "" H 7200 1150 60  0001 C CNN
	1    7200 1150
	1    0    0    -1  
$EndComp
Text GLabel 14550 2700 0    50   Output ~ 0
R_~W
Text GLabel 11850 2000 0    50   Input ~ 0
R_~W
$Comp
L 65xx-Computer:74LS00 U4
U 4 1 59EFCEA0
P 1600 1450
F 0 "U4" H 1850 1750 50  0000 C CNN
F 1 "74LS00" H 1800 1150 50  0000 C CNN
F 2 "" H 1600 1450 60  0001 C CNN
F 3 "" H 1600 1450 60  0001 C CNN
	4    1600 1450
	1    0    0    -1  
$EndComp
$Comp
L 65xx-Computer:74LS00 U4
U 1 1 59EFCF52
P 10850 1300
F 0 "U4" H 11100 1600 50  0000 C CNN
F 1 "74LS00" H 11050 1000 50  0000 C CNN
F 2 "" H 10850 1300 60  0001 C CNN
F 3 "" H 10850 1300 60  0001 C CNN
	1    10850 1300
	1    0    0    -1  
$EndComp
$Comp
L 65xx-Computer:74LS00 U4
U 3 1 59EFD03D
P 4050 1450
F 0 "U4" H 4300 1750 50  0000 C CNN
F 1 "74LS00" H 4250 1150 50  0000 C CNN
F 2 "" H 4050 1450 60  0001 C CNN
F 3 "" H 4050 1450 60  0001 C CNN
	3    4050 1450
	1    0    0    -1  
$EndComp
$Comp
L power1:+5V #PWR03
U 1 1 59EFD762
P 8500 850
F 0 "#PWR03" H 8500 700 50  0001 C CNN
F 1 "+5V" H 8500 990 50  0000 C CNN
F 2 "" H 8500 850 50  0001 C CNN
F 3 "" H 8500 850 50  0001 C CNN
	1    8500 850 
	1    0    0    -1  
$EndComp
Text GLabel 14200 3900 0    50   Output ~ 0
~IORQ
Text GLabel 6100 950  0    50   Input ~ 0
~IORQ
$Comp
L power1:+5V #PWR04
U 1 1 59EFE4C9
P 6550 850
F 0 "#PWR04" H 6550 700 50  0001 C CNN
F 1 "+5V" H 6550 990 50  0000 C CNN
F 2 "" H 6550 850 50  0001 C CNN
F 3 "" H 6550 850 50  0001 C CNN
	1    6550 850 
	1    0    0    -1  
$EndComp
Text GLabel 7950 800  2    50   Output ~ 0
~CS_6551
Text GLabel 7450 9450 0    50   Input ~ 0
~CS_6551
$Comp
L power1:+5V #PWR05
U 1 1 59EFEC17
P 7300 9100
F 0 "#PWR05" H 7300 8950 50  0001 C CNN
F 1 "+5V" H 7300 9240 50  0000 C CNN
F 2 "" H 7300 9100 50  0001 C CNN
F 3 "" H 7300 9100 50  0001 C CNN
	1    7300 9100
	1    0    0    -1  
$EndComp
Text GLabel 9650 9350 2    50   BiDi ~ 0
DATABUS
Text GLabel 11350 2100 0    50   BiDi ~ 0
DATABUS
Text Label 9000 10250 0    50   ~ 0
D0
Text Label 9000 10150 0    50   ~ 0
D1
Text Label 9000 10050 0    50   ~ 0
D2
Text Label 9000 9950 0    50   ~ 0
D3
Text Label 9000 9850 0    50   ~ 0
D4
Text Label 9000 9750 0    50   ~ 0
D5
Text Label 9000 9650 0    50   ~ 0
D6
Text Label 9000 9550 0    50   ~ 0
D7
Text Label 12000 2200 0    50   ~ 0
D0
Text Label 12000 2300 0    50   ~ 0
D1
Text Label 12000 2400 0    50   ~ 0
D2
Text Label 12000 2500 0    50   ~ 0
D3
Text Label 12000 2600 0    50   ~ 0
D4
Text Label 12000 2700 0    50   ~ 0
D5
Text Label 12000 2800 0    50   ~ 0
D6
Text Label 12000 2900 0    50   ~ 0
D7
Text GLabel 10650 6000 2    50   Input ~ 0
DATABUS
Text GLabel 10550 3450 2    50   BiDi ~ 0
DATABUS
Entry Wire Line
	10250 3550 10350 3450
Entry Wire Line
	10250 3650 10350 3550
Entry Wire Line
	10250 3750 10350 3650
Entry Wire Line
	10250 3850 10350 3750
Entry Wire Line
	10250 3950 10350 3850
Entry Wire Line
	10250 4050 10350 3950
Entry Wire Line
	10250 4150 10350 4050
Entry Wire Line
	10250 4250 10350 4150
Entry Wire Line
	11700 2100 11800 2200
Entry Wire Line
	11700 2200 11800 2300
Entry Wire Line
	11700 2300 11800 2400
Entry Wire Line
	11700 2400 11800 2500
Entry Wire Line
	11700 2500 11800 2600
Entry Wire Line
	11700 2600 11800 2700
Entry Wire Line
	11700 2700 11800 2800
Entry Wire Line
	11700 2800 11800 2900
Text Label 9950 3550 0    50   ~ 0
D0
Text Label 9950 3650 0    50   ~ 0
D1
Text Label 9950 3750 0    50   ~ 0
D2
Text Label 9950 3850 0    50   ~ 0
D3
Text Label 9950 3950 0    50   ~ 0
D4
Text Label 9950 4050 0    50   ~ 0
D5
Text Label 9950 4150 0    50   ~ 0
D6
Text Label 9950 4250 0    50   ~ 0
D7
Entry Wire Line
	10250 6100 10350 6000
Entry Wire Line
	10250 6200 10350 6100
Entry Wire Line
	10250 6300 10350 6200
Entry Wire Line
	10250 6400 10350 6300
Entry Wire Line
	10250 6500 10350 6400
Entry Wire Line
	10250 6600 10350 6500
Entry Wire Line
	10250 6700 10350 6600
Entry Wire Line
	10250 6800 10350 6700
Text Label 10000 6100 0    50   ~ 0
D0
Text Label 10000 6200 0    50   ~ 0
D1
Text Label 10000 6300 0    50   ~ 0
D2
Text Label 10000 6400 0    50   ~ 0
D3
Text Label 10000 6500 0    50   ~ 0
D4
Text Label 10000 6600 0    50   ~ 0
D5
Text Label 10000 6700 0    50   ~ 0
D6
Text Label 10000 6800 0    50   ~ 0
D7
Entry Wire Line
	9150 9550 9250 9450
Entry Wire Line
	9150 9650 9250 9550
Entry Wire Line
	9150 9750 9250 9650
Entry Wire Line
	9150 9850 9250 9750
Entry Wire Line
	9150 9950 9250 9850
Entry Wire Line
	9150 10050 9250 9950
Entry Wire Line
	9150 10150 9250 10050
Entry Wire Line
	9150 10250 9250 10150
$Comp
L 65xx-Computer:Mini-DIN-6 J2
U 1 1 59F0F80E
P 6050 4300
F 0 "J2" H 6050 4550 50  0000 C CNN
F 1 "Mini-DIN-6" H 6050 4050 50  0000 C CNN
F 2 "" H 6050 4300 50  0001 C CNN
F 3 "" H 6050 4300 50  0001 C CNN
	1    6050 4300
	0    -1   -1   0   
$EndComp
$Comp
L power1:GNDD #PWR07
U 1 1 59F1020D
P 6500 4050
F 0 "#PWR07" H 6500 3800 50  0001 C CNN
F 1 "GNDD" H 6500 3925 50  0000 C CNN
F 2 "" H 6500 4050 50  0001 C CNN
F 3 "" H 6500 4050 50  0001 C CNN
	1    6500 4050
	1    0    0    -1  
$EndComp
$Comp
L power1:+5V #PWR08
U 1 1 59F103F2
P 6500 4600
F 0 "#PWR08" H 6500 4450 50  0001 C CNN
F 1 "+5V" H 6500 4740 50  0000 C CNN
F 2 "" H 6500 4600 50  0001 C CNN
F 3 "" H 6500 4600 50  0001 C CNN
	1    6500 4600
	1    0    0    -1  
$EndComp
$Comp
L device:R R1
U 1 1 59F10B19
P 5700 2700
F 0 "R1" V 5780 2700 50  0000 C CNN
F 1 "10k" V 5700 2700 50  0000 C CNN
F 2 "" V 5630 2700 50  0001 C CNN
F 3 "" H 5700 2700 50  0001 C CNN
	1    5700 2700
	1    0    0    -1  
$EndComp
$Comp
L device:R R2
U 1 1 59F10C34
P 5900 2700
F 0 "R2" V 5980 2700 50  0000 C CNN
F 1 "10k" V 5900 2700 50  0000 C CNN
F 2 "" V 5830 2700 50  0001 C CNN
F 3 "" H 5900 2700 50  0001 C CNN
	1    5900 2700
	1    0    0    -1  
$EndComp
$Comp
L power1:+5V #PWR09
U 1 1 59F10E69
P 5700 2400
F 0 "#PWR09" H 5700 2250 50  0001 C CNN
F 1 "+5V" H 5700 2540 50  0000 C CNN
F 2 "" H 5700 2400 50  0001 C CNN
F 3 "" H 5700 2400 50  0001 C CNN
	1    5700 2400
	1    0    0    -1  
$EndComp
Text GLabel 9950 7100 2    50   Input ~ 0
~CS_6522_1
Text GLabel 9950 4550 2    50   Input ~ 0
~CS_6522_2
$Comp
L power1:GNDD #PWR010
U 1 1 59F124BE
P 8050 2750
F 0 "#PWR010" H 8050 2500 50  0001 C CNN
F 1 "GNDD" H 8050 2625 50  0000 C CNN
F 2 "" H 8050 2750 50  0001 C CNN
F 3 "" H 8050 2750 50  0001 C CNN
	1    8050 2750
	1    0    0    -1  
$EndComp
$Comp
L power1:GNDD #PWR011
U 1 1 59F126E5
P 8000 5300
F 0 "#PWR011" H 8000 5050 50  0001 C CNN
F 1 "GNDD" H 8000 5175 50  0000 C CNN
F 2 "" H 8000 5300 50  0001 C CNN
F 3 "" H 8000 5300 50  0001 C CNN
	1    8000 5300
	1    0    0    -1  
$EndComp
Text GLabel 10450 4650 2    50   Input ~ 0
R_~W
Text GLabel 10450 7200 2    50   Input ~ 0
R_~W
$Comp
L power1:+5V #PWR012
U 1 1 59F13523
P 8050 4800
F 0 "#PWR012" H 8050 4650 50  0001 C CNN
F 1 "+5V" H 8050 4940 50  0000 C CNN
F 2 "" H 8050 4800 50  0001 C CNN
F 3 "" H 8050 4800 50  0001 C CNN
	1    8050 4800
	1    0    0    -1  
$EndComp
$Comp
L power1:+5V #PWR013
U 1 1 59F13921
P 7950 7350
F 0 "#PWR013" H 7950 7200 50  0001 C CNN
F 1 "+5V" H 7950 7490 50  0000 C CNN
F 2 "" H 7950 7350 50  0001 C CNN
F 3 "" H 7950 7350 50  0001 C CNN
	1    7950 7350
	1    0    0    -1  
$EndComp
Text GLabel 14550 2900 0    50   Output ~ 0
PHI2
Text GLabel 10300 6900 2    50   Input ~ 0
PHI2
Text GLabel 10300 4350 2    50   Input ~ 0
PHI2
Entry Wire Line
	13100 3300 13200 3400
Entry Wire Line
	13100 3400 13200 3500
Entry Wire Line
	13100 3500 13200 3600
Entry Wire Line
	13100 3600 13200 3700
Text GLabel 12850 3300 0    50   Output ~ 0
ADDRESSBUS
Text Label 13250 3400 0    50   ~ 0
A0
Text Label 13250 3500 0    50   ~ 0
A1
Text Label 13250 3600 0    50   ~ 0
A2
Text Label 13250 3700 0    50   ~ 0
A3
Text GLabel 10550 5500 2    50   Input ~ 0
ADDRESSBUS
Entry Wire Line
	10150 5900 10250 5800
Entry Wire Line
	10150 5800 10250 5700
Entry Wire Line
	10150 5700 10250 5600
Entry Wire Line
	10150 5600 10250 5500
Text Label 10000 5600 0    50   ~ 0
A0
Text Label 10000 5700 0    50   ~ 0
A1
Text Label 10000 5800 0    50   ~ 0
A2
Text Label 10000 5900 0    50   ~ 0
A3
Entry Wire Line
	10150 3350 10250 3250
Entry Wire Line
	10150 3250 10250 3150
Entry Wire Line
	10150 3150 10250 3050
Entry Wire Line
	10150 3050 10250 2950
Text Label 10000 3050 0    50   ~ 0
A0
Text Label 10000 3150 0    50   ~ 0
A1
Text Label 10000 3250 0    50   ~ 0
A2
Text Label 10000 3350 0    50   ~ 0
A3
Text GLabel 10550 2950 2    50   Input ~ 0
ADDRESSBUS
Text GLabel 6750 10350 0    50   Input ~ 0
ADDRESSBUS
Entry Wire Line
	7150 10550 7050 10450
Entry Wire Line
	7150 10450 7050 10350
Text Label 7300 10450 2    50   ~ 0
A0
Text Label 7300 10550 2    50   ~ 0
A1
$Comp
L power1:GNDD #PWR014
U 1 1 59F17BB6
P 3200 10750
F 0 "#PWR014" H 3200 10500 50  0001 C CNN
F 1 "GNDD" H 3200 10625 50  0000 C CNN
F 2 "" H 3200 10750 50  0001 C CNN
F 3 "" H 3200 10750 50  0001 C CNN
	1    3200 10750
	1    0    0    -1  
$EndComp
$Comp
L power1:GNDD #PWR015
U 1 1 59F17DA4
P 7750 8900
F 0 "#PWR015" H 7750 8650 50  0001 C CNN
F 1 "GNDD" H 7750 8775 50  0000 C CNN
F 2 "" H 7750 8900 50  0001 C CNN
F 3 "" H 7750 8900 50  0001 C CNN
	1    7750 8900
	1    0    0    -1  
$EndComp
$Comp
L power1:GNDD #PWR016
U 1 1 59F18080
P 6300 8400
F 0 "#PWR016" H 6300 8150 50  0001 C CNN
F 1 "GNDD" H 6300 8275 50  0000 C CNN
F 2 "" H 6300 8400 50  0001 C CNN
F 3 "" H 6300 8400 50  0001 C CNN
	1    6300 8400
	1    0    0    -1  
$EndComp
$Comp
L power1:+5V #PWR017
U 1 1 59F180C1
P 7700 8050
F 0 "#PWR017" H 7700 7900 50  0001 C CNN
F 1 "+5V" H 7700 8190 50  0000 C CNN
F 2 "" H 7700 8050 50  0001 C CNN
F 3 "" H 7700 8050 50  0001 C CNN
	1    7700 8050
	1    0    0    -1  
$EndComp
$Comp
L device:CP C3
U 1 1 59F189B0
P 5350 9150
F 0 "C3" H 5375 9250 50  0000 L CNN
F 1 "1µ/35V" H 5375 9050 50  0000 L CNN
F 2 "" H 5388 9000 50  0001 C CNN
F 3 "" H 5350 9150 50  0001 C CNN
	1    5350 9150
	1    0    0    -1  
$EndComp
$Comp
L power1:+5V #PWR018
U 1 1 59F19158
P 5050 8600
F 0 "#PWR018" H 5050 8450 50  0001 C CNN
F 1 "+5V" H 5050 8740 50  0000 C CNN
F 2 "" H 5050 8600 50  0001 C CNN
F 3 "" H 5050 8600 50  0001 C CNN
	1    5050 8600
	1    0    0    -1  
$EndComp
$Comp
L device:CP C4
U 1 1 59F1919C
P 5900 9450
F 0 "C4" H 5925 9550 50  0000 L CNN
F 1 "1µ/35V" H 5925 9350 50  0000 L CNN
F 2 "" H 5938 9300 50  0001 C CNN
F 3 "" H 5900 9450 50  0001 C CNN
	1    5900 9450
	1    0    0    -1  
$EndComp
$Comp
L device:CP C2
U 1 1 59F19CB3
P 3050 8800
F 0 "C2" H 3075 8900 50  0000 L CNN
F 1 "1µ/35V" H 3075 8700 50  0000 L CNN
F 2 "" H 3088 8650 50  0001 C CNN
F 3 "" H 3050 8800 50  0001 C CNN
	1    3050 8800
	-1   0    0    1   
$EndComp
$Comp
L device:CP C1
U 1 1 59F19D6C
P 2750 9600
F 0 "C1" H 2775 9700 50  0000 L CNN
F 1 "1µ/35V" H 2775 9500 50  0000 L CNN
F 2 "" H 2788 9450 50  0001 C CNN
F 3 "" H 2750 9600 50  0001 C CNN
	1    2750 9600
	1    0    0    -1  
$EndComp
Entry Wire Line
	13100 3900 13200 4000
Entry Wire Line
	13100 3800 13200 3900
Entry Wire Line
	13100 3700 13200 3800
Entry Wire Line
	13100 4000 13200 4100
Text Label 13250 3800 0    50   ~ 0
A4
Text Label 13250 3900 0    50   ~ 0
A5
Text Label 13250 4000 0    50   ~ 0
A6
Text Label 13250 4100 0    50   ~ 0
A7
Entry Wire Line
	6200 1500 6300 1600
Entry Wire Line
	6200 1400 6300 1500
Entry Wire Line
	6200 1300 6300 1400
Entry Wire Line
	6200 1150 6300 1050
Text Label 6400 1050 0    50   ~ 0
A7
Text Label 6400 1400 0    50   ~ 0
A4
Text Label 6400 1500 0    50   ~ 0
A5
Text Label 6400 1600 0    50   ~ 0
A6
Text GLabel 6100 1150 0    50   Input ~ 0
ADDRESSBUS
$Comp
L power1:+5V #PWR0101
U 1 1 59F66855
P 3450 2950
F 0 "#PWR0101" H 3450 2800 50  0001 C CNN
F 1 "+5V" H 3450 3090 50  0000 C CNN
F 2 "" H 3450 2950 50  0001 C CNN
F 3 "" H 3450 2950 50  0001 C CNN
	1    3450 2950
	1    0    0    -1  
$EndComp
$Comp
L power1:GNDD #PWR0102
U 1 1 59F66A88
P 3500 4850
F 0 "#PWR0102" H 3500 4600 50  0001 C CNN
F 1 "GNDD" H 3500 4725 50  0000 C CNN
F 2 "" H 3500 4850 50  0001 C CNN
F 3 "" H 3500 4850 50  0001 C CNN
	1    3500 4850
	1    0    0    -1  
$EndComp
$Comp
L power1:+5V #PWR0103
U 1 1 59F67403
P 10850 1000
F 0 "#PWR0103" H 10850 850 50  0001 C CNN
F 1 "+5V" H 10850 1140 50  0000 C CNN
F 2 "" H 10850 1000 50  0001 C CNN
F 3 "" H 10850 1000 50  0001 C CNN
	1    10850 1000
	1    0    0    -1  
$EndComp
$Comp
L power1:GNDD #PWR0104
U 1 1 59F67567
P 10850 1600
F 0 "#PWR0104" H 10850 1350 50  0001 C CNN
F 1 "GNDD" H 10850 1475 50  0000 C CNN
F 2 "" H 10850 1600 50  0001 C CNN
F 3 "" H 10850 1600 50  0001 C CNN
	1    10850 1600
	1    0    0    -1  
$EndComp
$Comp
L power1:GNDD #PWR0105
U 1 1 59F67686
P 7200 1850
F 0 "#PWR0105" H 7200 1600 50  0001 C CNN
F 1 "GNDD" H 7200 1725 50  0000 C CNN
F 2 "" H 7200 1850 50  0001 C CNN
F 3 "" H 7200 1850 50  0001 C CNN
	1    7200 1850
	1    0    0    -1  
$EndComp
$Comp
L power1:+5V #PWR0106
U 1 1 59F6771B
P 7200 800
F 0 "#PWR0106" H 7200 650 50  0001 C CNN
F 1 "+5V" H 7200 940 50  0000 C CNN
F 2 "" H 7200 800 50  0001 C CNN
F 3 "" H 7200 800 50  0001 C CNN
	1    7200 800 
	1    0    0    -1  
$EndComp
$Comp
L power1:+5V #PWR0107
U 1 1 59F6780C
P 9400 850
F 0 "#PWR0107" H 9400 700 50  0001 C CNN
F 1 "+5V" H 9400 990 50  0000 C CNN
F 2 "" H 9400 850 50  0001 C CNN
F 3 "" H 9400 850 50  0001 C CNN
	1    9400 850 
	1    0    0    -1  
$EndComp
$Comp
L power1:GNDD #PWR0108
U 1 1 59F6792B
P 9400 1750
F 0 "#PWR0108" H 9400 1500 50  0001 C CNN
F 1 "GNDD" H 9400 1625 50  0000 C CNN
F 2 "" H 9400 1750 50  0001 C CNN
F 3 "" H 9400 1750 50  0001 C CNN
	1    9400 1750
	1    0    0    -1  
$EndComp
$Comp
L power1:+5V #PWR0109
U 1 1 59F67F59
P 12900 1700
F 0 "#PWR0109" H 12900 1550 50  0001 C CNN
F 1 "+5V" H 12900 1840 50  0000 C CNN
F 2 "" H 12900 1700 50  0001 C CNN
F 3 "" H 12900 1700 50  0001 C CNN
	1    12900 1700
	1    0    0    -1  
$EndComp
$Comp
L power1:GNDD #PWR0110
U 1 1 59F67FEE
P 12550 1550
F 0 "#PWR0110" H 12550 1300 50  0001 C CNN
F 1 "GNDD" H 12550 1425 50  0000 C CNN
F 2 "" H 12550 1550 50  0001 C CNN
F 3 "" H 12550 1550 50  0001 C CNN
	1    12550 1550
	1    0    0    -1  
$EndComp
Text Notes 1500 7650 0    50   ~ 0
RS-232\nDB-25
Text Notes 4050 5000 0    50   ~ 0
PS/2 Keyboard Interface
Text GLabel 9650 9150 2    50   Input ~ 0
PHI2
$Comp
L power1:GNDD #PWR0111
U 1 1 59F89038
P 11050 9400
F 0 "#PWR0111" H 11050 9150 50  0001 C CNN
F 1 "GNDD" H 11050 9275 50  0000 C CNN
F 2 "" H 11050 9400 50  0001 C CNN
F 3 "" H 11050 9400 50  0001 C CNN
	1    11050 9400
	1    0    0    -1  
$EndComp
$Comp
L power1:+5V #PWR0112
U 1 1 59F891CA
P 11050 8700
F 0 "#PWR0112" H 11050 8550 50  0001 C CNN
F 1 "+5V" H 11050 8840 50  0000 C CNN
F 2 "" H 11050 8700 50  0001 C CNN
F 3 "" H 11050 8700 50  0001 C CNN
	1    11050 8700
	1    0    0    -1  
$EndComp
$Comp
L device:C C5
U 1 1 59F8935E
P 11050 9050
F 0 "C5" H 11075 9150 50  0000 L CNN
F 1 "100nF" H 11075 8950 50  0000 L CNN
F 2 "" H 11088 8900 50  0001 C CNN
F 3 "" H 11050 9050 50  0001 C CNN
	1    11050 9050
	1    0    0    -1  
$EndComp
$Comp
L device:C C6
U 1 1 59F89492
P 11350 9050
F 0 "C6" H 11375 9150 50  0000 L CNN
F 1 "100nF" H 11375 8950 50  0000 L CNN
F 2 "" H 11388 8900 50  0001 C CNN
F 3 "" H 11350 9050 50  0001 C CNN
	1    11350 9050
	1    0    0    -1  
$EndComp
$Comp
L device:C C7
U 1 1 59F894F5
P 11650 9050
F 0 "C7" H 11675 9150 50  0000 L CNN
F 1 "100nF" H 11675 8950 50  0000 L CNN
F 2 "" H 11688 8900 50  0001 C CNN
F 3 "" H 11650 9050 50  0001 C CNN
	1    11650 9050
	1    0    0    -1  
$EndComp
$Comp
L device:C C8
U 1 1 59F8955B
P 11950 9050
F 0 "C8" H 11975 9150 50  0000 L CNN
F 1 "100nF" H 11975 8950 50  0000 L CNN
F 2 "" H 11988 8900 50  0001 C CNN
F 3 "" H 11950 9050 50  0001 C CNN
	1    11950 9050
	1    0    0    -1  
$EndComp
$Comp
L device:C C9
U 1 1 59F89623
P 12250 9050
F 0 "C9" H 12275 9150 50  0000 L CNN
F 1 "100nF" H 12275 8950 50  0000 L CNN
F 2 "" H 12288 8900 50  0001 C CNN
F 3 "" H 12250 9050 50  0001 C CNN
	1    12250 9050
	1    0    0    -1  
$EndComp
$Comp
L device:C C10
U 1 1 59F89697
P 12550 9050
F 0 "C10" H 12575 9150 50  0000 L CNN
F 1 "100nF" H 12575 8950 50  0000 L CNN
F 2 "" H 12588 8900 50  0001 C CNN
F 3 "" H 12550 9050 50  0001 C CNN
	1    12550 9050
	1    0    0    -1  
$EndComp
$Comp
L device:C C11
U 1 1 59F8970A
P 12850 9050
F 0 "C11" H 12875 9150 50  0000 L CNN
F 1 "100nF" H 12875 8950 50  0000 L CNN
F 2 "" H 12888 8900 50  0001 C CNN
F 3 "" H 12850 9050 50  0001 C CNN
	1    12850 9050
	1    0    0    -1  
$EndComp
$Comp
L device:CP C12
U 1 1 59F898AA
P 13150 9050
F 0 "C12" H 13175 9150 50  0000 L CNN
F 1 "47µF/6,3V" H 13175 8950 50  0000 L CNN
F 2 "" H 13188 8900 50  0001 C CNN
F 3 "" H 13150 9050 50  0001 C CNN
	1    13150 9050
	1    0    0    -1  
$EndComp
$Comp
L device:CP C13
U 1 1 59F89B4A
P 13650 9050
F 0 "C13" H 13675 9150 50  0000 L CNN
F 1 "47µF/6,3V" H 13675 8950 50  0000 L CNN
F 2 "" H 13688 8900 50  0001 C CNN
F 3 "" H 13650 9050 50  0001 C CNN
	1    13650 9050
	1    0    0    -1  
$EndComp
Text Notes 3550 2800 0    50   ~ 0
http://sbc.rictor.org/ \nPC Keyboard -> AVR ATTiny26 Interface
Text GLabel 6700 9550 0    50   Input ~ 0
~RES
Text GLabel 10650 5850 2    50   Input ~ 0
~RES
Text GLabel 10550 3300 2    50   Input ~ 0
~RES
Text GLabel 14200 3700 0    50   Output ~ 0
~RES
Text GLabel 14550 3100 0    50   Input ~ 0
~IRQ
Text GLabel 9950 4750 2    50   Output ~ 0
~IRQ
Text GLabel 9450 9250 2    50   Output ~ 0
~IRQ
$Comp
L power1:+5V #PWR06
U 1 1 59EFEE53
P 9350 8850
F 0 "#PWR06" H 9350 8700 50  0001 C CNN
F 1 "+5V" H 9350 8990 50  0000 C CNN
F 2 "" H 9350 8850 50  0001 C CNN
F 3 "" H 9350 8850 50  0001 C CNN
	1    9350 8850
	1    0    0    -1  
$EndComp
Text GLabel 9950 7300 2    50   Output ~ 0
~NMI
Text GLabel 14550 3300 0    50   Input ~ 0
~NMI
Text GLabel 6150 5100 2    50   Input ~ 0
~RES
Wire Bus Line
	6200 1150 6100 1150
Wire Wire Line
	13900 4100 13200 4100
Wire Wire Line
	13900 4200 13900 4100
Wire Wire Line
	13700 3900 13700 3800
Wire Wire Line
	13200 3900 13700 3900
Wire Wire Line
	13600 3800 13200 3800
Wire Wire Line
	13600 3600 13600 3800
Connection ~ 2750 10550
Wire Wire Line
	2150 9150 2150 10550
Wire Wire Line
	1950 9150 2150 9150
Wire Wire Line
	2200 10150 1950 10150
Wire Wire Line
	2200 9850 2200 10150
Wire Wire Line
	3100 9850 2200 9850
Wire Wire Line
	3100 9750 3100 9850
Wire Wire Line
	3350 9750 3100 9750
Wire Wire Line
	2300 9950 1950 9950
Wire Wire Line
	2300 10150 2300 9950
Wire Wire Line
	3350 10150 2300 10150
Wire Wire Line
	2400 9550 1950 9550
Wire Wire Line
	2400 10350 2400 9550
Wire Wire Line
	3350 10350 2400 10350
Wire Wire Line
	2450 9750 1950 9750
Wire Wire Line
	2450 9950 2450 9750
Wire Wire Line
	3350 9950 2450 9950
Connection ~ 3200 10550
Wire Wire Line
	2750 10550 2750 9750
Wire Wire Line
	3350 9450 2750 9450
Connection ~ 5050 8750
Wire Wire Line
	4850 8750 5050 8750
Wire Wire Line
	4850 8600 4850 8750
Wire Wire Line
	3050 8600 4850 8600
Wire Wire Line
	3050 8650 3050 8600
Wire Wire Line
	3050 9000 3050 8950
Wire Wire Line
	3350 9000 3050 9000
Wire Wire Line
	5050 9000 5050 8750
Wire Wire Line
	4950 9000 5050 9000
Wire Wire Line
	5350 8950 5350 9000
Wire Wire Line
	5200 8950 5350 8950
Wire Wire Line
	5200 9150 5200 8950
Wire Wire Line
	4950 9150 5200 9150
Wire Wire Line
	4950 9300 5350 9300
Wire Wire Line
	5900 9250 5900 9300
Wire Wire Line
	5750 9250 5900 9250
Wire Wire Line
	5750 9450 5750 9250
Wire Wire Line
	4950 9450 5750 9450
Wire Wire Line
	5900 9600 4950 9600
Wire Wire Line
	6300 8350 6300 8400
Wire Wire Line
	6750 8350 6300 8350
Wire Wire Line
	7700 8050 7700 8150
Wire Wire Line
	7700 8150 7550 8150
Wire Wire Line
	7400 9250 7550 9250
Wire Wire Line
	7400 8850 7400 9250
Wire Wire Line
	7750 8850 7400 8850
Wire Wire Line
	7750 8900 7750 8850
Wire Wire Line
	3200 10550 3200 10750
Wire Wire Line
	2150 10550 2750 10550
Wire Wire Line
	7350 9700 6800 9700
Wire Wire Line
	7350 9750 7350 9700
Wire Wire Line
	7900 8350 7550 8350
Wire Wire Line
	7900 8750 7900 8350
Wire Wire Line
	6800 8750 7900 8750
Wire Wire Line
	6800 9700 6800 8750
Wire Wire Line
	7350 9750 7550 9750
Wire Wire Line
	7150 10350 7550 10350
Wire Wire Line
	7150 10150 7150 10350
Wire Wire Line
	4950 10150 7150 10150
Wire Bus Line
	7050 10350 7050 10450
Wire Wire Line
	6100 10050 7550 10050
Wire Wire Line
	6100 10350 6100 10050
Wire Wire Line
	4950 10350 6100 10350
Wire Wire Line
	4950 9950 7550 9950
Wire Wire Line
	7250 10150 7250 9750
Wire Wire Line
	7550 10150 7250 10150
Wire Wire Line
	7250 9750 4950 9750
Wire Wire Line
	7550 10550 7150 10550
Wire Wire Line
	7150 10450 7550 10450
Wire Bus Line
	6750 10350 7050 10350
Wire Wire Line
	9750 3350 10150 3350
Wire Wire Line
	10150 3250 9750 3250
Wire Wire Line
	9750 3150 10150 3150
Wire Wire Line
	10150 3050 9750 3050
Wire Bus Line
	10550 2950 10250 2950
Wire Wire Line
	9750 5900 10150 5900
Wire Wire Line
	10150 5800 9750 5800
Wire Wire Line
	9750 5700 10150 5700
Wire Wire Line
	10150 5600 9750 5600
Wire Bus Line
	10550 5500 10250 5500
Wire Bus Line
	13100 3300 12850 3300
Wire Wire Line
	13500 3700 13200 3700
Wire Wire Line
	13500 3400 13500 3700
Wire Wire Line
	14700 3400 13500 3400
Wire Wire Line
	13450 3600 13200 3600
Wire Wire Line
	13450 3300 13450 3600
Wire Wire Line
	14300 3300 13450 3300
Wire Wire Line
	14300 3200 14300 3300
Wire Wire Line
	14700 3200 14300 3200
Wire Wire Line
	13400 3500 13200 3500
Wire Wire Line
	13400 3200 13400 3500
Wire Wire Line
	14200 3200 13400 3200
Wire Wire Line
	14200 3000 14200 3200
Wire Wire Line
	14700 3000 14200 3000
Wire Wire Line
	13350 3400 13200 3400
Wire Wire Line
	13350 3150 13350 3400
Wire Wire Line
	14150 3150 13350 3150
Wire Wire Line
	14150 2800 14150 3150
Wire Wire Line
	14700 2800 14150 2800
Wire Wire Line
	10300 6900 9750 6900
Wire Wire Line
	10300 4350 9750 4350
Wire Wire Line
	14550 2900 14700 2900
Connection ~ 8150 7400
Wire Wire Line
	9900 7550 8150 7550
Wire Wire Line
	9900 7000 9900 7550
Wire Wire Line
	9750 7000 9900 7000
Wire Wire Line
	8150 7300 8350 7300
Wire Wire Line
	8150 7550 8150 7400
Wire Wire Line
	7950 7400 8150 7400
Wire Wire Line
	7950 7350 7950 7400
Connection ~ 8250 4900
Wire Wire Line
	9850 4450 9750 4450
Wire Wire Line
	9850 4900 9850 4450
Wire Wire Line
	8250 4750 8350 4750
Wire Wire Line
	8250 4900 8250 4750
Wire Wire Line
	8050 4900 8250 4900
Wire Wire Line
	8050 4800 8050 4900
Wire Wire Line
	9750 4650 10450 4650
Wire Wire Line
	9750 7200 10450 7200
Wire Wire Line
	9950 7100 9750 7100
Wire Wire Line
	8250 2850 8350 2850
Wire Wire Line
	8250 2600 8250 2850
Wire Wire Line
	8050 2600 8250 2600
Wire Wire Line
	8050 2750 8050 2600
Wire Wire Line
	8200 5200 8200 5400
Wire Wire Line
	8000 5200 8200 5200
Wire Wire Line
	8000 5300 8000 5200
Wire Wire Line
	8200 5400 8350 5400
Wire Wire Line
	9950 4550 9750 4550
Connection ~ 7900 1150
Wire Wire Line
	7900 1950 8200 1950
Wire Wire Line
	7900 1150 7900 1950
Connection ~ 8000 1050
Wire Wire Line
	8000 1750 8200 1750
Wire Wire Line
	8000 1050 8000 1750
Wire Wire Line
	6500 3650 8350 3650
Wire Wire Line
	6500 3750 6500 3650
Wire Wire Line
	5350 3750 6500 3750
Wire Wire Line
	6450 3550 8350 3550
Wire Wire Line
	6450 3650 6450 3550
Wire Wire Line
	5350 3650 6450 3650
Wire Wire Line
	6400 3450 8350 3450
Wire Wire Line
	6400 3550 6400 3450
Wire Wire Line
	5350 3550 6400 3550
Wire Wire Line
	6350 3350 8350 3350
Wire Wire Line
	6350 3450 6350 3350
Wire Wire Line
	5350 3450 6350 3450
Wire Wire Line
	6300 3250 8350 3250
Wire Wire Line
	6300 3350 6300 3250
Wire Wire Line
	5350 3350 6300 3350
Wire Wire Line
	6250 3150 8350 3150
Wire Wire Line
	6250 3250 6250 3150
Wire Wire Line
	5350 3250 6250 3250
Wire Wire Line
	6200 3150 5350 3150
Wire Wire Line
	6200 3050 6200 3150
Wire Wire Line
	8350 3050 6200 3050
Wire Wire Line
	6150 3050 5350 3050
Wire Wire Line
	6150 2950 6150 3050
Wire Wire Line
	8350 2950 6150 2950
Connection ~ 5700 2500
Wire Wire Line
	5900 2500 5700 2500
Wire Wire Line
	5900 2550 5900 2500
Wire Wire Line
	5700 2550 5700 2500
Connection ~ 5900 3900
Wire Wire Line
	5900 2850 5900 3900
Connection ~ 5700 3800
Wire Wire Line
	5700 2850 5700 3800
Wire Wire Line
	6500 4700 6500 4600
Wire Wire Line
	6050 4700 6500 4700
Wire Wire Line
	6500 3900 6500 4050
Wire Wire Line
	6050 3900 6500 3900
Wire Wire Line
	6050 4600 6050 4700
Wire Wire Line
	6050 3900 6050 4000
Wire Wire Line
	5700 4250 5350 4250
Wire Wire Line
	5700 3900 5700 4250
Wire Wire Line
	5950 3900 5900 3900
Wire Wire Line
	5950 4000 5950 3900
Wire Wire Line
	6150 3800 6150 4000
Wire Wire Line
	5650 3800 5700 3800
Wire Wire Line
	5650 4350 5350 4350
Wire Wire Line
	5650 3800 5650 4350
Wire Bus Line
	10350 6000 10650 6000
Wire Wire Line
	9750 6800 10250 6800
Wire Wire Line
	9750 6700 10250 6700
Wire Wire Line
	9750 6600 10250 6600
Wire Wire Line
	9750 6500 10250 6500
Wire Wire Line
	9750 6400 10250 6400
Wire Wire Line
	10250 6300 9750 6300
Wire Wire Line
	9750 6200 10250 6200
Wire Wire Line
	10250 6100 9750 6100
Wire Wire Line
	9750 3550 10250 3550
Wire Wire Line
	9750 3650 10250 3650
Wire Wire Line
	9750 3750 10250 3750
Wire Wire Line
	9750 3850 10250 3850
Wire Wire Line
	9750 3950 10250 3950
Wire Wire Line
	9750 4050 10250 4050
Wire Wire Line
	9750 4150 10250 4150
Wire Wire Line
	9750 4250 10250 4250
Wire Bus Line
	10350 3450 10550 3450
Wire Wire Line
	11800 2900 12150 2900
Wire Wire Line
	11800 2800 12150 2800
Wire Wire Line
	11800 2700 12150 2700
Wire Wire Line
	11800 2600 12150 2600
Wire Wire Line
	11800 2500 12150 2500
Wire Wire Line
	11800 2400 12150 2400
Wire Wire Line
	11800 2300 12150 2300
Wire Wire Line
	11800 2200 12150 2200
Wire Wire Line
	12000 2000 12000 2050
Wire Wire Line
	11850 2000 12000 2000
Wire Bus Line
	11700 2100 11350 2100
Wire Wire Line
	9150 9550 8950 9550
Wire Wire Line
	9150 9650 8950 9650
Wire Wire Line
	9150 9750 8950 9750
Wire Wire Line
	9150 9850 8950 9850
Wire Wire Line
	9150 9950 8950 9950
Wire Wire Line
	9150 10050 8950 10050
Wire Wire Line
	9150 10150 8950 10150
Wire Wire Line
	9150 10250 8950 10250
Wire Bus Line
	9250 9350 9650 9350
Wire Wire Line
	9350 8850 9350 10550
Wire Wire Line
	9350 10550 8950 10550
Wire Wire Line
	7300 9350 7300 9100
Wire Wire Line
	7550 9350 7300 9350
Wire Wire Line
	7550 9450 7450 9450
Connection ~ 7850 950 
Wire Wire Line
	7850 800  7850 950 
Wire Wire Line
	7950 800  7850 800 
Wire Wire Line
	6300 1600 6650 1600
Wire Wire Line
	6300 1500 6650 1500
Wire Wire Line
	6300 1400 6650 1400
Wire Wire Line
	6300 1050 6650 1050
Wire Wire Line
	6550 1150 6550 850 
Wire Wire Line
	6650 1150 6550 1150
Wire Wire Line
	13900 4200 14700 4200
Wire Wire Line
	13200 4000 14700 4000
Wire Wire Line
	13700 3800 14700 3800
Wire Wire Line
	13600 3600 14700 3600
Wire Wire Line
	6100 950  6650 950 
Wire Wire Line
	14200 3900 14700 3900
Connection ~ 8500 1550
Wire Wire Line
	8500 1650 8900 1650
Connection ~ 8500 1450
Wire Wire Line
	8500 1550 8900 1550
Connection ~ 8500 1350
Wire Wire Line
	8500 1450 8900 1450
Connection ~ 8500 1250
Wire Wire Line
	8500 1350 8900 1350
Wire Wire Line
	8500 850  8500 1250
Wire Wire Line
	8900 1250 8500 1250
Wire Wire Line
	7750 1150 7900 1150
Wire Wire Line
	7750 1050 8000 1050
Wire Wire Line
	7750 950  7850 950 
Wire Wire Line
	11850 1900 12150 1900
Wire Wire Line
	11350 1300 11850 1300
Connection ~ 10150 1300
Wire Wire Line
	10150 1400 10350 1400
Wire Wire Line
	10150 1200 10350 1200
Wire Wire Line
	10150 1200 10150 1300
Wire Wire Line
	9900 1300 10150 1300
Wire Wire Line
	12000 2050 12150 2050
Wire Wire Line
	14700 2700 14550 2700
Wire Wire Line
	13250 2900 14050 2900
Wire Wire Line
	13250 2800 13950 2800
Wire Wire Line
	13250 2700 13850 2700
Wire Wire Line
	13250 2600 13750 2600
Wire Wire Line
	13250 2500 13650 2500
Wire Wire Line
	13250 2400 13550 2400
Wire Wire Line
	13450 2300 13250 2300
Wire Wire Line
	13350 2200 13250 2200
Wire Wire Line
	14050 2600 14700 2600
Wire Wire Line
	14050 2900 14050 2600
Wire Wire Line
	13950 2500 14700 2500
Wire Wire Line
	13950 2800 13950 2500
Wire Wire Line
	13850 2400 14700 2400
Wire Wire Line
	13850 2700 13850 2400
Wire Wire Line
	13750 2300 14700 2300
Wire Wire Line
	13750 2600 13750 2300
Wire Wire Line
	13650 2200 14700 2200
Wire Wire Line
	13650 2500 13650 2200
Wire Wire Line
	13550 2100 14700 2100
Wire Wire Line
	13550 2400 13550 2100
Wire Wire Line
	13450 2000 14700 2000
Wire Wire Line
	13450 2300 13450 2000
Wire Wire Line
	13350 1900 13350 2200
Wire Wire Line
	13350 1900 14700 1900
Wire Wire Line
	3750 4550 3500 4550
Wire Wire Line
	3500 4550 3500 4650
Wire Wire Line
	3500 4650 3750 4650
Connection ~ 3500 4650
Wire Wire Line
	3750 3050 3450 3050
Wire Wire Line
	3450 2950 3450 3050
Wire Wire Line
	3450 3350 3750 3350
Connection ~ 3450 3050
Wire Wire Line
	12900 1700 12900 1800
Wire Wire Line
	12750 1800 12750 1500
Wire Wire Line
	12750 1500 12550 1500
Wire Wire Line
	12550 1500 12550 1550
Wire Wire Line
	7200 800  7200 850 
Wire Wire Line
	7200 1850 7200 1750
Wire Wire Line
	10850 1000 10850 1050
Wire Wire Line
	10850 1550 10850 1600
Wire Wire Line
	9400 850  9400 900 
Wire Wire Line
	9400 1750 9400 1700
Wire Wire Line
	11050 9400 11050 9300
Wire Wire Line
	11050 8700 11050 8800
Wire Wire Line
	11050 8800 11350 8800
Connection ~ 11050 8800
Wire Wire Line
	11350 8800 11350 8900
Wire Wire Line
	11650 8800 11650 8900
Connection ~ 11350 8800
Wire Wire Line
	11950 8800 11950 8900
Connection ~ 11650 8800
Wire Wire Line
	12250 8800 12250 8900
Connection ~ 11950 8800
Wire Wire Line
	12550 8800 12550 8900
Connection ~ 12250 8800
Wire Wire Line
	12850 8800 12850 8900
Connection ~ 12550 8800
Wire Wire Line
	13150 8800 13150 8900
Connection ~ 12850 8800
Wire Wire Line
	13650 8800 13650 8900
Connection ~ 13150 8800
Wire Wire Line
	11050 9300 11350 9300
Wire Wire Line
	11350 9300 11350 9200
Connection ~ 11050 9300
Wire Wire Line
	11650 9300 11650 9200
Connection ~ 11350 9300
Wire Wire Line
	11950 9300 11950 9200
Connection ~ 11650 9300
Wire Wire Line
	12250 9300 12250 9200
Connection ~ 11950 9300
Wire Wire Line
	12550 9300 12550 9200
Connection ~ 12250 9300
Wire Wire Line
	12850 9300 12850 9200
Connection ~ 12550 9300
Wire Wire Line
	13150 9300 13150 9200
Connection ~ 12850 9300
Wire Wire Line
	13650 9300 13650 9200
Connection ~ 13150 9300
Wire Wire Line
	7550 9550 6700 9550
Wire Wire Line
	9750 6000 10300 6000
Wire Wire Line
	10300 6000 10300 5850
Wire Wire Line
	10300 5850 10650 5850
Wire Wire Line
	9750 3450 10300 3450
Wire Wire Line
	10300 3450 10300 3300
Wire Wire Line
	10300 3300 10550 3300
Wire Wire Line
	14700 3700 14200 3700
Wire Wire Line
	9000 9050 9000 9250
Wire Wire Line
	9000 9250 8950 9250
Wire Wire Line
	8950 9350 9050 9350
Wire Wire Line
	9050 9350 9050 9150
Wire Wire Line
	9050 9150 9650 9150
Wire Wire Line
	9450 9250 9100 9250
Wire Wire Line
	9100 9250 9100 9450
Wire Wire Line
	9100 9450 8950 9450
Wire Wire Line
	9750 7300 9950 7300
Wire Wire Line
	14550 3100 14700 3100
Wire Wire Line
	14550 3300 14700 3300
Wire Wire Line
	5350 4650 5400 4650
Wire Wire Line
	5400 4650 5400 5100
Wire Wire Line
	5400 5100 6150 5100
Text GLabel 6150 4800 2    50   Input ~ 0
PS2_RDY
Text GLabel 6150 4950 2    50   Input ~ 0
PS2_ACK
Wire Wire Line
	5350 4550 5500 4550
Wire Wire Line
	5500 4550 5500 4950
Wire Wire Line
	5500 4950 6150 4950
Wire Wire Line
	5350 4450 5600 4450
Wire Wire Line
	5600 4450 5600 4800
Wire Wire Line
	5600 4800 6150 4800
Text GLabel 10550 2650 2    50   Input ~ 0
PS2_RDY
Text GLabel 10550 2800 2    50   Input ~ 0
PS2_ACK
Wire Wire Line
	9750 2950 10150 2950
Wire Wire Line
	10150 2950 10150 2800
Wire Wire Line
	10150 2800 10550 2800
Wire Wire Line
	9750 2850 10050 2850
Wire Wire Line
	10050 2850 10050 2650
Wire Wire Line
	10050 2650 10550 2650
Wire Wire Line
	2750 10550 3200 10550
Wire Wire Line
	3200 10550 3350 10550
Wire Wire Line
	5050 8750 5050 8600
Wire Wire Line
	8150 7400 8150 7300
Wire Wire Line
	8250 4900 9850 4900
Wire Wire Line
	7900 1150 8900 1150
Wire Wire Line
	8000 1050 8900 1050
Wire Wire Line
	5700 2500 5700 2400
Wire Wire Line
	5900 3900 5700 3900
Wire Wire Line
	5700 3800 6150 3800
Wire Wire Line
	7850 950  8900 950 
Wire Wire Line
	8500 1550 8500 1650
Wire Wire Line
	8500 1450 8500 1550
Wire Wire Line
	8500 1350 8500 1450
Wire Wire Line
	8500 1250 8500 1350
Wire Wire Line
	10150 1300 10150 1400
Wire Wire Line
	3500 4650 3500 4850
Wire Wire Line
	3450 3050 3450 3350
Wire Wire Line
	11050 8800 11050 8900
Wire Wire Line
	11350 8800 11650 8800
Wire Wire Line
	11650 8800 11950 8800
Wire Wire Line
	11950 8800 12250 8800
Wire Wire Line
	12250 8800 12550 8800
Wire Wire Line
	12550 8800 12850 8800
Wire Wire Line
	12850 8800 13150 8800
Wire Wire Line
	13150 8800 13650 8800
Wire Wire Line
	11050 9300 11050 9200
Wire Wire Line
	11350 9300 11650 9300
Wire Wire Line
	11650 9300 11950 9300
Wire Wire Line
	11950 9300 12250 9300
Wire Wire Line
	12250 9300 12550 9300
Wire Wire Line
	12550 9300 12850 9300
Wire Wire Line
	12850 9300 13150 9300
Wire Wire Line
	13150 9300 13650 9300
Wire Wire Line
	9950 4750 9750 4750
Text GLabel 9450 9050 2    50   Input ~ 0
R_~W
Wire Wire Line
	9450 9050 9000 9050
Text GLabel 8200 1750 2    50   Output ~ 0
~CS_6522_1
Text GLabel 8200 1950 2    50   Output ~ 0
~CS_6522_2
Wire Wire Line
	14100 1000 14100 1100
Wire Wire Line
	14100 1400 14100 1550
$Comp
L 65xx-Computer:D_TVS_UNI D1
U 1 1 59EFA4EC
P 14100 1250
F 0 "D1" H 14100 1350 50  0000 C CNN
F 1 "P6KE6,8A" H 14100 1150 50  0000 C CNN
F 2 "" H 14100 1250 50  0001 C CNN
F 3 "" H 14100 1250 50  0001 C CNN
	1    14100 1250
	0    -1   -1   0   
$EndComp
Wire Wire Line
	11850 1300 11850 1900
Wire Wire Line
	8350 6300 7450 6300
Connection ~ 7450 6300
Wire Wire Line
	7450 6200 7450 6300
$Comp
L 65xx-Computer:74LS00 U4
U 2 1 59EFCFB3
P 6950 6300
F 0 "U4" H 7200 6600 50  0000 C CNN
F 1 "74LS00" H 7150 6000 50  0000 C CNN
F 2 "" H 6950 6300 60  0001 C CNN
F 3 "" H 6950 6300 60  0001 C CNN
	2    6950 6300
	-1   0    0    1   
$EndComp
Wire Wire Line
	7450 6300 7450 6400
Wire Wire Line
	6450 6300 5650 6300
Text GLabel 5650 6300 0    50   Output ~ 0
RAM_ENABLE
Text GLabel 14250 4500 0    50   Input ~ 0
RAM_ENABLE
Wire Wire Line
	14700 3500 14300 3500
Wire Wire Line
	14700 4500 14250 4500
$Comp
L 65xx-Computer:DB25_Male J1
U 1 1 59F1A5E1
P 1650 9150
F 0 "J1" H 1650 10500 50  0000 C CNN
F 1 "DB25_Male" H 1650 7775 50  0000 C CNN
F 2 "" H 1650 9150 50  0001 C CNN
F 3 "" H 1650 9150 50  0001 C CNN
	1    1650 9150
	-1   0    0    -1  
$EndComp
$Comp
L Connector:DB9_Male J?
U 1 1 601D1DBA
P 1700 6400
F 0 "J?" H 1618 7092 50  0000 C CNN
F 1 "DB9_Male" H 1618 7001 50  0000 C CNN
F 2 "" H 1700 6400 50  0001 C CNN
F 3 " ~" H 1700 6400 50  0001 C CNN
	1    1700 6400
	-1   0    0    -1  
$EndComp
Text Notes 1550 5550 0    50   ~ 0
Atari Joystick Port\nDB-9
Wire Wire Line
	2000 6500 2850 6500
Wire Wire Line
	2850 6500 2850 5500
Wire Wire Line
	2000 6300 2750 6300
Wire Wire Line
	2750 6300 2750 7250
$Comp
L power1:GNDD #PWR?
U 1 1 60227EAA
P 2750 7250
F 0 "#PWR?" H 2750 7000 50  0001 C CNN
F 1 "GNDD" H 2750 7125 50  0000 C CNN
F 2 "" H 2750 7250 50  0001 C CNN
F 3 "" H 2750 7250 50  0001 C CNN
	1    2750 7250
	1    0    0    -1  
$EndComp
$Comp
L power1:+5V #PWR?
U 1 1 602284BD
P 2850 5450
F 0 "#PWR?" H 2850 5300 50  0001 C CNN
F 1 "+5V" H 2850 5590 50  0000 C CNN
F 2 "" H 2850 5450 50  0001 C CNN
F 3 "" H 2850 5450 50  0001 C CNN
	1    2850 5450
	1    0    0    -1  
$EndComp
Wire Wire Line
	2000 6800 3750 6800
Wire Wire Line
	2000 6600 3350 6600
Wire Wire Line
	2000 6400 3150 6400
Wire Wire Line
	2000 6700 3550 6700
Text GLabel 3900 6200 2    50   Input ~ 0
JOY_RIGHT
Text GLabel 3900 6400 2    50   Input ~ 0
JOY_LEFT
Text GLabel 3900 6600 2    50   Input ~ 0
JOY_DOWN
Text GLabel 3900 6700 2    50   Input ~ 0
JOY_BUTTON
Text GLabel 3900 6800 2    50   Input ~ 0
JOY_UP
Text GLabel 7350 4050 0    50   Input ~ 0
JOY_RIGHT
Text GLabel 7350 3750 0    50   Input ~ 0
JOY_UP
Text GLabel 7350 3850 0    50   Input ~ 0
JOY_DOWN
Text GLabel 7350 3950 0    50   Input ~ 0
JOY_LEFT
Text GLabel 7350 4150 0    50   Input ~ 0
JOY_BUTTON
Wire Wire Line
	8350 3750 7350 3750
Wire Wire Line
	8350 3850 7350 3850
Wire Wire Line
	8350 3950 7350 3950
Wire Wire Line
	8350 4050 7350 4050
Wire Wire Line
	8350 4150 7350 4150
$Comp
L device:R R?
U 1 1 60697721
P 2950 5700
F 0 "R?" V 3030 5700 50  0000 C CNN
F 1 "4K7" V 2950 5700 50  0000 C CNN
F 2 "" V 2880 5700 50  0001 C CNN
F 3 "" H 2950 5700 50  0001 C CNN
	1    2950 5700
	1    0    0    -1  
$EndComp
$Comp
L device:R R?
U 1 1 60697DA7
P 3150 5700
F 0 "R?" V 3230 5700 50  0000 C CNN
F 1 "4K7" V 3150 5700 50  0000 C CNN
F 2 "" V 3080 5700 50  0001 C CNN
F 3 "" H 3150 5700 50  0001 C CNN
	1    3150 5700
	1    0    0    -1  
$EndComp
$Comp
L device:R R?
U 1 1 60697F42
P 3350 5700
F 0 "R?" V 3430 5700 50  0000 C CNN
F 1 "4K7" V 3350 5700 50  0000 C CNN
F 2 "" V 3280 5700 50  0001 C CNN
F 3 "" H 3350 5700 50  0001 C CNN
	1    3350 5700
	1    0    0    -1  
$EndComp
$Comp
L device:R R?
U 1 1 60698561
P 3550 5700
F 0 "R?" V 3630 5700 50  0000 C CNN
F 1 "4K7" V 3550 5700 50  0000 C CNN
F 2 "" V 3480 5700 50  0001 C CNN
F 3 "" H 3550 5700 50  0001 C CNN
	1    3550 5700
	1    0    0    -1  
$EndComp
Wire Wire Line
	2850 5500 2950 5500
Wire Wire Line
	2950 5500 2950 5550
Connection ~ 2850 5500
Wire Wire Line
	2850 5500 2850 5450
Wire Wire Line
	2950 5500 3150 5500
Wire Wire Line
	3150 5500 3150 5550
Connection ~ 2950 5500
Wire Wire Line
	3150 5500 3350 5500
Wire Wire Line
	3550 5500 3550 5550
Connection ~ 3150 5500
Wire Wire Line
	3350 5550 3350 5500
Connection ~ 3350 5500
Wire Wire Line
	3350 5500 3550 5500
Wire Wire Line
	2950 5850 2950 6200
Wire Wire Line
	2000 6200 2950 6200
Connection ~ 2950 6200
Wire Wire Line
	2950 6200 3900 6200
Wire Wire Line
	3150 5850 3150 6400
Connection ~ 3150 6400
Wire Wire Line
	3150 6400 3900 6400
Wire Wire Line
	3350 5850 3350 6600
Connection ~ 3350 6600
Wire Wire Line
	3350 6600 3900 6600
Wire Wire Line
	3550 5850 3550 6700
Connection ~ 3550 6700
Wire Wire Line
	3550 6700 3900 6700
$Comp
L device:R R?
U 1 1 609E506C
P 3750 5700
F 0 "R?" V 3830 5700 50  0000 C CNN
F 1 "4K7" V 3750 5700 50  0000 C CNN
F 2 "" V 3680 5700 50  0001 C CNN
F 3 "" H 3750 5700 50  0001 C CNN
	1    3750 5700
	1    0    0    -1  
$EndComp
Wire Wire Line
	3550 5500 3750 5500
Wire Wire Line
	3750 5500 3750 5550
Connection ~ 3550 5500
Wire Wire Line
	3750 5850 3750 6800
Wire Bus Line
	10250 5500 10250 5800
Wire Bus Line
	10250 2950 10250 3250
Wire Bus Line
	6200 1150 6200 1500
Wire Bus Line
	10350 3450 10350 4150
Wire Bus Line
	11700 2100 11700 2800
Wire Bus Line
	10350 6000 10350 6700
Wire Bus Line
	13100 3300 13100 4000
Wire Bus Line
	9250 9350 9250 10150
Connection ~ 3750 6800
Wire Wire Line
	3750 6800 3900 6800
$EndSCHEMATC
