EESchema Schematic File Version 4
EELAYER 30 0
EELAYER END
$Descr A3 16535 11693
encoding utf-8
Sheet 1 1
Title "Oak-65XX-RAM"
Date "2021-01-17"
Rev "0.2"
Comp "Uwe Gottschling"
Comment1 ""
Comment2 ""
Comment3 ""
Comment4 ""
$EndDescr
$Comp
L 65xx-Computer:D_TVS_UNI D1
U 1 1 59EFA4EC
P 14150 1100
F 0 "D1" H 14150 1200 50  0000 C CNN
F 1 "P6KE6,8A" H 14150 1000 50  0000 C CNN
F 2 "" H 14150 1100 50  0001 C CNN
F 3 "" H 14150 1100 50  0001 C CNN
	1    14150 1100
	0    -1   -1   0   
$EndComp
$Comp
L 65xx-RAM-rescue:C64AC_DIN41612_BUS-RESCUE-65xx-RAM X1
U 1 1 59EFA531
P 15300 4850
F 0 "X1" H 15200 8150 50  0000 C CNN
F 1 "C64AC_DIN41612_BUS" V 15700 4800 50  0000 C CNN
F 2 "" H 15200 4850 50  0001 C CNN
F 3 "" H 15200 4850 50  0001 C CNN
	1    15300 4850
	1    0    0    -1  
$EndComp
$Comp
L power1:+5V #PWR018
U 1 1 59EFB08C
P 14150 850
F 0 "#PWR018" H 14150 700 50  0001 C CNN
F 1 "+5V" H 14150 990 50  0000 C CNN
F 2 "" H 14150 850 50  0001 C CNN
F 3 "" H 14150 850 50  0001 C CNN
	1    14150 850 
	1    0    0    -1  
$EndComp
$Comp
L power1:GNDD #PWR017
U 1 1 59EFB0C4
P 14150 1400
F 0 "#PWR017" H 14150 1150 50  0001 C CNN
F 1 "GNDD" H 14150 1275 50  0000 C CNN
F 2 "" H 14150 1400 50  0001 C CNN
F 3 "" H 14150 1400 50  0001 C CNN
	1    14150 1400
	1    0    0    -1  
$EndComp
$Comp
L 65xx-Computer:74HCT245 U10
U 1 1 59EFB954
P 12700 2450
F 0 "U10" H 13000 2950 50  0000 L CNN
F 1 "74HCT245" H 12800 1850 50  0000 L CNN
F 2 "" H 12700 2450 60  0001 C CNN
F 3 "" H 12700 2450 60  0001 C CNN
	1    12700 2450
	1    0    0    -1  
$EndComp
Text GLabel 14550 2700 0    50   Output ~ 0
R_~W
Text GLabel 11850 2000 0    50   Input ~ 0
R_~W
Text GLabel 11350 2100 0    50   BiDi ~ 0
DATABUS
Text Label 12000 2200 0    50   ~ 0
D0
Text Label 12000 2300 0    50   ~ 0
D1
Text Label 12000 2400 0    50   ~ 0
D2
Text Label 12000 2500 0    50   ~ 0
D3
Text Label 12000 2600 0    50   ~ 0
D4
Text Label 12000 2700 0    50   ~ 0
D5
Text Label 12000 2800 0    50   ~ 0
D6
Text Label 12000 2900 0    50   ~ 0
D7
Entry Wire Line
	11700 2100 11800 2200
Entry Wire Line
	11700 2200 11800 2300
Entry Wire Line
	11700 2300 11800 2400
Entry Wire Line
	11700 2400 11800 2500
Entry Wire Line
	11700 2500 11800 2600
Entry Wire Line
	11700 2600 11800 2700
Entry Wire Line
	11700 2700 11800 2800
Entry Wire Line
	11700 2800 11800 2900
Text GLabel 14550 2900 0    50   Output ~ 0
PHI2
Entry Wire Line
	13100 3300 13200 3400
Entry Wire Line
	13100 3400 13200 3500
Entry Wire Line
	13100 3500 13200 3600
Entry Wire Line
	13100 3600 13200 3700
Text GLabel 12850 3300 0    50   Output ~ 0
ADDRESSBUS
Text Label 13250 3400 0    50   ~ 0
A0
Text Label 13250 3500 0    50   ~ 0
A1
Text Label 13250 3600 0    50   ~ 0
A2
Text Label 13250 3700 0    50   ~ 0
A3
$Comp
L 65xx-Computer:AT28C64B U3
U 1 1 59F49CD5
P 7600 5900
F 0 "U3" H 7350 6900 50  0000 C CNN
F 1 "AT28C64B" H 7850 4900 50  0000 C CNN
F 2 "" H 7600 5900 50  0001 C CNN
F 3 "" H 7600 5900 50  0001 C CNN
	1    7600 5900
	1    0    0    -1  
$EndComp
$Comp
L 65xx-Computer:AT28C64B U2
U 1 1 59F49D4A
P 7600 3200
F 0 "U2" H 7350 4200 50  0000 C CNN
F 1 "AT28C64B" H 7850 2200 50  0000 C CNN
F 2 "" H 7600 3200 50  0001 C CNN
F 3 "" H 7600 3200 50  0001 C CNN
	1    7600 3200
	1    0    0    -1  
$EndComp
$Comp
L 65xx-Computer:UM62256D-70LL U4
U 1 1 59F49DF1
P 7600 8600
F 0 "U4" H 7300 9500 50  0000 C CNN
F 1 "UM62256D-70LL" H 8000 7800 50  0000 C CNN
F 2 "DIP28" H 7600 8600 50  0001 C CIN
F 3 "" H 7600 8600 50  0001 C CNN
	1    7600 8600
	1    0    0    -1  
$EndComp
Entry Wire Line
	13100 3700 13200 3800
Entry Wire Line
	13100 3800 13200 3900
Entry Wire Line
	13100 3900 13200 4000
Entry Wire Line
	13100 5700 13200 5800
Entry Wire Line
	13100 5500 13200 5600
Entry Wire Line
	13100 5300 13200 5400
Entry Wire Line
	13100 5100 13200 5200
Entry Wire Line
	13100 4900 13200 5000
Entry Wire Line
	13100 4700 13200 4800
Entry Wire Line
	13100 4500 13200 4600
Entry Wire Line
	13100 4300 13200 4400
Entry Wire Line
	13100 4100 13200 4200
Text Label 13250 3800 0    50   ~ 0
A4
Text Label 13250 3900 0    50   ~ 0
A5
Text Label 13250 4000 0    50   ~ 0
A6
Text Label 13250 4200 0    50   ~ 0
A7
Text Label 13250 4400 0    50   ~ 0
A8
Text Label 13250 4600 0    50   ~ 0
A9
Text Label 13250 4800 0    50   ~ 0
A10
Text Label 13250 5000 0    50   ~ 0
A11
Text Label 13250 5200 0    50   ~ 0
A12
Text Label 13250 5400 0    50   ~ 0
A13
Text Label 13250 5600 0    50   ~ 0
A14
Text Label 13250 5800 0    50   ~ 0
A15
Text GLabel 6300 1100 0    50   Input ~ 0
ADDRESSBUS
Entry Wire Line
	6500 2200 6600 2300
Entry Wire Line
	6500 2200 6600 2300
Entry Wire Line
	6500 2300 6600 2400
Entry Wire Line
	6500 2400 6600 2500
Entry Wire Line
	6500 2500 6600 2600
Entry Wire Line
	6500 2600 6600 2700
Entry Wire Line
	6500 2700 6600 2800
Entry Wire Line
	6500 2800 6600 2900
Entry Wire Line
	6500 2900 6600 3000
Entry Wire Line
	6500 3000 6600 3100
Entry Wire Line
	6500 3100 6600 3200
Entry Wire Line
	6500 3200 6600 3300
Entry Wire Line
	6500 3300 6600 3400
Entry Wire Line
	6500 3400 6600 3500
Entry Wire Line
	6500 4900 6600 5000
Entry Wire Line
	6500 5000 6600 5100
Entry Wire Line
	6500 5100 6600 5200
Entry Wire Line
	6500 5200 6600 5300
Entry Wire Line
	6500 5300 6600 5400
Entry Wire Line
	6500 5400 6600 5500
Entry Wire Line
	6500 5500 6600 5600
Entry Wire Line
	6500 5600 6600 5700
Entry Wire Line
	6500 5700 6600 5800
Entry Wire Line
	6500 5800 6600 5900
Entry Wire Line
	6500 5900 6600 6000
Entry Wire Line
	6500 6000 6600 6100
Entry Wire Line
	6500 6100 6600 6200
Entry Wire Line
	6500 7750 6600 7850
Entry Wire Line
	6500 7850 6600 7950
Entry Wire Line
	6500 7950 6600 8050
Entry Wire Line
	6500 8050 6600 8150
Entry Wire Line
	6500 8150 6600 8250
Entry Wire Line
	6500 8250 6600 8350
Entry Wire Line
	6500 8350 6600 8450
Entry Wire Line
	6500 8450 6600 8550
Entry Wire Line
	6500 8550 6600 8650
Entry Wire Line
	6500 8650 6600 8750
Entry Wire Line
	6500 8750 6600 8850
Entry Wire Line
	6500 8850 6600 8950
Entry Wire Line
	6500 8950 6600 9050
Entry Wire Line
	6500 9050 6600 9150
Entry Wire Line
	6500 9150 6600 9250
Entry Wire Line
	8600 8550 8700 8450
Entry Wire Line
	8600 8450 8700 8350
Entry Wire Line
	8600 8350 8700 8250
Entry Wire Line
	8600 8250 8700 8150
Entry Wire Line
	8600 8150 8700 8050
Entry Wire Line
	8600 8050 8700 7950
Entry Wire Line
	8600 7950 8700 7850
Entry Wire Line
	8600 7850 8700 7750
Entry Wire Line
	8600 5700 8700 5600
Entry Wire Line
	8600 5600 8700 5500
Entry Wire Line
	8600 5500 8700 5400
Entry Wire Line
	8600 5400 8700 5300
Entry Wire Line
	8600 5300 8700 5200
Entry Wire Line
	8600 5200 8700 5100
Entry Wire Line
	8600 5100 8700 5000
Entry Wire Line
	8600 5000 8700 4900
Entry Wire Line
	8600 3000 8700 2900
Entry Wire Line
	8600 2900 8700 2800
Entry Wire Line
	8600 2800 8700 2700
Entry Wire Line
	8600 2600 8700 2500
Entry Wire Line
	8600 2600 8700 2500
Entry Wire Line
	8600 2500 8700 2400
Entry Wire Line
	8600 2400 8700 2300
Entry Wire Line
	8600 2300 8700 2200
Entry Wire Line
	8600 2700 8700 2600
Text Label 8350 2300 0    50   ~ 0
D0
Text Label 8350 2400 0    50   ~ 0
D1
Text Label 8350 2500 0    50   ~ 0
D2
Text Label 8350 2600 0    50   ~ 0
D3
Text Label 8350 2700 0    50   ~ 0
D4
Text Label 8350 2800 0    50   ~ 0
D5
Text Label 8350 2900 0    50   ~ 0
D6
Text Label 8350 3000 0    50   ~ 0
D7
Text Label 6700 2300 0    50   ~ 0
A0
Text Label 6700 2400 0    50   ~ 0
A1
Text Label 6700 2500 0    50   ~ 0
A2
Text Label 6700 2600 0    50   ~ 0
A3
Text Label 6700 2700 0    50   ~ 0
A4
Text Label 6700 2800 0    50   ~ 0
A5
Text Label 6700 2900 0    50   ~ 0
A6
Text Label 6700 3000 0    50   ~ 0
A7
Text Label 6700 3100 0    50   ~ 0
A8
Text Label 6700 3200 0    50   ~ 0
A9
Text Label 6700 3300 0    50   ~ 0
A10
Text Label 6700 3400 0    50   ~ 0
A11
Text Label 6700 3500 0    50   ~ 0
A12
Text Label 8350 5000 0    50   ~ 0
D0
Text Label 8350 5100 0    50   ~ 0
D1
Text Label 8350 5200 0    50   ~ 0
D2
Text Label 8350 5300 0    50   ~ 0
D3
Text Label 8350 5400 0    50   ~ 0
D4
Text Label 8350 5500 0    50   ~ 0
D5
Text Label 8350 5600 0    50   ~ 0
D6
Text Label 8350 5700 0    50   ~ 0
D7
Text Label 8350 7850 0    50   ~ 0
D0
Text Label 8350 7950 0    50   ~ 0
D1
Text Label 8350 8050 0    50   ~ 0
D2
Text Label 8350 8150 0    50   ~ 0
D3
Text Label 8350 8250 0    50   ~ 0
D4
Text Label 8350 8350 0    50   ~ 0
D5
Text Label 8350 8450 0    50   ~ 0
D6
Text Label 8350 8550 0    50   ~ 0
D7
Text Label 6700 5000 0    50   ~ 0
A0
Text Label 6700 5100 0    50   ~ 0
A1
Text Label 6700 5200 0    50   ~ 0
A2
Text Label 6700 5300 0    50   ~ 0
A3
Text Label 6700 5400 0    50   ~ 0
A4
Text Label 6700 5500 0    50   ~ 0
A5
Text Label 6700 5600 0    50   ~ 0
A6
Text Label 6700 5700 0    50   ~ 0
A7
Text Label 6700 5800 0    50   ~ 0
A8
Text Label 6700 5900 0    50   ~ 0
A9
Text Label 6700 6000 0    50   ~ 0
A10
Text Label 6700 6100 0    50   ~ 0
A11
Text Label 6700 6200 0    50   ~ 0
A12
Text Label 6700 7850 0    50   ~ 0
A0
Text Label 6700 7950 0    50   ~ 0
A1
Text Label 6700 8050 0    50   ~ 0
A2
Text Label 6700 8150 0    50   ~ 0
A3
Text Label 6700 8250 0    50   ~ 0
A4
Text Label 6700 8350 0    50   ~ 0
A5
Text Label 6700 8450 0    50   ~ 0
A6
Text Label 6700 8550 0    50   ~ 0
A7
Text Label 6700 8650 0    50   ~ 0
A8
Text Label 6700 8750 0    50   ~ 0
A9
Text Label 6700 8850 0    50   ~ 0
A10
Text Label 6700 8950 0    50   ~ 0
A11
Text Label 6700 9050 0    50   ~ 0
A12
Text Label 6700 9150 0    50   ~ 0
A13
Text Label 6700 9250 0    50   ~ 0
A14
Text GLabel 8900 2100 2    50   BiDi ~ 0
DATABUS
$Comp
L 65xx-Computer:74LS00 U1
U 1 1 59F4CA48
P 10950 1050
F 0 "U1" H 11200 1350 50  0000 C CNN
F 1 "74LS00" H 11150 750 50  0000 C CNN
F 2 "" H 10950 1050 60  0001 C CNN
F 3 "" H 10950 1050 60  0001 C CNN
	1    10950 1050
	1    0    0    -1  
$EndComp
Entry Wire Line
	6500 9550 6600 9650
Text Label 6700 9650 0    50   ~ 0
A15
Entry Wire Line
	6500 1200 6600 1300
Entry Wire Line
	6500 1300 6600 1400
Entry Wire Line
	6500 1400 6600 1500
Text Label 6700 1300 0    50   ~ 0
A13
Text Label 6700 1400 0    50   ~ 0
A14
Text Label 6700 1500 0    50   ~ 0
A15
Text GLabel 14550 3500 0    50   Output ~ 0
RAM_R_~W
Text GLabel 8700 8800 2    50   Input ~ 0
RAM_R_~W
Text GLabel 14550 4100 0    50   Output ~ 0
RAM_W_~R
Text GLabel 9700 1550 2    50   Output ~ 0
~BANK_7
Text GLabel 10050 1450 2    50   Output ~ 0
~BANK_6
Text GLabel 6150 4000 0    50   Input ~ 0
~BANK_7
Text GLabel 6150 6700 0    50   Input ~ 0
~BANK_6
$Comp
L power1:+5V #PWR03
U 1 1 59F4FEF5
P 6150 3350
F 0 "#PWR03" H 6150 3200 50  0001 C CNN
F 1 "+5V" H 6150 3490 50  0000 C CNN
F 2 "" H 6150 3350 50  0001 C CNN
F 3 "" H 6150 3350 50  0001 C CNN
	1    6150 3350
	1    0    0    -1  
$EndComp
Text Notes 7150 1950 0    50   ~ 0
8K KERNEL ROM\n$E000-$FFFF
$Comp
L power1:+5V #PWR04
U 1 1 59F63343
P 7600 2150
F 0 "#PWR04" H 7600 2000 50  0001 C CNN
F 1 "+5V" H 7600 2290 50  0000 C CNN
F 2 "" H 7600 2150 50  0001 C CNN
F 3 "" H 7600 2150 50  0001 C CNN
	1    7600 2150
	1    0    0    -1  
$EndComp
$Comp
L power1:GNDD #PWR05
U 1 1 59F6355D
P 7600 4300
F 0 "#PWR05" H 7600 4050 50  0001 C CNN
F 1 "GNDD" H 7600 4175 50  0000 C CNN
F 2 "" H 7600 4300 50  0001 C CNN
F 3 "" H 7600 4300 50  0001 C CNN
	1    7600 4300
	1    0    0    -1  
$EndComp
$Comp
L power1:GNDD #PWR07
U 1 1 59F63623
P 7600 6950
F 0 "#PWR07" H 7600 6700 50  0001 C CNN
F 1 "GNDD" H 7600 6825 50  0000 C CNN
F 2 "" H 7600 6950 50  0001 C CNN
F 3 "" H 7600 6950 50  0001 C CNN
	1    7600 6950
	1    0    0    -1  
$EndComp
$Comp
L power1:GNDD #PWR09
U 1 1 59F636D2
P 7600 9450
F 0 "#PWR09" H 7600 9200 50  0001 C CNN
F 1 "GNDD" H 7600 9325 50  0000 C CNN
F 2 "" H 7600 9450 50  0001 C CNN
F 3 "" H 7600 9450 50  0001 C CNN
	1    7600 9450
	1    0    0    -1  
$EndComp
$Comp
L power1:+5V #PWR06
U 1 1 59F6381C
P 7600 4850
F 0 "#PWR06" H 7600 4700 50  0001 C CNN
F 1 "+5V" H 7600 4990 50  0000 C CNN
F 2 "" H 7600 4850 50  0001 C CNN
F 3 "" H 7600 4850 50  0001 C CNN
	1    7600 4850
	1    0    0    -1  
$EndComp
$Comp
L power1:+5V #PWR08
U 1 1 59F638B6
P 7600 7650
F 0 "#PWR08" H 7600 7500 50  0001 C CNN
F 1 "+5V" H 7600 7790 50  0000 C CNN
F 2 "" H 7600 7650 50  0001 C CNN
F 3 "" H 7600 7650 50  0001 C CNN
	1    7600 7650
	1    0    0    -1  
$EndComp
$Comp
L power1:+5V #PWR013
U 1 1 59F63950
P 10950 700
F 0 "#PWR013" H 10950 550 50  0001 C CNN
F 1 "+5V" H 10950 840 50  0000 C CNN
F 2 "" H 10950 700 50  0001 C CNN
F 3 "" H 10950 700 50  0001 C CNN
	1    10950 700 
	1    0    0    -1  
$EndComp
$Comp
L power1:+5V #PWR011
U 1 1 59F63A9A
P 9100 650
F 0 "#PWR011" H 9100 500 50  0001 C CNN
F 1 "+5V" H 9100 790 50  0000 C CNN
F 2 "" H 9100 650 50  0001 C CNN
F 3 "" H 9100 650 50  0001 C CNN
	1    9100 650 
	1    0    0    -1  
$EndComp
$Comp
L power1:+5V #PWR016
U 1 1 59F63AC6
P 12900 1700
F 0 "#PWR016" H 12900 1550 50  0001 C CNN
F 1 "+5V" H 12900 1840 50  0000 C CNN
F 2 "" H 12900 1700 50  0001 C CNN
F 3 "" H 12900 1700 50  0001 C CNN
	1    12900 1700
	1    0    0    -1  
$EndComp
$Comp
L power1:GNDD #PWR015
U 1 1 59F63B8C
P 12600 1550
F 0 "#PWR015" H 12600 1300 50  0001 C CNN
F 1 "GNDD" H 12600 1425 50  0000 C CNN
F 2 "" H 12600 1550 50  0001 C CNN
F 3 "" H 12600 1550 50  0001 C CNN
	1    12600 1550
	1    0    0    -1  
$EndComp
$Comp
L power1:GNDD #PWR014
U 1 1 59F63D92
P 10950 1700
F 0 "#PWR014" H 10950 1450 50  0001 C CNN
F 1 "GNDD" H 10950 1575 50  0000 C CNN
F 2 "" H 10950 1700 50  0001 C CNN
F 3 "" H 10950 1700 50  0001 C CNN
	1    10950 1700
	1    0    0    -1  
$EndComp
$Comp
L power1:GNDD #PWR012
U 1 1 59F63F51
P 9100 1700
F 0 "#PWR012" H 9100 1450 50  0001 C CNN
F 1 "GNDD" H 9100 1575 50  0000 C CNN
F 2 "" H 9100 1700 50  0001 C CNN
F 3 "" H 9100 1700 50  0001 C CNN
	1    9100 1700
	1    0    0    -1  
$EndComp
$Comp
L power1:+5V #PWR01
U 1 1 59F87EA1
P 900 1900
F 0 "#PWR01" H 900 1750 50  0001 C CNN
F 1 "+5V" H 900 2040 50  0000 C CNN
F 2 "" H 900 1900 50  0001 C CNN
F 3 "" H 900 1900 50  0001 C CNN
	1    900  1900
	1    0    0    -1  
$EndComp
$Comp
L power1:GNDD #PWR02
U 1 1 59F87FEA
P 900 2500
F 0 "#PWR02" H 900 2250 50  0001 C CNN
F 1 "GNDD" H 900 2375 50  0000 C CNN
F 2 "" H 900 2500 50  0001 C CNN
F 3 "" H 900 2500 50  0001 C CNN
	1    900  2500
	1    0    0    -1  
$EndComp
$Comp
L device:C C1
U 1 1 59F88158
P 1200 2200
F 0 "C1" H 1225 2300 50  0000 L CNN
F 1 "100nF" H 1225 2100 50  0000 L CNN
F 2 "" H 1238 2050 50  0001 C CNN
F 3 "" H 1200 2200 50  0001 C CNN
	1    1200 2200
	1    0    0    -1  
$EndComp
$Comp
L device:C C2
U 1 1 59F88401
P 1550 2200
F 0 "C2" H 1575 2300 50  0000 L CNN
F 1 "100nF" H 1575 2100 50  0000 L CNN
F 2 "" H 1588 2050 50  0001 C CNN
F 3 "" H 1550 2200 50  0001 C CNN
	1    1550 2200
	1    0    0    -1  
$EndComp
$Comp
L device:C C3
U 1 1 59F88442
P 1850 2200
F 0 "C3" H 1875 2300 50  0000 L CNN
F 1 "100nF" H 1875 2100 50  0000 L CNN
F 2 "" H 1888 2050 50  0001 C CNN
F 3 "" H 1850 2200 50  0001 C CNN
	1    1850 2200
	1    0    0    -1  
$EndComp
$Comp
L device:C C4
U 1 1 59F88488
P 2150 2200
F 0 "C4" H 2175 2300 50  0000 L CNN
F 1 "100nF" H 2175 2100 50  0000 L CNN
F 2 "" H 2188 2050 50  0001 C CNN
F 3 "" H 2150 2200 50  0001 C CNN
	1    2150 2200
	1    0    0    -1  
$EndComp
$Comp
L device:C C5
U 1 1 59F884D1
P 2450 2200
F 0 "C5" H 2475 2300 50  0000 L CNN
F 1 "100nF" H 2475 2100 50  0000 L CNN
F 2 "" H 2488 2050 50  0001 C CNN
F 3 "" H 2450 2200 50  0001 C CNN
	1    2450 2200
	1    0    0    -1  
$EndComp
$Comp
L device:C C6
U 1 1 59F88521
P 2750 2200
F 0 "C6" H 2775 2300 50  0000 L CNN
F 1 "100nF" H 2775 2100 50  0000 L CNN
F 2 "" H 2788 2050 50  0001 C CNN
F 3 "" H 2750 2200 50  0001 C CNN
	1    2750 2200
	1    0    0    -1  
$EndComp
$Comp
L device:C C7
U 1 1 59F885EC
P 3050 2200
F 0 "C7" H 3075 2300 50  0000 L CNN
F 1 "100nF" H 3075 2100 50  0000 L CNN
F 2 "" H 3088 2050 50  0001 C CNN
F 3 "" H 3050 2200 50  0001 C CNN
	1    3050 2200
	1    0    0    -1  
$EndComp
$Comp
L device:C C8
U 1 1 59F8863A
P 3350 2200
F 0 "C8" H 3375 2300 50  0000 L CNN
F 1 "100nF" H 3375 2100 50  0000 L CNN
F 2 "" H 3388 2050 50  0001 C CNN
F 3 "" H 3350 2200 50  0001 C CNN
	1    3350 2200
	1    0    0    -1  
$EndComp
$Comp
L device:CP C9
U 1 1 59F8867A
P 3650 2200
F 0 "C9" H 3675 2300 50  0000 L CNN
F 1 "47µF/6,3V" H 3675 2100 50  0000 L CNN
F 2 "" H 3688 2050 50  0001 C CNN
F 3 "" H 3650 2200 50  0001 C CNN
	1    3650 2200
	1    0    0    -1  
$EndComp
$Comp
L device:CP C10
U 1 1 59F8880A
P 4100 2200
F 0 "C10" H 4125 2300 50  0000 L CNN
F 1 "47µF/6,3V" H 4125 2100 50  0000 L CNN
F 2 "" H 4138 2050 50  0001 C CNN
F 3 "" H 4100 2200 50  0001 C CNN
	1    4100 2200
	1    0    0    -1  
$EndComp
$Comp
L device:CP C11
U 1 1 59F8886F
P 4550 2200
F 0 "C11" H 4575 2300 50  0000 L CNN
F 1 "47µF/6,3V" H 4575 2100 50  0000 L CNN
F 2 "" H 4588 2050 50  0001 C CNN
F 3 "" H 4550 2200 50  0001 C CNN
	1    4550 2200
	1    0    0    -1  
$EndComp
$Comp
L device:CP C12
U 1 1 59F888D1
P 5050 2200
F 0 "C12" H 5075 2300 50  0000 L CNN
F 1 "47µF/10V" H 5075 2100 50  0000 L CNN
F 2 "" H 5088 2050 50  0001 C CNN
F 3 "" H 5050 2200 50  0001 C CNN
	1    5050 2200
	1    0    0    -1  
$EndComp
Wire Wire Line
	13350 1900 14700 1900
Wire Wire Line
	13350 1900 13350 2200
Wire Wire Line
	13450 2300 13450 2000
Wire Wire Line
	13450 2000 14700 2000
Wire Wire Line
	13550 2400 13550 2100
Wire Wire Line
	13550 2100 14700 2100
Wire Wire Line
	13650 2500 13650 2200
Wire Wire Line
	13650 2200 14700 2200
Wire Wire Line
	13750 2600 13750 2300
Wire Wire Line
	13750 2300 14700 2300
Wire Wire Line
	13850 2700 13850 2400
Wire Wire Line
	13850 2400 14700 2400
Wire Wire Line
	13950 2800 13950 2500
Wire Wire Line
	13950 2500 14700 2500
Wire Wire Line
	14050 2900 14050 2600
Wire Wire Line
	14050 2600 14700 2600
Wire Wire Line
	13350 2200 13250 2200
Wire Wire Line
	13450 2300 13250 2300
Wire Wire Line
	13250 2400 13550 2400
Wire Wire Line
	13250 2500 13650 2500
Wire Wire Line
	13250 2600 13750 2600
Wire Wire Line
	13250 2700 13850 2700
Wire Wire Line
	13250 2800 13950 2800
Wire Wire Line
	13250 2900 14050 2900
Wire Wire Line
	14700 2700 14550 2700
Wire Wire Line
	12150 2050 12000 2050
Wire Wire Line
	11850 1900 12150 1900
Wire Bus Line
	11700 2100 11350 2100
Wire Wire Line
	11850 2000 12000 2000
Wire Wire Line
	12000 2000 12000 2050
Wire Wire Line
	11800 2200 12150 2200
Wire Wire Line
	11800 2300 12150 2300
Wire Wire Line
	11800 2400 12150 2400
Wire Wire Line
	11800 2500 12150 2500
Wire Wire Line
	11800 2600 12150 2600
Wire Wire Line
	11800 2700 12150 2700
Wire Wire Line
	11800 2800 12150 2800
Wire Wire Line
	11800 2900 12150 2900
Wire Wire Line
	14150 850  14150 950 
Wire Wire Line
	14150 1250 14150 1400
Wire Wire Line
	14550 2900 14700 2900
Wire Wire Line
	14700 2800 14150 2800
Wire Wire Line
	14150 2800 14150 3150
Wire Wire Line
	14150 3150 13350 3150
Wire Wire Line
	13350 3150 13350 3400
Wire Wire Line
	13350 3400 13200 3400
Wire Wire Line
	14700 3000 14200 3000
Wire Wire Line
	14200 3000 14200 3200
Wire Wire Line
	14200 3200 13400 3200
Wire Wire Line
	13400 3200 13400 3500
Wire Wire Line
	13400 3500 13200 3500
Wire Wire Line
	14700 3200 14300 3200
Wire Wire Line
	14300 3200 14300 3300
Wire Wire Line
	14300 3300 13450 3300
Wire Wire Line
	13450 3300 13450 3600
Wire Wire Line
	13450 3600 13200 3600
Wire Wire Line
	14700 3400 13500 3400
Wire Wire Line
	13500 3400 13500 3700
Wire Wire Line
	13500 3700 13200 3700
Wire Bus Line
	13100 3300 12850 3300
Wire Wire Line
	13700 3600 13700 3800
Wire Wire Line
	13700 3800 13200 3800
Wire Wire Line
	14700 3600 13700 3600
Wire Wire Line
	14700 3800 13900 3800
Wire Wire Line
	13900 3800 13900 3900
Wire Wire Line
	13900 3900 13200 3900
Wire Wire Line
	14700 4000 13200 4000
Wire Wire Line
	14700 4200 13200 4200
Wire Wire Line
	14700 4400 13200 4400
Wire Wire Line
	14700 4600 13200 4600
Wire Wire Line
	14700 4800 13200 4800
Wire Wire Line
	14700 5000 13200 5000
Wire Wire Line
	14700 5200 13200 5200
Wire Wire Line
	14700 5400 13200 5400
Wire Wire Line
	14700 5600 13200 5600
Wire Wire Line
	14700 5800 13200 5800
Wire Bus Line
	8700 2100 8900 2100
Wire Wire Line
	6600 2300 6900 2300
Wire Wire Line
	6900 2400 6600 2400
Wire Wire Line
	6600 2500 6900 2500
Wire Wire Line
	6900 2600 6600 2600
Wire Wire Line
	6600 2700 6900 2700
Wire Wire Line
	6900 2800 6600 2800
Wire Wire Line
	6600 2900 6900 2900
Wire Wire Line
	6900 3000 6600 3000
Wire Wire Line
	6900 3100 6600 3100
Wire Wire Line
	6600 3200 6900 3200
Wire Wire Line
	6900 3300 6600 3300
Wire Wire Line
	6600 3400 6900 3400
Wire Wire Line
	6900 3500 6600 3500
Wire Wire Line
	8300 2300 8600 2300
Wire Wire Line
	8600 2400 8300 2400
Wire Wire Line
	8300 2500 8600 2500
Wire Wire Line
	8600 2600 8300 2600
Wire Wire Line
	8300 2700 8600 2700
Wire Wire Line
	8300 2800 8600 2800
Wire Wire Line
	8300 2900 8600 2900
Wire Wire Line
	8300 3000 8600 3000
Wire Wire Line
	8300 5000 8600 5000
Wire Wire Line
	8600 5100 8300 5100
Wire Wire Line
	8300 5200 8600 5200
Wire Wire Line
	8600 5300 8300 5300
Wire Wire Line
	8300 5400 8600 5400
Wire Wire Line
	8300 5500 8600 5500
Wire Wire Line
	8300 5600 8600 5600
Wire Wire Line
	8300 5700 8600 5700
Wire Wire Line
	8300 7850 8600 7850
Wire Wire Line
	8600 7950 8300 7950
Wire Wire Line
	8300 8050 8600 8050
Wire Wire Line
	8600 8150 8300 8150
Wire Wire Line
	8300 8250 8600 8250
Wire Wire Line
	8300 8350 8600 8350
Wire Wire Line
	8300 8450 8600 8450
Wire Wire Line
	8300 8550 8600 8550
Wire Wire Line
	6600 5000 6900 5000
Wire Wire Line
	6900 5100 6600 5100
Wire Wire Line
	6600 5200 6900 5200
Wire Wire Line
	6900 5300 6600 5300
Wire Wire Line
	6600 5400 6900 5400
Wire Wire Line
	6900 5500 6600 5500
Wire Wire Line
	6600 5600 6900 5600
Wire Wire Line
	6900 5700 6600 5700
Wire Wire Line
	6900 5800 6600 5800
Wire Wire Line
	6600 5900 6900 5900
Wire Wire Line
	6900 6000 6600 6000
Wire Wire Line
	6600 6100 6900 6100
Wire Wire Line
	6900 6200 6600 6200
Wire Wire Line
	6600 7850 6900 7850
Wire Wire Line
	6900 7950 6600 7950
Wire Wire Line
	6600 8050 6900 8050
Wire Wire Line
	6900 8150 6600 8150
Wire Wire Line
	6600 8250 6900 8250
Wire Wire Line
	6900 8350 6600 8350
Wire Wire Line
	6600 8450 6900 8450
Wire Wire Line
	6900 8550 6600 8550
Wire Wire Line
	6900 8650 6600 8650
Wire Wire Line
	6600 8750 6900 8750
Wire Wire Line
	6900 8850 6600 8850
Wire Wire Line
	6600 8950 6900 8950
Wire Wire Line
	6900 9050 6600 9050
Wire Wire Line
	6600 9150 6900 9150
Wire Wire Line
	6600 9250 6900 9250
Wire Wire Line
	6600 9650 8700 9650
Wire Wire Line
	8700 9650 8700 8950
Wire Wire Line
	8700 8950 8300 8950
Wire Wire Line
	11850 1050 11850 1900
Wire Wire Line
	11450 1050 11550 1050
Wire Wire Line
	10450 950  10450 1150
Wire Wire Line
	8550 1500 6600 1500
Wire Wire Line
	6600 1400 8550 1400
Wire Wire Line
	8550 1300 6600 1300
Wire Bus Line
	6300 1100 6500 1100
Wire Wire Line
	14700 3500 14550 3500
Wire Wire Line
	8700 8800 8300 8800
Wire Wire Line
	14700 4100 14550 4100
Wire Wire Line
	9650 1550 9700 1550
Wire Wire Line
	9650 1450 10050 1450
Wire Wire Line
	6900 6700 6600 6700
Wire Wire Line
	6150 4000 6750 4000
Wire Wire Line
	6900 4100 6750 4100
Wire Wire Line
	6750 4100 6750 4000
Wire Wire Line
	6150 3700 6900 3700
Wire Wire Line
	6900 3600 6150 3600
Wire Wire Line
	6900 6400 6150 6400
Wire Wire Line
	6150 3350 6150 3600
Wire Wire Line
	12750 1500 12600 1500
Wire Wire Line
	12600 1500 12600 1550
Wire Wire Line
	10950 1700 10950 1300
Wire Wire Line
	9100 1700 9100 1650
Wire Wire Line
	900  1900 900  1950
Wire Wire Line
	900  1950 1200 1950
Wire Wire Line
	5050 1950 5050 2050
Wire Wire Line
	900  2500 900  2450
Wire Wire Line
	900  2450 1200 2450
Wire Wire Line
	5050 2450 5050 2350
Wire Wire Line
	4550 2050 4550 1950
Connection ~ 4550 1950
Wire Wire Line
	4550 2350 4550 2450
Connection ~ 4550 2450
Wire Wire Line
	4100 2050 4100 1950
Connection ~ 4100 1950
Wire Wire Line
	4100 2350 4100 2450
Connection ~ 4100 2450
Wire Wire Line
	3650 2050 3650 1950
Connection ~ 3650 1950
Wire Wire Line
	3650 2350 3650 2450
Connection ~ 3650 2450
Wire Wire Line
	3350 2050 3350 1950
Connection ~ 3350 1950
Wire Wire Line
	3350 2350 3350 2450
Connection ~ 3350 2450
Wire Wire Line
	1200 2050 1200 1950
Connection ~ 1200 1950
Wire Wire Line
	1200 2350 1200 2450
Connection ~ 1200 2450
Wire Wire Line
	1550 2050 1550 1950
Connection ~ 1550 1950
Wire Wire Line
	1550 2350 1550 2450
Connection ~ 1550 2450
Wire Wire Line
	1850 2050 1850 1950
Connection ~ 1850 1950
Wire Wire Line
	1850 2350 1850 2450
Connection ~ 1850 2450
Wire Wire Line
	2150 2050 2150 1950
Connection ~ 2150 1950
Wire Wire Line
	2150 2350 2150 2450
Connection ~ 2150 2450
Wire Wire Line
	2450 2050 2450 1950
Connection ~ 2450 1950
Wire Wire Line
	2450 2350 2450 2450
Connection ~ 2450 2450
Wire Wire Line
	2750 2050 2750 1950
Connection ~ 2750 1950
Wire Wire Line
	2750 2350 2750 2450
Connection ~ 2750 2450
Wire Wire Line
	3050 2050 3050 1950
Connection ~ 3050 1950
Wire Wire Line
	3050 2350 3050 2450
Connection ~ 3050 2450
Text Notes 7350 4650 0    50   ~ 0
8K DOS ROM\n$C000-$DFFF
Text Notes 7350 7400 0    50   ~ 0
32K RAM\n$0000-$7FFF
Wire Wire Line
	10950 700  10950 800 
Wire Wire Line
	10450 950  10350 950 
Text GLabel 10350 950  0    50   Input ~ 0
~IORQ
Text GLabel 14300 3900 0    50   Output ~ 0
~IORQ
Wire Wire Line
	14700 3900 14300 3900
Wire Wire Line
	11550 1050 11550 1900
Wire Wire Line
	11550 1900 7950 1900
Wire Wire Line
	7950 1900 7950 950 
Connection ~ 11550 1050
Wire Wire Line
	7950 950  8550 950 
$Comp
L 65xx-Computer:74HCT138 U5
U 1 1 59F4CC57
P 9100 1050
F 0 "U5" H 9250 1400 50  0000 C CNN
F 1 "74HCT138" H 9450 400 50  0000 C CNN
F 2 "" H 9100 1050 60  0001 C CNN
F 3 "" H 9100 1050 60  0001 C CNN
	1    9100 1050
	1    0    0    -1  
$EndComp
Wire Wire Line
	6900 6800 6600 6800
Wire Wire Line
	6600 6800 6600 6700
Wire Wire Line
	6750 4000 6900 4000
Wire Wire Line
	6150 3600 6150 3700
Wire Wire Line
	4550 1950 5050 1950
Wire Wire Line
	4550 2450 5050 2450
Wire Wire Line
	4100 1950 4550 1950
Wire Wire Line
	4100 2450 4550 2450
Wire Wire Line
	3650 1950 4100 1950
Wire Wire Line
	3650 2450 4100 2450
Wire Wire Line
	3350 1950 3650 1950
Wire Wire Line
	3350 2450 3650 2450
Wire Wire Line
	1200 1950 1550 1950
Wire Wire Line
	1200 2450 1550 2450
Wire Wire Line
	1550 1950 1850 1950
Wire Wire Line
	1550 2450 1850 2450
Wire Wire Line
	1850 1950 2150 1950
Wire Wire Line
	1850 2450 2150 2450
Wire Wire Line
	2150 1950 2450 1950
Wire Wire Line
	2150 2450 2450 2450
Wire Wire Line
	2450 1950 2750 1950
Wire Wire Line
	2450 2450 2750 2450
Wire Wire Line
	2750 1950 3050 1950
Wire Wire Line
	2750 2450 3050 2450
Wire Wire Line
	3050 1950 3350 1950
Wire Wire Line
	3050 2450 3350 2450
Wire Wire Line
	11550 1050 11850 1050
Wire Wire Line
	6600 6700 6150 6700
Text GLabel 9200 8700 2    50   Input ~ 0
RAM_W_~R
Wire Wire Line
	9200 8700 8300 8700
$Comp
L 65xx-Computer:UM62256D-70LL U?
U 1 1 60048EFC
P 3150 8650
F 0 "U?" H 2850 9550 50  0000 C CNN
F 1 "UM62256D-70LL" H 3550 7850 50  0000 C CNN
F 2 "DIP28" H 3150 8650 50  0001 C CIN
F 3 "" H 3150 8650 50  0001 C CNN
	1    3150 8650
	1    0    0    -1  
$EndComp
Wire Bus Line
	4150 7400 4400 7400
Text GLabel 4400 7400 2    50   BiDi ~ 0
DATABUS
Wire Bus Line
	2150 7400 1750 7400
Text GLabel 1750 7400 0    50   Input ~ 0
ADDRESSBUS
Entry Wire Line
	2150 9200 2250 9300
Entry Wire Line
	2150 9100 2250 9200
Entry Wire Line
	2150 9000 2250 9100
Entry Wire Line
	2150 8900 2250 9000
Entry Wire Line
	2150 8800 2250 8900
Entry Wire Line
	2150 8700 2250 8800
Entry Wire Line
	2150 8600 2250 8700
Entry Wire Line
	2150 8500 2250 8600
Entry Wire Line
	2150 8400 2250 8500
Entry Wire Line
	2150 8300 2250 8400
Entry Wire Line
	2150 8200 2250 8300
Entry Wire Line
	2150 8100 2250 8200
Entry Wire Line
	2150 8000 2250 8100
Entry Wire Line
	2150 7900 2250 8000
Entry Wire Line
	2150 7800 2250 7900
Entry Wire Line
	4050 7900 4150 7800
Entry Wire Line
	4050 8000 4150 7900
Entry Wire Line
	4050 8100 4150 8000
Entry Wire Line
	4050 8200 4150 8100
Entry Wire Line
	4050 8300 4150 8200
Entry Wire Line
	4050 8500 4150 8400
Entry Wire Line
	4050 8400 4150 8300
Entry Wire Line
	4050 8600 4150 8500
Wire Wire Line
	3850 7900 4050 7900
Wire Wire Line
	3850 8000 4050 8000
Wire Wire Line
	4050 8100 3850 8100
Wire Wire Line
	3850 8200 4050 8200
Wire Wire Line
	3850 8300 4050 8300
Wire Wire Line
	3850 8400 4050 8400
Wire Wire Line
	3850 8500 4050 8500
Wire Wire Line
	3850 8600 4050 8600
Wire Wire Line
	2250 7900 2450 7900
Wire Wire Line
	2450 8000 2250 8000
Wire Wire Line
	2450 8100 2250 8100
Wire Wire Line
	2450 8200 2250 8200
Wire Wire Line
	2450 8300 2250 8300
Wire Wire Line
	2250 8400 2450 8400
Wire Wire Line
	2250 8500 2450 8500
Wire Wire Line
	2250 8600 2450 8600
Wire Wire Line
	2250 8700 2450 8700
Wire Wire Line
	2250 8800 2450 8800
Wire Wire Line
	2250 8900 2450 8900
Wire Wire Line
	2250 9000 2450 9000
Wire Wire Line
	2250 9100 2450 9100
Wire Wire Line
	2250 9200 2450 9200
Wire Wire Line
	2250 9300 2450 9300
Text Label 2300 7900 0    60   ~ 0
A0
Text Label 2300 8000 0    60   ~ 0
A1
Text Label 2300 8100 0    60   ~ 0
A2
Text Label 2300 8200 0    60   ~ 0
A3
Text Label 2300 8300 0    60   ~ 0
A4
Text Label 2300 8400 0    60   ~ 0
A5
Text Label 2300 8500 0    60   ~ 0
A6
Text Label 2300 8600 0    60   ~ 0
A7
Text Label 2300 8700 0    60   ~ 0
A8
Text Label 2300 8800 0    60   ~ 0
A9
Text Label 2300 8900 0    60   ~ 0
A10
Text Label 2300 9000 0    60   ~ 0
A11
Text Label 2300 9100 0    60   ~ 0
A12
Text Label 2300 9200 0    60   ~ 0
A13
Text Label 2300 9300 0    60   ~ 0
A14
Wire Wire Line
	3850 8850 4450 8850
Wire Wire Line
	3850 8750 4850 8750
Text GLabel 4450 8850 2    50   Input ~ 0
RAM_R_~W
Text GLabel 4850 8750 2    50   Input ~ 0
RAM_W_~R
$Comp
L power1:GNDD #PWR?
U 1 1 603F4770
P 3150 9550
F 0 "#PWR?" H 3150 9300 50  0001 C CNN
F 1 "GNDD" H 3150 9425 50  0000 C CNN
F 2 "" H 3150 9550 50  0001 C CNN
F 3 "" H 3150 9550 50  0001 C CNN
	1    3150 9550
	1    0    0    -1  
$EndComp
$Comp
L power1:+5V #PWR?
U 1 1 603F5860
P 3150 7650
F 0 "#PWR?" H 3150 7500 50  0001 C CNN
F 1 "+5V" H 3150 7790 50  0000 C CNN
F 2 "" H 3150 7650 50  0001 C CNN
F 3 "" H 3150 7650 50  0001 C CNN
	1    3150 7650
	1    0    0    -1  
$EndComp
Text Notes 2900 7400 0    50   ~ 0
32K RAM\n$8000-$FFFF
Connection ~ 10450 950 
$Comp
L 65xx-Computer:74LS00 U1
U 3 1 59F4CAE6
P 4550 1100
F 0 "U1" H 4800 1400 50  0000 C CNN
F 1 "74LS00" H 4750 800 50  0000 C CNN
F 2 "" H 4550 1100 60  0001 C CNN
F 3 "" H 4550 1100 60  0001 C CNN
	3    4550 1100
	1    0    0    -1  
$EndComp
$Comp
L 65xx-Computer:74LS00 U1
U 4 1 59F4C9B8
P 2100 1100
F 0 "U1" H 2350 1400 50  0000 C CNN
F 1 "74LS00" H 2300 800 50  0000 C CNN
F 2 "" H 2100 1100 60  0001 C CNN
F 3 "" H 2100 1100 60  0001 C CNN
	4    2100 1100
	1    0    0    -1  
$EndComp
$Comp
L 65xx-Computer:74LS00 U1
U 2 1 59F4CA8B
P 3400 1100
F 0 "U1" H 3650 1400 50  0000 C CNN
F 1 "74LS00" H 3600 800 50  0000 C CNN
F 2 "" H 3400 1100 60  0001 C CNN
F 3 "" H 3400 1100 60  0001 C CNN
	2    3400 1100
	1    0    0    -1  
$EndComp
$Comp
L 65xx-Computer:74HCT138 U?
U 1 1 606AAA56
P 4750 6000
F 0 "U?" H 4900 6350 50  0000 C CNN
F 1 "74HCT138" H 5100 5350 50  0000 C CNN
F 2 "" H 4750 6000 60  0001 C CNN
F 3 "" H 4750 6000 60  0001 C CNN
	1    4750 6000
	1    0    0    -1  
$EndComp
$Comp
L power1:+5V #PWR?
U 1 1 606ADDD4
P 4750 5550
F 0 "#PWR?" H 4750 5400 50  0001 C CNN
F 1 "+5V" H 4750 5690 50  0000 C CNN
F 2 "" H 4750 5550 50  0001 C CNN
F 3 "" H 4750 5550 50  0001 C CNN
	1    4750 5550
	1    0    0    -1  
$EndComp
$Comp
L power1:GNDD #PWR?
U 1 1 606AEEC0
P 4750 6700
F 0 "#PWR?" H 4750 6450 50  0001 C CNN
F 1 "GNDD" H 4750 6575 50  0000 C CNN
F 2 "" H 4750 6700 50  0001 C CNN
F 3 "" H 4750 6700 50  0001 C CNN
	1    4750 6700
	1    0    0    -1  
$EndComp
Wire Wire Line
	4750 5550 4750 5600
Text GLabel 3850 6250 0    50   Input ~ 0
~BANK_6
Text GLabel 3500 6350 0    50   Input ~ 0
~BANK_7
Wire Wire Line
	3500 6350 4200 6350
Wire Wire Line
	3850 6250 4200 6250
Wire Wire Line
	4200 6450 4000 6450
Wire Wire Line
	4000 5600 4750 5600
Wire Wire Line
	4000 5600 4000 6450
Connection ~ 4750 5600
Wire Wire Line
	4750 5600 4750 5700
Wire Wire Line
	3850 9000 5500 9000
Entry Wire Line
	6400 4500 6500 4400
Text Label 6150 4500 0    60   ~ 0
A15
Wire Wire Line
	6400 4500 4100 4500
Wire Wire Line
	6150 6400 6150 6150
$Comp
L power1:+5V #PWR?
U 1 1 6094C413
P 6150 6150
F 0 "#PWR?" H 6150 6000 50  0001 C CNN
F 1 "+5V" H 6150 6290 50  0000 C CNN
F 2 "" H 6150 6150 50  0001 C CNN
F 3 "" H 6150 6150 50  0001 C CNN
	1    6150 6150
	1    0    0    -1  
$EndComp
Wire Wire Line
	4750 6600 4750 6700
Wire Wire Line
	4200 6000 4100 6000
Wire Wire Line
	4100 4500 4100 6000
Wire Wire Line
	4200 5800 4150 5800
Wire Wire Line
	4150 5800 4150 5900
Wire Wire Line
	4150 6700 4750 6700
Connection ~ 4750 6700
Wire Wire Line
	4200 5900 4150 5900
Connection ~ 4150 5900
Wire Wire Line
	4150 5900 4150 6700
Wire Wire Line
	5300 6500 5500 6500
Wire Wire Line
	5500 6500 5500 9000
Wire Wire Line
	9100 650  9100 750 
Text GLabel 7700 1050 0    50   Input ~ 0
R_~W
Wire Wire Line
	7700 1050 8550 1050
Text GLabel 14350 4500 0    50   Output ~ 0
RAM_ENABLE
Wire Wire Line
	14700 4500 14350 4500
Text GLabel 8000 850  0    50   Input ~ 0
RAM_ENABLE
Wire Wire Line
	8000 850  8550 850 
Wire Wire Line
	12750 1500 12750 1800
Wire Wire Line
	12900 1700 12900 1800
Wire Wire Line
	7600 7650 7600 7750
Wire Wire Line
	7600 9350 7600 9450
Wire Wire Line
	3150 7650 3150 7800
Wire Wire Line
	3150 9400 3150 9550
Wire Wire Line
	7600 4850 7600 4950
Wire Wire Line
	7600 6850 7600 6950
Wire Wire Line
	7600 4150 7600 4300
Wire Wire Line
	7600 2150 7600 2250
Wire Bus Line
	11700 2100 11700 2800
Wire Bus Line
	4150 7400 4150 8500
Wire Bus Line
	13100 3300 13100 5700
Wire Bus Line
	2150 7400 2150 9200
Wire Bus Line
	8700 2100 8700 8450
Wire Bus Line
	6500 1100 6500 9550
$EndSCHEMATC
