EESchema Schematic File Version 4
EELAYER 30 0
EELAYER END
$Descr A3 16535 11693
encoding utf-8
Sheet 1 1
Title "Oak-65XX-TMS9918"
Date "2021-03-17"
Rev "0.1"
Comp "Uwe Gottschling"
Comment1 ""
Comment2 ""
Comment3 ""
Comment4 ""
$EndDescr
Text GLabel 14550 2700 0    50   Output ~ 0
R_~W
Text GLabel 11600 2000 0    50   Input ~ 0
R_~W
Text GLabel 11350 2100 0    50   BiDi ~ 0
DATABUS
Text Label 12000 2200 0    50   ~ 0
D0
Text Label 12000 2300 0    50   ~ 0
D1
Text Label 12000 2400 0    50   ~ 0
D2
Text Label 12000 2500 0    50   ~ 0
D3
Text Label 12000 2600 0    50   ~ 0
D4
Text Label 12000 2700 0    50   ~ 0
D5
Text Label 12000 2800 0    50   ~ 0
D6
Text Label 12000 2900 0    50   ~ 0
D7
Entry Wire Line
	11700 2100 11800 2200
Entry Wire Line
	11700 2200 11800 2300
Entry Wire Line
	11700 2300 11800 2400
Entry Wire Line
	11700 2400 11800 2500
Entry Wire Line
	11700 2500 11800 2600
Entry Wire Line
	11700 2600 11800 2700
Entry Wire Line
	11700 2700 11800 2800
Entry Wire Line
	11700 2800 11800 2900
Text GLabel 14550 2900 0    50   Output ~ 0
PHI2
Entry Wire Line
	13100 3300 13200 3400
Entry Wire Line
	13100 3400 13200 3500
Entry Wire Line
	13100 3500 13200 3600
Entry Wire Line
	13100 3600 13200 3700
Text GLabel 12850 3300 0    50   Output ~ 0
ADDRESSBUS
Text Label 13250 3400 0    50   ~ 0
A0
Text Label 13250 3500 0    50   ~ 0
A1
Text Label 13250 3600 0    50   ~ 0
A2
Text Label 13250 3700 0    50   ~ 0
A3
Entry Wire Line
	13100 3700 13200 3800
Entry Wire Line
	13100 3800 13200 3900
Entry Wire Line
	13100 3900 13200 4000
Entry Wire Line
	13100 5700 13200 5800
Entry Wire Line
	13100 5500 13200 5600
Entry Wire Line
	13100 5300 13200 5400
Entry Wire Line
	13100 5100 13200 5200
Entry Wire Line
	13100 4900 13200 5000
Entry Wire Line
	13100 4700 13200 4800
Entry Wire Line
	13100 4500 13200 4600
Entry Wire Line
	13100 4300 13200 4400
Entry Wire Line
	13100 4100 13200 4200
Text Label 13250 3800 0    50   ~ 0
A4
Text Label 13250 3900 0    50   ~ 0
A5
Text Label 13250 4000 0    50   ~ 0
A6
Text Label 13250 4200 0    50   ~ 0
A7
Text Label 13250 4400 0    50   ~ 0
A8
Text Label 13250 4600 0    50   ~ 0
A9
Text Label 13250 4800 0    50   ~ 0
A10
Text Label 13250 5000 0    50   ~ 0
A11
Text Label 13250 5200 0    50   ~ 0
A12
Text Label 13250 5400 0    50   ~ 0
A13
Text Label 13250 5600 0    50   ~ 0
A14
Text Label 13250 5800 0    50   ~ 0
A15
Entry Wire Line
	9250 6450 9350 6550
Entry Wire Line
	9250 6350 9350 6450
Entry Wire Line
	9250 6550 9350 6650
Entry Wire Line
	9250 6650 9350 6750
Entry Wire Line
	7200 6550 7300 6450
Entry Wire Line
	7200 6450 7300 6350
Entry Wire Line
	7200 6650 7300 6550
Entry Wire Line
	7200 6750 7300 6650
Text GLabel 9500 7000 2    50   BiDi ~ 0
DATABUS
Text Label 7400 6350 0    50   ~ 0
D0
Text Label 7400 6450 0    50   ~ 0
D1
Text Label 7400 6550 0    50   ~ 0
D2
Text Label 7400 6650 0    50   ~ 0
D3
Text Label 9100 6650 0    50   ~ 0
D4
Text Label 9100 6550 0    50   ~ 0
D5
Text Label 9100 6450 0    50   ~ 0
D6
Text Label 9100 6350 0    50   ~ 0
D7
Text GLabel 7250 6050 0    50   Input ~ 0
~CSW
Text GLabel 7450 6150 0    50   Input ~ 0
~CSR
Text GLabel 12450 8250 2    50   Output ~ 0
~CSW
Text GLabel 12250 8350 2    50   Output ~ 0
~CSR
Text GLabel 10850 8500 0    50   Input ~ 0
PHI2
Text GLabel 10850 8300 0    50   Input ~ 0
R_~W
Text GLabel 10650 5600 0    50   Input ~ 0
ADDRESSBUS
Entry Wire Line
	10750 6400 10850 6500
Entry Wire Line
	10750 6300 10850 6400
Entry Wire Line
	10750 6200 10850 6300
Text Label 10900 6300 0    50   ~ 0
A4
Text Label 10900 6400 0    50   ~ 0
A5
Text Label 10900 6500 0    50   ~ 0
A6
Text GLabel 14550 3900 0    50   Output ~ 0
~IORQ
Text GLabel 10650 5450 0    50   Input ~ 0
~IORQ
Entry Wire Line
	10750 5850 10850 5950
Text Label 10900 5950 0    50   ~ 0
A7
Text GLabel 12300 6350 2    50   Output ~ 0
~CS
Text GLabel 10450 8400 0    50   Input ~ 0
~CS
Text GLabel 7200 5750 0    50   Output ~ 0
V_R_~W
Entry Wire Line
	5600 5000 5700 4900
Entry Wire Line
	5600 4900 5700 4800
Entry Wire Line
	5600 4800 5700 4700
Entry Wire Line
	5600 4700 5700 4600
Entry Wire Line
	5600 6350 5700 6250
Entry Wire Line
	5600 6450 5700 6350
Entry Wire Line
	5600 6550 5700 6450
Entry Wire Line
	5600 6650 5700 6550
Text GLabel 5850 4500 2    50   BiDi ~ 0
V_DATABUS
Text Label 5400 4700 0    50   ~ 0
RD0
Text Label 5400 4800 0    50   ~ 0
RD1
Text Label 5400 4900 0    50   ~ 0
RD2
Text Label 5400 5000 0    50   ~ 0
RD3
Text Label 5400 6350 0    50   ~ 0
RD4
Text Label 5400 6450 0    50   ~ 0
RD5
Text Label 5400 6550 0    50   ~ 0
RD6
Text Label 5400 6650 0    50   ~ 0
RD7
Text GLabel 9500 5450 2    50   Input ~ 0
V_DATABUS
Entry Wire Line
	9250 6250 9350 6150
Entry Wire Line
	9250 6150 9350 6050
Entry Wire Line
	9250 6050 9350 5950
Entry Wire Line
	9250 5950 9350 5850
Entry Wire Line
	9250 5850 9350 5750
Entry Wire Line
	9250 5750 9350 5650
Entry Wire Line
	9250 5650 9350 5550
Entry Wire Line
	9250 5550 9350 5450
Text Label 9100 5550 0    50   ~ 0
RD0
Text Label 9100 5650 0    50   ~ 0
RD1
Text Label 9100 5750 0    50   ~ 0
RD2
Text Label 9100 5850 0    50   ~ 0
RD3
Text Label 9100 5950 0    50   ~ 0
RD4
Text Label 9100 6050 0    50   ~ 0
RD5
Text Label 9100 6150 0    50   ~ 0
RD6
Text Label 9100 6250 0    50   ~ 0
RD7
Text GLabel 6800 4800 0    50   Output ~ 0
V_ADBUS
Entry Wire Line
	7200 5550 7300 5650
Entry Wire Line
	7200 5450 7300 5550
Entry Wire Line
	7200 5350 7300 5450
Entry Wire Line
	7200 5250 7300 5350
Entry Wire Line
	7200 5150 7300 5250
Entry Wire Line
	7200 5050 7300 5150
Entry Wire Line
	7200 4950 7300 5050
Entry Wire Line
	7200 4850 7300 4950
Text Label 7350 4950 0    50   ~ 0
AD7
Text Label 7350 5050 0    50   ~ 0
AD6
Text Label 7350 5150 0    50   ~ 0
AD5
Text Label 7350 5250 0    50   ~ 0
AD4
Text Label 7350 5350 0    50   ~ 0
AD3
Text Label 7350 5450 0    50   ~ 0
AD2
Text Label 7350 5550 0    50   ~ 0
AD1
Text Label 7350 5650 0    50   ~ 0
AD0
Text GLabel 3600 4600 0    50   Input ~ 0
V_ADBUS
Entry Wire Line
	3850 6950 3950 7050
Entry Wire Line
	3850 6850 3950 6950
Entry Wire Line
	3850 6750 3950 6850
Entry Wire Line
	3850 6650 3950 6750
Entry Wire Line
	3850 6550 3950 6650
Entry Wire Line
	3850 6450 3950 6550
Entry Wire Line
	3850 6350 3950 6450
Entry Wire Line
	3850 6250 3950 6350
Entry Wire Line
	3850 4600 3950 4700
Entry Wire Line
	3850 4700 3950 4800
Entry Wire Line
	3850 4800 3950 4900
Entry Wire Line
	3850 4900 3950 5000
Entry Wire Line
	3850 5200 3950 5300
Entry Wire Line
	3850 5300 3950 5400
Text Label 4000 4800 0    50   ~ 0
AD7
Text Label 4000 4900 0    50   ~ 0
AD6
Text Label 4000 5000 0    50   ~ 0
AD5
Text Label 4000 5200 0    50   ~ 0
AD3
Text Label 4000 5100 0    50   ~ 0
AD4
Text Label 4000 5300 0    50   ~ 0
AD2
Text Label 4000 5400 0    50   ~ 0
AD1
Text Label 4000 4700 0    50   ~ 0
AD0
Text Label 4000 6450 0    50   ~ 0
AD7
Text Label 4000 6550 0    50   ~ 0
AD6
Text Label 4000 6650 0    50   ~ 0
AD5
Text Label 4000 6850 0    50   ~ 0
AD3
Text Label 4000 6750 0    50   ~ 0
AD4
Text Label 4000 6950 0    50   ~ 0
AD2
Text Label 4000 7050 0    50   ~ 0
AD1
Text Label 4000 6350 0    50   ~ 0
AD0
Text GLabel 7200 2800 0    50   Input ~ 0
V_ADBUS
Entry Wire Line
	7350 3550 7450 3650
Entry Wire Line
	7350 3450 7450 3550
Entry Wire Line
	7350 3350 7450 3450
Entry Wire Line
	7350 3250 7450 3350
Entry Wire Line
	7350 3150 7450 3250
Entry Wire Line
	7350 3050 7450 3150
Entry Wire Line
	7350 2950 7450 3050
Entry Wire Line
	7350 2850 7450 2950
Text Label 7500 2950 0    50   ~ 0
AD7
Text Label 7500 3050 0    50   ~ 0
AD6
Text Label 7500 3150 0    50   ~ 0
AD5
Text Label 7500 3250 0    50   ~ 0
AD4
Text Label 7500 3350 0    50   ~ 0
AD3
Text Label 7500 3450 0    50   ~ 0
AD2
Text Label 7500 3550 0    50   ~ 0
AD1
Text Label 7500 3650 0    50   ~ 0
AD0
Text Label 8900 3650 0    50   ~ 0
RD0
Text Label 8900 3550 0    50   ~ 0
RD1
Text Label 8900 3450 0    50   ~ 0
RD2
Text Label 8900 3350 0    50   ~ 0
RD3
Text Label 8900 3150 0    50   ~ 0
RD5
Text Label 8900 3050 0    50   ~ 0
RD6
Text Label 8900 2950 0    50   ~ 0
RD7
Entry Wire Line
	9200 3650 9300 3550
Entry Wire Line
	9200 3550 9300 3450
Entry Wire Line
	9200 3450 9300 3350
Entry Wire Line
	9200 3350 9300 3250
Entry Wire Line
	9200 3150 9300 3050
Entry Wire Line
	9200 3050 9300 2950
Entry Wire Line
	9200 2950 9300 2850
Text GLabel 9450 2800 2    50   Output ~ 0
V_DATABUS
Text GLabel 7200 2650 0    50   Input ~ 0
V_R_~W
Text GLabel 2200 8650 0    50   Input ~ 0
V_R_~W
Text GLabel 5800 7050 2    50   Input ~ 0
VD_R_~W
Text GLabel 8100 8650 2    50   Output ~ 0
VD_R_~W
Text Notes 4950 8100 0    50   ~ 0
Delay line about 50ns \nfor ~OE~-controlled DRAM \nwrite cycle
Text GLabel 3800 8150 2    50   Output ~ 0
V_~R~_W
Text GLabel 7200 2500 0    50   Input ~ 0
V_~R~_W
Text GLabel 6200 7150 2    50   Input ~ 0
V_~R~_W
Text GLabel 6150 5500 2    50   Input ~ 0
V_~R~_W
Text GLabel 6200 6950 2    50   Input ~ 0
~CAS
Text GLabel 5800 6850 2    50   Input ~ 0
~RAS
Text GLabel 5800 5200 2    50   Input ~ 0
~RAS
Text GLabel 6150 5300 2    50   Input ~ 0
~CAS
Text GLabel 7050 4700 0    50   Output ~ 0
~RAS
Text GLabel 6800 4600 0    50   Output ~ 0
~CAS
Text GLabel 9350 4750 2    50   Input ~ 0
10.7MHz
Text GLabel 9350 4850 2    50   Input ~ 0
INV-10.7MHz
Text GLabel 8700 10000 2    50   Output ~ 0
10.7MHz
Text GLabel 8700 10200 2    50   Output ~ 0
INV-10.7MHz
Text Notes 4950 9500 0    50   ~ 0
Video Clock Generator
Text GLabel 2550 2200 0    50   Input ~ 0
VIDEO
Text GLabel 9350 5150 2    50   Output ~ 0
VIDEO
Text GLabel 14550 3700 0    50   Output ~ 0
~RESET
Text GLabel 9950 5350 2    50   Input ~ 0
~RESET
Text GLabel 6700 5750 0    50   Input ~ 0
ADDRESSBUS
Entry Wire Line
	6750 5850 6850 5950
Text Label 7350 5950 0    50   ~ 0
A0
Text Notes 3750 1750 0    50   ~ 0
Video Output
Text GLabel 11850 1900 0    50   Input ~ 0
~CS
Wire Wire Line
	13350 1900 14700 1900
Wire Wire Line
	13350 1900 13350 2200
Wire Wire Line
	13450 2300 13450 2000
Wire Wire Line
	13450 2000 14700 2000
Wire Wire Line
	13550 2400 13550 2100
Wire Wire Line
	13550 2100 14700 2100
Wire Wire Line
	13650 2500 13650 2200
Wire Wire Line
	13650 2200 14700 2200
Wire Wire Line
	13750 2600 13750 2300
Wire Wire Line
	13750 2300 14700 2300
Wire Wire Line
	13850 2700 13850 2400
Wire Wire Line
	13850 2400 14700 2400
Wire Wire Line
	13950 2800 13950 2500
Wire Wire Line
	13950 2500 14700 2500
Wire Wire Line
	14050 2900 14050 2600
Wire Wire Line
	14050 2600 14700 2600
Wire Wire Line
	13350 2200 13250 2200
Wire Wire Line
	13450 2300 13250 2300
Wire Wire Line
	13250 2400 13550 2400
Wire Wire Line
	13250 2500 13650 2500
Wire Wire Line
	13250 2600 13750 2600
Wire Wire Line
	13250 2700 13850 2700
Wire Wire Line
	13250 2800 13950 2800
Wire Wire Line
	13250 2900 14050 2900
Wire Wire Line
	14700 2700 14550 2700
Wire Wire Line
	12150 2050 12000 2050
Wire Wire Line
	11850 1900 12150 1900
Wire Bus Line
	11700 2100 11350 2100
Wire Wire Line
	11600 2000 12000 2000
Wire Wire Line
	12000 2000 12000 2050
Wire Wire Line
	11800 2200 12150 2200
Wire Wire Line
	11800 2300 12150 2300
Wire Wire Line
	11800 2400 12150 2400
Wire Wire Line
	11800 2500 12150 2500
Wire Wire Line
	11800 2600 12150 2600
Wire Wire Line
	11800 2700 12150 2700
Wire Wire Line
	11800 2800 12150 2800
Wire Wire Line
	11800 2900 12150 2900
Wire Wire Line
	14150 1300 14000 1300
Wire Wire Line
	13500 1300 13150 1300
Wire Wire Line
	14550 2900 14700 2900
Wire Wire Line
	14700 2800 14150 2800
Wire Wire Line
	14150 2800 14150 3150
Wire Wire Line
	14150 3150 13350 3150
Wire Wire Line
	13350 3150 13350 3400
Wire Wire Line
	13350 3400 13200 3400
Wire Wire Line
	14700 3000 14200 3000
Wire Wire Line
	14200 3000 14200 3200
Wire Wire Line
	14200 3200 13400 3200
Wire Wire Line
	13400 3200 13400 3500
Wire Wire Line
	13400 3500 13200 3500
Wire Wire Line
	14700 3200 14300 3200
Wire Wire Line
	14300 3200 14300 3300
Wire Wire Line
	14300 3300 13450 3300
Wire Wire Line
	13450 3300 13450 3600
Wire Wire Line
	13450 3600 13200 3600
Wire Wire Line
	14700 3400 13500 3400
Wire Wire Line
	13500 3400 13500 3700
Wire Wire Line
	13500 3700 13200 3700
Wire Bus Line
	13100 3300 12850 3300
Wire Wire Line
	13700 3600 13700 3800
Wire Wire Line
	13700 3800 13200 3800
Wire Wire Line
	14700 3600 13700 3600
Wire Wire Line
	14700 3800 13900 3800
Wire Wire Line
	13900 3800 13900 3900
Wire Wire Line
	13900 3900 13200 3900
Wire Wire Line
	14700 4000 13200 4000
Wire Wire Line
	14700 4200 13200 4200
Wire Wire Line
	14700 4400 13200 4400
Wire Wire Line
	14700 4600 13200 4600
Wire Wire Line
	14700 4800 13200 4800
Wire Wire Line
	14700 5000 13200 5000
Wire Wire Line
	14700 5200 13200 5200
Wire Wire Line
	14700 5400 13200 5400
Wire Wire Line
	14700 5600 13200 5600
Wire Wire Line
	14700 5800 13200 5800
Wire Wire Line
	7300 6350 7600 6350
Wire Wire Line
	7600 6450 7300 6450
Wire Wire Line
	7300 6550 7600 6550
Wire Wire Line
	7300 6650 7600 6650
Wire Wire Line
	9000 6350 9250 6350
Wire Wire Line
	9000 6450 9250 6450
Wire Wire Line
	9250 6550 9000 6550
Wire Wire Line
	9000 6650 9250 6650
Wire Bus Line
	7200 7000 9500 7000
Wire Wire Line
	7600 6050 7250 6050
Wire Wire Line
	7600 6150 7450 6150
Wire Wire Line
	12450 8250 12150 8250
Wire Wire Line
	12250 8350 12150 8350
Wire Wire Line
	11050 7950 10700 7950
Wire Wire Line
	10700 7850 10700 7950
Wire Wire Line
	11050 7850 10700 7850
Connection ~ 10700 7950
Wire Wire Line
	11050 8050 10900 8050
Wire Wire Line
	10900 8050 10900 7750
Wire Wire Line
	10850 8300 11050 8300
Wire Wire Line
	10450 8400 11050 8400
Wire Wire Line
	10850 6300 11050 6300
Wire Wire Line
	11050 6400 10850 6400
Wire Wire Line
	10850 6500 11050 6500
Wire Bus Line
	10650 5600 10750 5600
Wire Wire Line
	14700 3900 14550 3900
Wire Wire Line
	11050 5850 10950 5850
Wire Wire Line
	10950 5850 10950 5450
Wire Wire Line
	10950 5450 10650 5450
Wire Wire Line
	10850 5950 11050 5950
Wire Wire Line
	11050 6050 10500 6050
Wire Wire Line
	12150 6350 12300 6350
Wire Wire Line
	11050 8500 10850 8500
Wire Wire Line
	7200 5750 7600 5750
Wire Wire Line
	5350 6350 5600 6350
Wire Wire Line
	5350 6450 5600 6450
Wire Wire Line
	5350 6550 5600 6550
Wire Wire Line
	5350 6650 5600 6650
Wire Wire Line
	5350 4700 5600 4700
Wire Wire Line
	5350 4800 5600 4800
Wire Wire Line
	5350 4900 5600 4900
Wire Wire Line
	5350 5000 5600 5000
Wire Bus Line
	5700 4500 5850 4500
Wire Bus Line
	9500 5450 9350 5450
Wire Wire Line
	9250 6250 9000 6250
Wire Wire Line
	9000 6150 9250 6150
Wire Wire Line
	9250 6050 9000 6050
Wire Wire Line
	9250 5950 9000 5950
Wire Wire Line
	9250 5850 9000 5850
Wire Wire Line
	9250 5750 9000 5750
Wire Wire Line
	9250 5650 9000 5650
Wire Wire Line
	9250 5550 9000 5550
Wire Bus Line
	6800 4800 7200 4800
Wire Wire Line
	7300 5050 7600 5050
Wire Wire Line
	7300 5150 7600 5150
Wire Wire Line
	7300 5250 7600 5250
Wire Wire Line
	7300 5350 7600 5350
Wire Wire Line
	7300 5450 7600 5450
Wire Wire Line
	7300 5550 7600 5550
Wire Wire Line
	7300 5650 7600 5650
Wire Bus Line
	3600 4600 3850 4600
Wire Wire Line
	3950 4700 4150 4700
Wire Wire Line
	3950 4800 4150 4800
Wire Wire Line
	3950 5000 4150 5000
Wire Wire Line
	3950 5300 4150 5300
Wire Wire Line
	4150 5400 3950 5400
Wire Wire Line
	3950 6350 4150 6350
Wire Wire Line
	3950 6450 4150 6450
Wire Wire Line
	4150 6550 3950 6550
Wire Wire Line
	3950 6650 4150 6650
Wire Wire Line
	4150 6750 3950 6750
Wire Wire Line
	4150 6850 3950 6850
Wire Wire Line
	3950 6950 4150 6950
Wire Wire Line
	4150 7050 3950 7050
Wire Wire Line
	10500 6050 10500 5950
Wire Wire Line
	14700 1800 14550 1800
Wire Wire Line
	14550 1800 14550 1700
Wire Wire Line
	14000 1700 14550 1700
Wire Wire Line
	14000 1700 14000 1300
Connection ~ 14000 1300
Connection ~ 14550 1700
Wire Wire Line
	14700 7900 14300 7900
Wire Wire Line
	14300 7900 14300 8000
Wire Wire Line
	14700 8000 14300 8000
Connection ~ 14300 8000
Wire Bus Line
	7200 2800 7350 2800
Wire Wire Line
	7450 2950 7750 2950
Wire Wire Line
	7450 3050 7750 3050
Wire Wire Line
	7450 3150 7750 3150
Wire Wire Line
	7450 3250 7750 3250
Wire Wire Line
	7450 3350 7750 3350
Wire Wire Line
	7450 3450 7750 3450
Wire Wire Line
	8850 3650 9200 3650
Wire Wire Line
	8850 3550 9200 3550
Wire Wire Line
	8850 3450 9200 3450
Wire Wire Line
	8850 3350 9200 3350
Wire Wire Line
	8850 3150 9200 3150
Wire Wire Line
	8850 3050 9200 3050
Wire Wire Line
	8850 2950 9200 2950
Wire Bus Line
	9300 2800 9450 2800
Wire Wire Line
	7750 2800 7550 2800
Wire Wire Line
	7550 2800 7550 2650
Wire Wire Line
	7550 2650 7200 2650
Wire Wire Line
	2200 8650 2350 8650
Wire Wire Line
	3600 8650 3550 8650
Wire Wire Line
	4700 8650 4850 8650
Wire Wire Line
	6050 8650 5950 8650
Wire Wire Line
	6350 8650 6500 8650
Wire Wire Line
	6500 8150 6500 8250
Wire Wire Line
	6500 8650 6500 8550
Connection ~ 6500 8650
Wire Wire Line
	5800 7050 5350 7050
Wire Wire Line
	7750 2650 7750 2500
Wire Wire Line
	7750 2500 7200 2500
Wire Wire Line
	3550 8650 3550 8150
Wire Wire Line
	3550 8150 3800 8150
Connection ~ 3550 8650
Wire Wire Line
	6200 7150 5350 7150
Wire Wire Line
	5800 5200 5350 5200
Wire Wire Line
	5350 5300 6150 5300
Wire Wire Line
	7600 4750 7450 4750
Wire Wire Line
	7450 4750 7450 4600
Wire Wire Line
	7450 4600 6800 4600
Wire Wire Line
	7600 4850 7350 4850
Wire Wire Line
	7350 4850 7350 4700
Wire Wire Line
	7350 4700 7050 4700
Wire Wire Line
	4700 10050 4750 10050
Wire Wire Line
	5150 10050 5150 9650
Wire Wire Line
	5150 9650 2550 9650
Wire Wire Line
	2550 9650 2550 10050
Wire Wire Line
	2550 10050 2700 10050
Wire Wire Line
	3350 10600 3350 10500
Wire Wire Line
	5150 10050 5100 10050
Wire Wire Line
	4750 10050 4750 10200
Wire Wire Line
	4750 10600 4350 10600
Connection ~ 4750 10050
Wire Wire Line
	3600 10050 3550 10050
Wire Wire Line
	3350 10200 3350 10050
Connection ~ 3350 10050
Wire Wire Line
	3550 10050 3550 10600
Wire Wire Line
	3550 10600 4050 10600
Connection ~ 3550 10050
Wire Wire Line
	5400 10050 5300 10050
Wire Wire Line
	5300 10050 5300 10200
Wire Wire Line
	5300 10200 4750 10200
Connection ~ 4750 10200
Wire Wire Line
	6800 10050 6500 10050
Wire Wire Line
	9000 4750 9350 4750
Wire Wire Line
	9000 4850 9350 4850
Wire Wire Line
	7900 10200 8000 10200
Wire Wire Line
	8400 10300 8400 10200
Connection ~ 8400 10200
Wire Wire Line
	8400 10600 8400 10700
Wire Wire Line
	8400 10700 8550 10700
Wire Wire Line
	8550 10700 8550 10000
Connection ~ 8550 10000
Wire Wire Line
	6800 10150 6600 10150
Wire Wire Line
	6600 10150 6600 10700
Wire Wire Line
	6600 10700 8000 10700
Wire Wire Line
	7900 10000 8550 10000
Wire Wire Line
	8000 10700 8000 10200
Connection ~ 8000 10200
Wire Wire Line
	6800 10250 6700 10250
Wire Wire Line
	6700 10250 6700 9950
Wire Wire Line
	6800 9950 6700 9950
Connection ~ 6700 9950
Wire Wire Line
	10050 9950 9800 9950
Wire Wire Line
	9800 9750 9800 9950
Wire Wire Line
	9800 10150 10050 10150
Connection ~ 9800 9950
Wire Wire Line
	4700 2450 5000 2450
Wire Wire Line
	5150 2750 5150 2650
Wire Wire Line
	3350 2950 3350 2850
Wire Wire Line
	3350 2550 3350 2450
Wire Wire Line
	3350 2450 3750 2450
Connection ~ 3350 2450
Wire Wire Line
	3900 2650 3750 2650
Wire Wire Line
	3750 2650 3750 2450
Connection ~ 3750 2450
Wire Wire Line
	4200 2650 4300 2650
Wire Wire Line
	4300 2650 4300 2450
Wire Wire Line
	4200 2450 4300 2450
Connection ~ 4300 2450
Wire Wire Line
	2850 2950 2850 2850
Wire Wire Line
	2550 2200 2850 2200
Wire Wire Line
	2850 2200 2850 2550
Connection ~ 2850 2200
Wire Wire Line
	3350 2000 3350 1850
Wire Wire Line
	9350 5150 9000 5150
Wire Wire Line
	14700 3700 14550 3700
Wire Wire Line
	9950 5350 9000 5350
Wire Wire Line
	9000 5450 9250 5450
Wire Wire Line
	9250 5450 9250 4600
Wire Wire Line
	7600 5850 6900 5850
Wire Wire Line
	6900 5850 6900 6300
Wire Bus Line
	6700 5750 6750 5750
Wire Bus Line
	6750 5750 6750 5850
Wire Wire Line
	7600 5950 6850 5950
Wire Wire Line
	12900 1700 12900 1800
Wire Wire Line
	12750 1800 12750 1450
Wire Wire Line
	12750 1450 12550 1450
Wire Wire Line
	12550 1450 12550 1550
Wire Wire Line
	8500 2600 8500 2500
Wire Wire Line
	8350 2600 8350 2300
Wire Wire Line
	8350 2300 8150 2300
Wire Wire Line
	8150 2300 8150 2400
Wire Wire Line
	11600 5650 11600 5750
Wire Wire Line
	11600 6750 11600 6650
Wire Wire Line
	11600 8750 11600 8650
Wire Wire Line
	11600 7650 11600 7750
Wire Wire Line
	7350 10500 7350 10400
Wire Wire Line
	7350 9050 7350 8900
Wire Wire Line
	7350 9700 7350 9800
Wire Wire Line
	7350 8250 7350 8400
Wire Wire Line
	4800 7400 4800 7250
Wire Wire Line
	4800 5700 4800 5600
Wire Wire Line
	4800 4400 4800 4600
Wire Wire Line
	4800 6050 4800 6250
Wire Wire Line
	6600 1550 6600 1500
Wire Wire Line
	6600 1050 6600 900 
Wire Wire Line
	6600 900  6900 900 
Wire Wire Line
	6900 900  6900 1050
Connection ~ 6600 900 
Wire Wire Line
	7200 900  7200 1050
Connection ~ 6900 900 
Wire Wire Line
	7500 900  7500 1050
Connection ~ 7200 900 
Wire Wire Line
	7800 900  7800 1050
Connection ~ 7500 900 
Wire Wire Line
	8100 900  8100 1050
Connection ~ 7800 900 
Wire Wire Line
	8400 900  8400 1050
Connection ~ 8100 900 
Wire Wire Line
	8750 900  8750 1050
Connection ~ 8400 900 
Wire Wire Line
	9200 900  9200 1050
Connection ~ 8750 900 
Wire Wire Line
	6600 1500 6900 1500
Wire Wire Line
	6900 1500 6900 1350
Connection ~ 6600 1500
Wire Wire Line
	7200 1500 7200 1350
Connection ~ 6900 1500
Wire Wire Line
	7500 1500 7500 1350
Connection ~ 7200 1500
Wire Wire Line
	7800 1500 7800 1350
Connection ~ 7500 1500
Wire Wire Line
	8100 1500 8100 1350
Connection ~ 7800 1500
Wire Wire Line
	8400 1500 8400 1350
Connection ~ 8100 1500
Wire Wire Line
	8750 1500 8750 1350
Connection ~ 8400 1500
Wire Wire Line
	9200 1500 9200 1350
Connection ~ 8750 1500
Text Notes 9400 5850 0    50   ~ 0
VRAM\nREAD\nDATABUS
Text Notes 6450 5300 0    50   ~ 0
VRAM\nADDRESSBUS/\nWRITE DATABUS
Text Notes 8050 2250 0    50   ~ 0
WRITE DATABUS LATCH
Wire Wire Line
	10700 7950 10700 8050
Wire Wire Line
	14000 1300 13800 1300
Wire Wire Line
	14550 1700 14700 1700
Wire Wire Line
	14300 8000 14300 8050
Wire Wire Line
	6500 8650 6800 8650
Wire Wire Line
	3550 8650 3450 8650
Wire Wire Line
	4750 10050 4800 10050
Wire Wire Line
	3350 10050 3000 10050
Wire Wire Line
	3550 10050 3350 10050
Wire Wire Line
	4750 10200 4750 10600
Wire Wire Line
	8400 10200 8700 10200
Wire Wire Line
	8550 10000 8700 10000
Wire Wire Line
	8000 10200 8400 10200
Wire Wire Line
	6700 9950 6700 9800
Wire Wire Line
	9800 9950 9800 10150
Wire Wire Line
	3350 2450 3350 2400
Wire Wire Line
	3750 2450 3900 2450
Wire Wire Line
	4300 2450 4400 2450
Wire Wire Line
	2850 2200 3050 2200
Wire Wire Line
	6600 900  6600 850 
Wire Wire Line
	6900 900  7200 900 
Wire Wire Line
	7200 900  7500 900 
Wire Wire Line
	7500 900  7800 900 
Wire Wire Line
	7800 900  8100 900 
Wire Wire Line
	8100 900  8400 900 
Wire Wire Line
	8400 900  8750 900 
Wire Wire Line
	8750 900  9200 900 
Wire Wire Line
	6600 1500 6600 1350
Wire Wire Line
	6900 1500 7200 1500
Wire Wire Line
	7200 1500 7500 1500
Wire Wire Line
	7500 1500 7800 1500
Wire Wire Line
	7800 1500 8100 1500
Wire Wire Line
	8100 1500 8400 1500
Wire Wire Line
	8400 1500 8750 1500
Wire Wire Line
	8750 1500 9200 1500
Text GLabel 5800 5400 2    50   Input ~ 0
V_R_~W
Wire Wire Line
	5350 5400 5800 5400
Wire Wire Line
	5350 5500 6150 5500
Text Label 8900 3250 0    50   ~ 0
RD4
Entry Wire Line
	9200 3250 9300 3150
Wire Wire Line
	7300 4950 7600 4950
Wire Wire Line
	5350 6850 5800 6850
Wire Wire Line
	5350 6950 6200 6950
Wire Wire Line
	3950 4900 4150 4900
Wire Wire Line
	7450 3550 7750 3550
Wire Wire Line
	7450 3650 7750 3650
Wire Wire Line
	8850 3250 9200 3250
Wire Wire Line
	7900 8650 8100 8650
Entry Wire Line
	3850 5000 3950 5100
Entry Wire Line
	3850 5100 3950 5200
Wire Wire Line
	3950 5100 4150 5100
Wire Wire Line
	3950 5200 4150 5200
$Comp
L 65xx-TMS9918-rescue:74HCT574-65xx-Computer U5
U 1 1 59F4D4DD
P 8300 3150
F 0 "U5" H 8650 3650 50  0000 C CNN
F 1 "74HCT574" H 8300 2550 50  0000 C CNN
F 2 "" H 8300 3150 50  0001 C CNN
F 3 "" H 8300 3150 50  0001 C CNN
	1    8300 3150
	1    0    0    -1  
$EndComp
$Comp
L device:CP C14
U 1 1 59F8920E
P 9200 1200
F 0 "C14" H 9225 1300 50  0000 L CNN
F 1 "200µF/6,3V" H 9225 1100 50  0000 L CNN
F 2 "" H 9238 1050 50  0001 C CNN
F 3 "" H 9200 1200 50  0001 C CNN
	1    9200 1200
	1    0    0    -1  
$EndComp
$Comp
L device:CP C13
U 1 1 59F8905D
P 8750 1200
F 0 "C13" H 8775 1300 50  0000 L CNN
F 1 "47µF/6,3V" H 8775 1100 50  0000 L CNN
F 2 "" H 8788 1050 50  0001 C CNN
F 3 "" H 8750 1200 50  0001 C CNN
	1    8750 1200
	1    0    0    -1  
$EndComp
$Comp
L device:C C11
U 1 1 59F88F53
P 8400 1200
F 0 "C11" H 8425 1300 50  0000 L CNN
F 1 "100nF" H 8425 1100 50  0000 L CNN
F 2 "" H 8438 1050 50  0001 C CNN
F 3 "" H 8400 1200 50  0001 C CNN
	1    8400 1200
	1    0    0    -1  
$EndComp
$Comp
L device:C C10
U 1 1 59F88EC9
P 8100 1200
F 0 "C10" H 8125 1300 50  0000 L CNN
F 1 "100nF" H 8125 1100 50  0000 L CNN
F 2 "" H 8138 1050 50  0001 C CNN
F 3 "" H 8100 1200 50  0001 C CNN
	1    8100 1200
	1    0    0    -1  
$EndComp
$Comp
L device:C C9
U 1 1 59F88E42
P 7800 1200
F 0 "C9" H 7825 1300 50  0000 L CNN
F 1 "100nF" H 7825 1100 50  0000 L CNN
F 2 "" H 7838 1050 50  0001 C CNN
F 3 "" H 7800 1200 50  0001 C CNN
	1    7800 1200
	1    0    0    -1  
$EndComp
$Comp
L device:C C8
U 1 1 59F88DBA
P 7500 1200
F 0 "C8" H 7525 1300 50  0000 L CNN
F 1 "100nF" H 7525 1100 50  0000 L CNN
F 2 "" H 7538 1050 50  0001 C CNN
F 3 "" H 7500 1200 50  0001 C CNN
	1    7500 1200
	1    0    0    -1  
$EndComp
$Comp
L device:C C7
U 1 1 59F88D39
P 7200 1200
F 0 "C7" H 7225 1300 50  0000 L CNN
F 1 "100nF" H 7225 1100 50  0000 L CNN
F 2 "" H 7238 1050 50  0001 C CNN
F 3 "" H 7200 1200 50  0001 C CNN
	1    7200 1200
	1    0    0    -1  
$EndComp
$Comp
L device:C C6
U 1 1 59F88CB3
P 6900 1200
F 0 "C6" H 6925 1300 50  0000 L CNN
F 1 "100nF" H 6925 1100 50  0000 L CNN
F 2 "" H 6938 1050 50  0001 C CNN
F 3 "" H 6900 1200 50  0001 C CNN
	1    6900 1200
	1    0    0    -1  
$EndComp
$Comp
L device:C C5
U 1 1 59F88B4B
P 6600 1200
F 0 "C5" H 6625 1300 50  0000 L CNN
F 1 "100nF" H 6625 1100 50  0000 L CNN
F 2 "" H 6638 1050 50  0001 C CNN
F 3 "" H 6600 1200 50  0001 C CNN
	1    6600 1200
	1    0    0    -1  
$EndComp
$Comp
L power1:GNDD #PWR012
U 1 1 59F8893E
P 6600 1550
F 0 "#PWR012" H 6600 1300 50  0001 C CNN
F 1 "GNDD" H 6600 1425 50  0000 C CNN
F 2 "" H 6600 1550 50  0001 C CNN
F 3 "" H 6600 1550 50  0001 C CNN
	1    6600 1550
	1    0    0    -1  
$EndComp
$Comp
L power1:+5V #PWR011
U 1 1 59F886F3
P 6600 850
F 0 "#PWR011" H 6600 700 50  0001 C CNN
F 1 "+5V" H 6600 990 50  0000 C CNN
F 2 "" H 6600 850 50  0001 C CNN
F 3 "" H 6600 850 50  0001 C CNN
	1    6600 850 
	1    0    0    -1  
$EndComp
$Comp
L power1:GNDD #PWR030
U 1 1 59F651D3
P 12550 1550
F 0 "#PWR030" H 12550 1300 50  0001 C CNN
F 1 "GNDD" H 12550 1425 50  0000 C CNN
F 2 "" H 12550 1550 50  0001 C CNN
F 3 "" H 12550 1550 50  0001 C CNN
	1    12550 1550
	1    0    0    -1  
$EndComp
$Comp
L power1:GNDD #PWR027
U 1 1 59F65088
P 11600 6750
F 0 "#PWR027" H 11600 6500 50  0001 C CNN
F 1 "GNDD" H 11600 6625 50  0000 C CNN
F 2 "" H 11600 6750 50  0001 C CNN
F 3 "" H 11600 6750 50  0001 C CNN
	1    11600 6750
	1    0    0    -1  
$EndComp
$Comp
L power1:GNDD #PWR029
U 1 1 59F64E7D
P 11600 8750
F 0 "#PWR029" H 11600 8500 50  0001 C CNN
F 1 "GNDD" H 11600 8625 50  0000 C CNN
F 2 "" H 11600 8750 50  0001 C CNN
F 3 "" H 11600 8750 50  0001 C CNN
	1    11600 8750
	1    0    0    -1  
$EndComp
$Comp
L power1:GNDD #PWR08
U 1 1 59F64D72
P 4800 7400
F 0 "#PWR08" H 4800 7150 50  0001 C CNN
F 1 "GNDD" H 4800 7275 50  0000 C CNN
F 2 "" H 4800 7400 50  0001 C CNN
F 3 "" H 4800 7400 50  0001 C CNN
	1    4800 7400
	1    0    0    -1  
$EndComp
$Comp
L power1:GNDD #PWR06
U 1 1 59F64B87
P 4800 5700
F 0 "#PWR06" H 4800 5450 50  0001 C CNN
F 1 "GNDD" H 4800 5575 50  0000 C CNN
F 2 "" H 4800 5700 50  0001 C CNN
F 3 "" H 4800 5700 50  0001 C CNN
	1    4800 5700
	1    0    0    -1  
$EndComp
$Comp
L power1:GNDD #PWR019
U 1 1 59F64ADC
P 8150 2400
F 0 "#PWR019" H 8150 2150 50  0001 C CNN
F 1 "GNDD" H 8150 2275 50  0000 C CNN
F 2 "" H 8150 2400 50  0001 C CNN
F 3 "" H 8150 2400 50  0001 C CNN
	1    8150 2400
	1    0    0    -1  
$EndComp
$Comp
L power1:+5V #PWR026
U 1 1 59F6480B
P 11600 5650
F 0 "#PWR026" H 11600 5500 50  0001 C CNN
F 1 "+5V" H 11600 5790 50  0000 C CNN
F 2 "" H 11600 5650 50  0001 C CNN
F 3 "" H 11600 5650 50  0001 C CNN
	1    11600 5650
	1    0    0    -1  
$EndComp
$Comp
L power1:+5V #PWR028
U 1 1 59F64600
P 11600 7650
F 0 "#PWR028" H 11600 7500 50  0001 C CNN
F 1 "+5V" H 11600 7790 50  0000 C CNN
F 2 "" H 11600 7650 50  0001 C CNN
F 3 "" H 11600 7650 50  0001 C CNN
	1    11600 7650
	1    0    0    -1  
$EndComp
$Comp
L power1:GNDD #PWR016
U 1 1 59F6444B
P 7350 9050
F 0 "#PWR016" H 7350 8800 50  0001 C CNN
F 1 "GNDD" H 7350 8925 50  0000 C CNN
F 2 "" H 7350 9050 50  0001 C CNN
F 3 "" H 7350 9050 50  0001 C CNN
	1    7350 9050
	1    0    0    -1  
$EndComp
$Comp
L power1:GNDD #PWR018
U 1 1 59F643A0
P 7350 10500
F 0 "#PWR018" H 7350 10250 50  0001 C CNN
F 1 "GNDD" H 7350 10375 50  0000 C CNN
F 2 "" H 7350 10500 50  0001 C CNN
F 3 "" H 7350 10500 50  0001 C CNN
	1    7350 10500
	1    0    0    -1  
$EndComp
$Comp
L power1:+5V #PWR017
U 1 1 59F642B5
P 7350 9700
F 0 "#PWR017" H 7350 9550 50  0001 C CNN
F 1 "+5V" H 7350 9840 50  0000 C CNN
F 2 "" H 7350 9700 50  0001 C CNN
F 3 "" H 7350 9700 50  0001 C CNN
	1    7350 9700
	1    0    0    -1  
$EndComp
$Comp
L power1:+5V #PWR015
U 1 1 59F6410A
P 7350 8250
F 0 "#PWR015" H 7350 8100 50  0001 C CNN
F 1 "+5V" H 7350 8390 50  0000 C CNN
F 2 "" H 7350 8250 50  0001 C CNN
F 3 "" H 7350 8250 50  0001 C CNN
	1    7350 8250
	1    0    0    -1  
$EndComp
$Comp
L power1:+5V #PWR07
U 1 1 59F63D15
P 4800 6050
F 0 "#PWR07" H 4800 5900 50  0001 C CNN
F 1 "+5V" H 4800 6190 50  0000 C CNN
F 2 "" H 4800 6050 50  0001 C CNN
F 3 "" H 4800 6050 50  0001 C CNN
	1    4800 6050
	1    0    0    -1  
$EndComp
$Comp
L power1:+5V #PWR05
U 1 1 59F639CA
P 4800 4400
F 0 "#PWR05" H 4800 4250 50  0001 C CNN
F 1 "+5V" H 4800 4540 50  0000 C CNN
F 2 "" H 4800 4400 50  0001 C CNN
F 3 "" H 4800 4400 50  0001 C CNN
	1    4800 4400
	1    0    0    -1  
$EndComp
$Comp
L power1:+5V #PWR020
U 1 1 59F6381F
P 8500 2500
F 0 "#PWR020" H 8500 2350 50  0001 C CNN
F 1 "+5V" H 8500 2640 50  0000 C CNN
F 2 "" H 8500 2500 50  0001 C CNN
F 3 "" H 8500 2500 50  0001 C CNN
	1    8500 2500
	1    0    0    -1  
$EndComp
$Comp
L power1:+5V #PWR031
U 1 1 59F637B4
P 12900 1700
F 0 "#PWR031" H 12900 1550 50  0001 C CNN
F 1 "+5V" H 12900 1840 50  0000 C CNN
F 2 "" H 12900 1700 50  0001 C CNN
F 3 "" H 12900 1700 50  0001 C CNN
	1    12900 1700
	1    0    0    -1  
$EndComp
$Comp
L power1:GNDD #PWR014
U 1 1 59F6C000
P 6900 6300
F 0 "#PWR014" H 6900 6050 50  0001 C CNN
F 1 "GNDD" H 6900 6175 50  0000 C CNN
F 2 "" H 6900 6300 50  0001 C CNN
F 3 "" H 6900 6300 50  0001 C CNN
	1    6900 6300
	1    0    0    -1  
$EndComp
$Comp
L power1:+5V #PWR021
U 1 1 59F6BB6C
P 9250 4600
F 0 "#PWR021" H 9250 4450 50  0001 C CNN
F 1 "+5V" H 9250 4740 50  0000 C CNN
F 2 "" H 9250 4600 50  0001 C CNN
F 3 "" H 9250 4600 50  0001 C CNN
	1    9250 4600
	1    0    0    -1  
$EndComp
$Comp
L power1:+5V #PWR02
U 1 1 59F6AB9A
P 3350 1850
F 0 "#PWR02" H 3350 1700 50  0001 C CNN
F 1 "+5V" H 3350 1990 50  0000 C CNN
F 2 "" H 3350 1850 50  0001 C CNN
F 3 "" H 3350 1850 50  0001 C CNN
	1    3350 1850
	1    0    0    -1  
$EndComp
$Comp
L power1:GNDD #PWR01
U 1 1 59F6A508
P 2850 2950
F 0 "#PWR01" H 2850 2700 50  0001 C CNN
F 1 "GNDD" H 2850 2825 50  0000 C CNN
F 2 "" H 2850 2950 50  0001 C CNN
F 3 "" H 2850 2950 50  0001 C CNN
	1    2850 2950
	1    0    0    -1  
$EndComp
$Comp
L device:R R1
U 1 1 59F69983
P 2850 2700
F 0 "R1" V 2930 2700 50  0000 C CNN
F 1 "470" V 2850 2700 50  0000 C CNN
F 2 "" V 2780 2700 50  0001 C CNN
F 3 "" H 2850 2700 50  0001 C CNN
	1    2850 2700
	-1   0    0    1   
$EndComp
$Comp
L power1:GNDD #PWR03
U 1 1 59F68978
P 3350 2950
F 0 "#PWR03" H 3350 2700 50  0001 C CNN
F 1 "GNDD" H 3350 2825 50  0000 C CNN
F 2 "" H 3350 2950 50  0001 C CNN
F 3 "" H 3350 2950 50  0001 C CNN
	1    3350 2950
	1    0    0    -1  
$EndComp
$Comp
L device:R R2
U 1 1 59F6871D
P 3350 2700
F 0 "R2" V 3430 2700 50  0000 C CNN
F 1 "75" V 3350 2700 50  0000 C CNN
F 2 "" V 3280 2700 50  0001 C CNN
F 3 "" H 3350 2700 50  0001 C CNN
	1    3350 2700
	-1   0    0    1   
$EndComp
$Comp
L device:R R4
U 1 1 59F686AF
P 4050 2650
F 0 "R4" V 4130 2650 50  0000 C CNN
F 1 "75" V 4050 2650 50  0000 C CNN
F 2 "" V 3980 2650 50  0001 C CNN
F 3 "" H 4050 2650 50  0001 C CNN
	1    4050 2650
	0    1    1    0   
$EndComp
$Comp
L device:R R3
U 1 1 59F68437
P 4050 2450
F 0 "R3" V 4130 2450 50  0000 C CNN
F 1 "47" V 4050 2450 50  0000 C CNN
F 2 "" V 3980 2450 50  0001 C CNN
F 3 "" H 4050 2450 50  0001 C CNN
	1    4050 2450
	0    1    1    0   
$EndComp
$Comp
L power1:GNDD #PWR09
U 1 1 59F67DA6
P 5150 2750
F 0 "#PWR09" H 5150 2500 50  0001 C CNN
F 1 "GNDD" H 5150 2625 50  0000 C CNN
F 2 "" H 5150 2750 50  0001 C CNN
F 3 "" H 5150 2750 50  0001 C CNN
	1    5150 2750
	1    0    0    -1  
$EndComp
$Comp
L device:CP C3
U 1 1 59F679DA
P 4550 2450
F 0 "C3" H 4575 2550 50  0000 L CNN
F 1 "100µ/25V" H 4575 2350 50  0000 L CNN
F 2 "" H 4588 2300 50  0001 C CNN
F 3 "" H 4550 2450 50  0001 C CNN
	1    4550 2450
	0    -1   -1   0   
$EndComp
$Comp
L power1:+5V #PWR022
U 1 1 59F67049
P 9800 9750
F 0 "#PWR022" H 9800 9600 50  0001 C CNN
F 1 "+5V" H 9800 9890 50  0000 C CNN
F 2 "" H 9800 9750 50  0001 C CNN
F 3 "" H 9800 9750 50  0001 C CNN
	1    9800 9750
	1    0    0    -1  
$EndComp
$Comp
L power1:+5V #PWR013
U 1 1 59F665C1
P 6700 9800
F 0 "#PWR013" H 6700 9650 50  0001 C CNN
F 1 "+5V" H 6700 9940 50  0000 C CNN
F 2 "" H 6700 9800 50  0001 C CNN
F 3 "" H 6700 9800 50  0001 C CNN
	1    6700 9800
	1    0    0    -1  
$EndComp
$Comp
L device:C C12
U 1 1 59F65637
P 8400 10450
F 0 "C12" H 8425 10550 50  0000 L CNN
F 1 "470pF" H 8425 10350 50  0000 L CNN
F 2 "" H 8438 10300 50  0001 C CNN
F 3 "" H 8400 10450 50  0001 C CNN
	1    8400 10450
	-1   0    0    1   
$EndComp
$Comp
L device:R R5
U 1 1 59F63549
P 4200 10600
F 0 "R5" V 4280 10600 50  0000 C CNN
F 1 "1M" V 4200 10600 50  0000 C CNN
F 2 "" V 4130 10600 50  0001 C CNN
F 3 "" H 4200 10600 50  0001 C CNN
	1    4200 10600
	0    1    1    0   
$EndComp
$Comp
L power1:GNDD #PWR04
U 1 1 59F62C8D
P 3350 10600
F 0 "#PWR04" H 3350 10350 50  0001 C CNN
F 1 "GNDD" H 3350 10475 50  0000 C CNN
F 2 "" H 3350 10600 50  0001 C CNN
F 3 "" H 3350 10600 50  0001 C CNN
	1    3350 10600
	1    0    0    -1  
$EndComp
$Comp
L device:R R6
U 1 1 59F61BD7
P 4950 10050
F 0 "R6" V 5030 10050 50  0000 C CNN
F 1 "1K" V 4950 10050 50  0000 C CNN
F 2 "" V 4880 10050 50  0001 C CNN
F 3 "" H 4950 10050 50  0001 C CNN
	1    4950 10050
	0    1    1    0   
$EndComp
$Comp
L device:C C2
U 1 1 59F61893
P 3350 10350
F 0 "C2" H 3375 10450 50  0000 L CNN
F 1 "27pF" H 3375 10250 50  0000 L CNN
F 2 "" H 3388 10200 50  0001 C CNN
F 3 "" H 3350 10350 50  0001 C CNN
	1    3350 10350
	-1   0    0    1   
$EndComp
$Comp
L power1:+5V #PWR010
U 1 1 59F5E0D5
P 6500 8150
F 0 "#PWR010" H 6500 8000 50  0001 C CNN
F 1 "+5V" H 6500 8290 50  0000 C CNN
F 2 "" H 6500 8150 50  0001 C CNN
F 3 "" H 6500 8150 50  0001 C CNN
	1    6500 8150
	1    0    0    -1  
$EndComp
$Comp
L device:R R7
U 1 1 59F5D564
P 6200 8650
F 0 "R7" V 6280 8650 50  0000 C CNN
F 1 "100" V 6200 8650 50  0000 C CNN
F 2 "" V 6130 8650 50  0001 C CNN
F 3 "" H 6200 8650 50  0001 C CNN
	1    6200 8650
	0    1    1    0   
$EndComp
$Comp
L power1:GNDD #PWR034
U 1 1 59F5A589
P 14300 8050
F 0 "#PWR034" H 14300 7800 50  0001 C CNN
F 1 "GNDD" H 14300 7925 50  0000 C CNN
F 2 "" H 14300 8050 50  0001 C CNN
F 3 "" H 14300 8050 50  0001 C CNN
	1    14300 8050
	1    0    0    -1  
$EndComp
$Comp
L power1:+5V #PWR023
U 1 1 59F52FB6
P 10500 5950
F 0 "#PWR023" H 10500 5800 50  0001 C CNN
F 1 "+5V" H 10500 6090 50  0000 C CNN
F 2 "" H 10500 5950 50  0001 C CNN
F 3 "" H 10500 5950 50  0001 C CNN
	1    10500 5950
	1    0    0    -1  
$EndComp
$Comp
L power1:+5V #PWR025
U 1 1 59F51003
P 10900 7750
F 0 "#PWR025" H 10900 7600 50  0001 C CNN
F 1 "+5V" H 10900 7890 50  0000 C CNN
F 2 "" H 10900 7750 50  0001 C CNN
F 3 "" H 10900 7750 50  0001 C CNN
	1    10900 7750
	1    0    0    -1  
$EndComp
$Comp
L power1:GNDD #PWR024
U 1 1 59F50C9B
P 10700 8050
F 0 "#PWR024" H 10700 7800 50  0001 C CNN
F 1 "GNDD" H 10700 7925 50  0000 C CNN
F 2 "" H 10700 8050 50  0001 C CNN
F 3 "" H 10700 8050 50  0001 C CNN
	1    10700 8050
	1    0    0    -1  
$EndComp
$Comp
L device:C C4
U 1 1 59F4E275
P 6500 8400
F 0 "C4" H 6525 8500 50  0000 L CNN
F 1 "470pF" H 6525 8300 50  0000 L CNN
F 2 "" H 6538 8250 50  0001 C CNN
F 3 "" H 6500 8400 50  0001 C CNN
	1    6500 8400
	1    0    0    -1  
$EndComp
$Comp
L 65xx-Computer:Crystal Y1
U 1 1 59F4E059
P 2850 10050
F 0 "Y1" H 2850 10200 50  0000 C CNN
F 1 "21,47727MHz" H 2850 9900 50  0000 C CNN
F 2 "" H 2850 10050 50  0001 C CNN
F 3 "" H 2850 10050 50  0001 C CNN
	1    2850 10050
	1    0    0    -1  
$EndComp
$Comp
L 65xx-Computer:C_Variable C1
U 1 1 59F4E004
P 2550 10400
F 0 "C1" H 2575 10325 50  0000 L CNN
F 1 "1.4...5,5pF" H 2575 10250 50  0000 L CNN
F 2 "" H 2550 10400 50  0001 C CNN
F 3 "" H 2550 10400 50  0001 C CNN
	1    2550 10400
	1    0    0    -1  
$EndComp
$Comp
L 65xx-Computer:Conn_Coaxial J1
U 1 1 59F4DF93
P 5150 2450
F 0 "J1" H 5160 2570 50  0000 C CNN
F 1 "Conn_Coaxial" V 5265 2450 50  0000 C CNN
F 2 "" H 5150 2450 50  0001 C CNN
F 3 "" H 5150 2450 50  0001 C CNN
	1    5150 2450
	1    0    0    -1  
$EndComp
$Comp
L 65xx-TMS9918-rescue:TMS9918ANL-RESCUE-65xx-TMS9918 U6
U 1 1 59F4DEE8
P 8300 5700
F 0 "U6" H 8300 6800 50  0000 C CNN
F 1 "TMS9918ANL" H 8300 4600 50  0000 C CNN
F 2 "" H 8300 6350 50  0000 C CNN
F 3 "" H 8300 6350 50  0000 C CNN
	1    8300 5700
	1    0    0    -1  
$EndComp
$Comp
L 65xx-Computer:BC547C Q1
U 1 1 59F4DE7B
P 3250 2200
F 0 "Q1" H 3450 2250 50  0000 L CNN
F 1 "BC547C" H 3450 2150 50  0000 L CNN
F 2 "" H 3450 2300 50  0001 C CNN
F 3 "" H 3250 2200 50  0001 C CNN
	1    3250 2200
	1    0    0    -1  
$EndComp
$Comp
L 65xx-Computer:74AC74 U4
U 2 1 59F4DB4C
P 10600 10100
F 0 "U4" H 10900 10450 50  0000 C CNN
F 1 "74AC74" H 10850 9750 50  0000 C CNN
F 2 "" H 10600 10100 50  0001 C CNN
F 3 "" H 10600 10100 50  0001 C CNN
	2    10600 10100
	1    0    0    -1  
$EndComp
$Comp
L 65xx-Computer:74AC74 U4
U 1 1 59F4DAD1
P 7350 10100
F 0 "U4" H 7650 10450 50  0000 C CNN
F 1 "74AC74" H 7600 9750 50  0000 C CNN
F 2 "" H 7350 10100 50  0001 C CNN
F 3 "" H 7350 10100 50  0001 C CNN
	1    7350 10100
	1    0    0    -1  
$EndComp
$Comp
L 65xx-Computer:74HC04 U1
U 6 1 59F4D830
P 7350 8650
F 0 "U1" H 7550 8950 50  0000 C CNN
F 1 "74HC04" H 7550 8350 50  0000 C CNN
F 2 "" H 7350 8650 50  0001 C CNN
F 3 "" H 7350 8650 50  0001 C CNN
	6    7350 8650
	1    0    0    -1  
$EndComp
$Comp
L 65xx-Computer:74HC04 U1
U 4 1 59F4D7A3
P 5400 8650
F 0 "U1" H 5600 8950 50  0000 C CNN
F 1 "74HC04" H 5550 8300 50  0000 C CNN
F 2 "" H 5400 8650 50  0001 C CNN
F 3 "" H 5400 8650 50  0001 C CNN
	4    5400 8650
	1    0    0    -1  
$EndComp
$Comp
L 65xx-Computer:74HC04 U1
U 2 1 59F4D736
P 4150 8650
F 0 "U1" H 4350 8950 50  0000 C CNN
F 1 "74HC04" H 4300 8300 50  0000 C CNN
F 2 "" H 4150 8650 50  0001 C CNN
F 3 "" H 4150 8650 50  0001 C CNN
	2    4150 8650
	1    0    0    -1  
$EndComp
$Comp
L 65xx-Computer:74HC04 U1
U 1 1 59F4D6DD
P 2900 8650
F 0 "U1" H 3100 8950 50  0000 C CNN
F 1 "74HC04" H 3050 8300 50  0000 C CNN
F 2 "" H 2900 8650 50  0001 C CNN
F 3 "" H 2900 8650 50  0001 C CNN
	1    2900 8650
	1    0    0    -1  
$EndComp
$Comp
L 65xx-Computer:74HC04 U1
U 5 1 59F4D65E
P 5950 10050
F 0 "U1" H 6150 10350 50  0000 C CNN
F 1 "74HC04" H 6100 9700 50  0000 C CNN
F 2 "" H 5950 10050 50  0001 C CNN
F 3 "" H 5950 10050 50  0001 C CNN
	5    5950 10050
	1    0    0    -1  
$EndComp
$Comp
L 65xx-Computer:74HC04 U1
U 3 1 59F4D5F5
P 4150 10050
F 0 "U1" H 4350 10350 50  0000 C CNN
F 1 "74HC04" H 4300 9700 50  0000 C CNN
F 2 "" H 4150 10050 50  0001 C CNN
F 3 "" H 4150 10050 50  0001 C CNN
	3    4150 10050
	1    0    0    -1  
$EndComp
$Comp
L 65xx-Computer:74HCT138 U8
U 1 1 59F4D3F5
P 11600 8050
F 0 "U8" H 11750 8400 50  0000 C CNN
F 1 "74HCT138" H 11950 7400 50  0000 C CNN
F 2 "" H 11600 8050 50  0001 C CNN
F 3 "" H 11600 8050 50  0001 C CNN
	1    11600 8050
	1    0    0    -1  
$EndComp
$Comp
L 65xx-Computer:D41464C U2
U 1 1 59F4D388
P 4750 5100
F 0 "U2" H 4900 5650 50  0000 C CNN
F 1 "D41464C" H 5000 4550 50  0000 C CNN
F 2 "" H 4750 4800 50  0001 C CNN
F 3 "" H 4750 4800 50  0001 C CNN
	1    4750 5100
	1    0    0    -1  
$EndComp
$Comp
L 65xx-Computer:D41464C U3
U 1 1 59F4D2C1
P 4750 6750
F 0 "U3" H 4900 7300 50  0000 C CNN
F 1 "D41464C" H 5000 6200 50  0000 C CNN
F 2 "" H 4750 6450 50  0001 C CNN
F 3 "" H 4750 6450 50  0001 C CNN
	1    4750 6750
	1    0    0    -1  
$EndComp
$Comp
L 65xx-Computer:74HCT138 U7
U 1 1 59F4D262
P 11600 6050
F 0 "U7" H 11750 6400 50  0000 C CNN
F 1 "74HCT138" H 11950 5400 50  0000 C CNN
F 2 "" H 11600 6050 50  0001 C CNN
F 3 "" H 11600 6050 50  0001 C CNN
	1    11600 6050
	1    0    0    -1  
$EndComp
$Comp
L 65xx-Computer:74HCT245 U10
U 1 1 59EFB954
P 12700 2450
F 0 "U10" H 13000 2950 50  0000 L CNN
F 1 "74HCT245" H 12800 1850 50  0000 L CNN
F 2 "" H 12700 2450 50  0001 C CNN
F 3 "" H 12700 2450 50  0001 C CNN
	1    12700 2450
	1    0    0    -1  
$EndComp
$Comp
L power1:GNDD #PWR032
U 1 1 59EFB0C4
P 13150 1300
F 0 "#PWR032" H 13150 1050 50  0001 C CNN
F 1 "GNDD" H 13150 1175 50  0000 C CNN
F 2 "" H 13150 1300 50  0001 C CNN
F 3 "" H 13150 1300 50  0001 C CNN
	1    13150 1300
	1    0    0    -1  
$EndComp
$Comp
L power1:+5V #PWR033
U 1 1 59EFB08C
P 14150 1300
F 0 "#PWR033" H 14150 1150 50  0001 C CNN
F 1 "+5V" H 14150 1440 50  0000 C CNN
F 2 "" H 14150 1300 50  0001 C CNN
F 3 "" H 14150 1300 50  0001 C CNN
	1    14150 1300
	1    0    0    -1  
$EndComp
$Comp
L 65xx-TMS9918-rescue:C64AC_DIN41612_BUS-RESCUE-65xx-TMS9918 X1
U 1 1 59EFA531
P 15300 4850
F 0 "X1" H 15200 8150 50  0000 C CNN
F 1 "C64AC_DIN41612_BUS" V 15700 4800 50  0000 C CNN
F 2 "" H 15200 4850 50  0001 C CNN
F 3 "" H 15200 4850 50  0001 C CNN
	1    15300 4850
	1    0    0    -1  
$EndComp
$Comp
L 65xx-Computer:D_TVS_UNI D1
U 1 1 59EFA4EC
P 13650 1300
F 0 "D1" H 13650 1400 50  0000 C CNN
F 1 "P6KE6,8A" H 13650 1200 50  0000 C CNN
F 2 "" H 13650 1300 50  0001 C CNN
F 3 "" H 13650 1300 50  0001 C CNN
	1    13650 1300
	1    0    0    -1  
$EndComp
Text GLabel 7200 6250 0    50   Output ~ 0
~INT
Wire Wire Line
	14700 3100 14550 3100
Wire Wire Line
	7200 6250 7600 6250
Text GLabel 14550 3100 0    50   Input ~ 0
~IRQ
$Comp
L 65xx-Computer:BC547C Q2
U 1 1 6054F89B
P 10700 3850
F 0 "Q2" H 10900 3900 50  0000 L CNN
F 1 "BC546C" H 10900 3800 50  0000 L CNN
F 2 "" H 10900 3950 50  0001 C CNN
F 3 "" H 10700 3850 50  0001 C CNN
	1    10700 3850
	1    0    0    -1  
$EndComp
$Comp
L 65xx-Computer:BC547C Q3
U 1 1 60551027
P 11650 3600
F 0 "Q3" H 11850 3650 50  0000 L CNN
F 1 "BC546C" H 11850 3550 50  0000 L CNN
F 2 "" H 11850 3700 50  0001 C CNN
F 3 "" H 11650 3600 50  0001 C CNN
	1    11650 3600
	1    0    0    -1  
$EndComp
$Comp
L device:R R8
U 1 1 605519A1
P 10200 3850
F 0 "R8" V 10280 3850 50  0000 C CNN
F 1 "2k7" V 10200 3850 50  0000 C CNN
F 2 "" V 10130 3850 50  0001 C CNN
F 3 "" H 10200 3850 50  0001 C CNN
	1    10200 3850
	0    -1   -1   0   
$EndComp
$Comp
L device:R R9
U 1 1 60552476
P 10800 3300
F 0 "R9" V 10880 3300 50  0000 C CNN
F 1 "10k" V 10800 3300 50  0000 C CNN
F 2 "" V 10730 3300 50  0001 C CNN
F 3 "" H 10800 3300 50  0001 C CNN
	1    10800 3300
	1    0    0    -1  
$EndComp
$Comp
L device:R R10
U 1 1 60552BED
P 11150 3600
F 0 "R10" V 11230 3600 50  0000 C CNN
F 1 "2k7" V 11150 3600 50  0000 C CNN
F 2 "" V 11080 3600 50  0001 C CNN
F 3 "" H 11150 3600 50  0001 C CNN
	1    11150 3600
	0    1    1    0   
$EndComp
$Comp
L power1:GNDD #PWR037
U 1 1 6055304D
P 11750 4200
F 0 "#PWR037" H 11750 3950 50  0001 C CNN
F 1 "GNDD" H 11750 4075 50  0000 C CNN
F 2 "" H 11750 4200 50  0001 C CNN
F 3 "" H 11750 4200 50  0001 C CNN
	1    11750 4200
	1    0    0    -1  
$EndComp
$Comp
L power1:GNDD #PWR036
U 1 1 605538EB
P 10800 4200
F 0 "#PWR036" H 10800 3950 50  0001 C CNN
F 1 "GNDD" H 10800 4075 50  0000 C CNN
F 2 "" H 10800 4200 50  0001 C CNN
F 3 "" H 10800 4200 50  0001 C CNN
	1    10800 4200
	1    0    0    -1  
$EndComp
Text GLabel 9750 3850 0    50   Input ~ 0
~INT
Wire Wire Line
	11750 3800 11750 4200
Wire Wire Line
	10800 4050 10800 4200
Wire Wire Line
	11000 3600 10800 3600
Wire Wire Line
	10800 3600 10800 3650
Wire Wire Line
	10800 3450 10800 3600
Connection ~ 10800 3600
Wire Wire Line
	10500 3850 10350 3850
Wire Wire Line
	10050 3850 9750 3850
Wire Wire Line
	11300 3600 11450 3600
Wire Wire Line
	11750 3400 11750 3350
Text GLabel 11900 3350 2    50   Output ~ 0
~IRQ
Wire Wire Line
	11750 3350 11900 3350
$Comp
L power1:+5V #PWR035
U 1 1 606FE14F
P 10800 3050
F 0 "#PWR035" H 10800 2900 50  0001 C CNN
F 1 "+5V" H 10800 3190 50  0000 C CNN
F 2 "" H 10800 3050 50  0001 C CNN
F 3 "" H 10800 3050 50  0001 C CNN
	1    10800 3050
	1    0    0    -1  
$EndComp
Wire Wire Line
	10800 3050 10800 3150
Wire Bus Line
	10750 5600 10750 6400
Wire Bus Line
	7200 6450 7200 7000
Wire Bus Line
	9350 6450 9350 7000
Wire Bus Line
	11700 2100 11700 2800
Wire Bus Line
	5700 4500 5700 6550
Wire Bus Line
	9350 5450 9350 6150
Wire Bus Line
	9300 2800 9300 3550
Wire Bus Line
	7350 2800 7350 3550
Wire Bus Line
	7200 4800 7200 5550
Wire Bus Line
	13100 3300 13100 5700
Wire Bus Line
	3850 4600 3850 6950
$EndSCHEMATC
