EESchema Schematic File Version 4
EELAYER 30 0
EELAYER END
$Descr A3 16535 11693
encoding utf-8
Sheet 1 1
Title "Oak65c02 Sound / RTC Board"
Date "2019-12-29"
Rev "001"
Comp "Uwe Gottschling"
Comment1 ""
Comment2 ""
Comment3 ""
Comment4 ""
$EndDescr
$Comp
L 65xx-SOUND-rescue:C64AC_DIN41612_BUS-65xx-Computer X1
U 1 1 5CB7473C
P 14600 5400
F 0 "X1" H 15069 5446 50  0000 L CNN
F 1 "C64AC_DIN41612_BUS" H 15069 5355 50  0000 L CNN
F 2 "" H 14500 5400 50  0001 C CNN
F 3 "" H 14500 5400 50  0001 C CNN
	1    14600 5400
	1    0    0    -1  
$EndComp
$Comp
L 65xx-SOUND-rescue:74HCT245-65xx-Computer U10
U 1 1 5CB7C7DB
P 12250 2700
F 0 "U10" H 12100 3550 50  0000 C CNN
F 1 "74HCT245" H 12100 3450 50  0000 C CNN
F 2 "" H 12250 2700 60  0001 C CNN
F 3 "" H 12250 2700 60  0001 C CNN
	1    12250 2700
	1    0    0    -1  
$EndComp
$Comp
L power:+5V #PWR0101
U 1 1 5CBBFCFC
P 13700 2050
F 0 "#PWR0101" H 13700 1900 50  0001 C CNN
F 1 "+5V" H 13715 2223 50  0000 C CNN
F 2 "" H 13700 2050 50  0001 C CNN
F 3 "" H 13700 2050 50  0001 C CNN
	1    13700 2050
	1    0    0    -1  
$EndComp
$Comp
L power:GND #PWR0102
U 1 1 5CBC059D
P 13550 8800
F 0 "#PWR0102" H 13550 8550 50  0001 C CNN
F 1 "GND" H 13555 8627 50  0000 C CNN
F 2 "" H 13550 8800 50  0001 C CNN
F 3 "" H 13550 8800 50  0001 C CNN
	1    13550 8800
	1    0    0    -1  
$EndComp
Wire Wire Line
	14000 8450 13550 8450
Wire Wire Line
	13550 8450 13550 8550
Wire Wire Line
	14000 8550 13550 8550
Connection ~ 13550 8550
Wire Wire Line
	13550 8550 13550 8800
Wire Wire Line
	14000 2350 13700 2350
Wire Wire Line
	13700 2350 13700 2250
Wire Wire Line
	14000 2250 13700 2250
Connection ~ 13700 2250
Wire Wire Line
	13700 2250 13700 2050
Wire Wire Line
	11000 2150 11700 2150
Text GLabel 12750 4300 2    50   Output ~ 0
~CS
Text GLabel 13750 3250 0    50   Output ~ 0
R_~W
Text GLabel 11050 2300 0    50   Input ~ 0
R_~W
$Comp
L power:+5V #PWR0103
U 1 1 5CBCF8D2
P 11400 5850
F 0 "#PWR0103" H 11400 5700 50  0001 C CNN
F 1 "+5V" H 11415 6023 50  0000 C CNN
F 2 "" H 11400 5850 50  0001 C CNN
F 3 "" H 11400 5850 50  0001 C CNN
	1    11400 5850
	1    0    0    -1  
$EndComp
Wire Bus Line
	11350 3250 11250 3250
Text GLabel 11250 3250 0    50   BiDi ~ 0
DATABUS
Entry Wire Line
	11350 3050 11450 3150
Wire Wire Line
	11700 3050 11450 3050
Wire Wire Line
	11700 3150 11450 3150
Text Label 11500 3150 0    50   ~ 0
D7
Text Label 11500 3050 0    50   ~ 0
D6
Wire Wire Line
	12800 3150 14000 3150
Wire Wire Line
	12800 3050 14000 3050
Wire Wire Line
	12800 2950 14000 2950
Wire Wire Line
	12800 2850 14000 2850
Wire Wire Line
	12800 2550 14000 2550
Wire Wire Line
	12800 2750 14000 2750
Wire Wire Line
	12800 2450 14000 2450
Wire Wire Line
	12800 2650 14000 2650
Text GLabel 13300 3350 0    50   Output ~ 0
A0
Text GLabel 13300 3550 0    50   Output ~ 0
A1
Wire Wire Line
	14000 3350 13300 3350
Text GLabel 13800 4250 0    50   Output ~ 0
~RESET
Wire Wire Line
	13800 4250 14000 4250
Wire Wire Line
	13750 3250 14000 3250
Wire Wire Line
	13750 3450 14000 3450
Wire Wire Line
	13300 3550 14000 3550
$Comp
L Device:C_Small C24
U 1 1 5DD2ECE6
P 12150 1600
F 0 "C24" H 12242 1646 50  0000 L CNN
F 1 "100nF" H 12242 1555 50  0000 L CNN
F 2 "" H 12150 1600 50  0001 C CNN
F 3 "~" H 12150 1600 50  0001 C CNN
	1    12150 1600
	0    -1   -1   0   
$EndComp
Text GLabel 13300 4150 0    50   Output ~ 0
A4
Text GLabel 13300 4350 0    50   Output ~ 0
A5
Text GLabel 13300 4550 0    50   Output ~ 0
A6
Wire Wire Line
	14000 4150 13300 4150
Wire Wire Line
	14000 4350 13300 4350
Wire Wire Line
	14000 4550 13300 4550
Text GLabel 11050 4750 0    50   Input ~ 0
A4
Text GLabel 11050 4850 0    50   Input ~ 0
A5
Text GLabel 11050 4950 0    50   Input ~ 0
A6
Wire Wire Line
	11350 4750 11050 4750
Wire Wire Line
	11350 4850 11050 4850
Wire Wire Line
	11350 4950 11050 4950
Text GLabel 13300 4750 0    50   Output ~ 0
A7
Wire Wire Line
	13300 4750 14000 4750
Text GLabel 11100 4500 0    50   Input ~ 0
A7
Text GLabel 13800 4450 0    50   Output ~ 0
~IORQ
Text GLabel 11150 4300 0    50   Input ~ 0
~IORQ
Wire Wire Line
	13800 4450 14000 4450
$Comp
L power:+5V #PWR0121
U 1 1 5DEB08DA
P 11900 3850
F 0 "#PWR0121" H 11900 3700 50  0001 C CNN
F 1 "+5V" H 11915 4023 50  0000 C CNN
F 2 "" H 11900 3850 50  0001 C CNN
F 3 "" H 11900 3850 50  0001 C CNN
	1    11900 3850
	1    0    0    -1  
$EndComp
Wire Wire Line
	11900 4200 11900 3900
Connection ~ 11900 3900
Wire Wire Line
	11900 3900 11900 3850
$Comp
L Device:C_Small C25
U 1 1 5DEF37B4
P 12550 4050
F 0 "C25" H 12642 4096 50  0000 L CNN
F 1 "100nF" H 12642 4005 50  0000 L CNN
F 2 "" H 12550 4050 50  0001 C CNN
F 3 "~" H 12550 4050 50  0001 C CNN
	1    12550 4050
	1    0    0    -1  
$EndComp
$Comp
L Device:C_Small C26
U 1 1 5DEF3C5D
P 13000 5950
F 0 "C26" H 13092 5996 50  0000 L CNN
F 1 "100nF" H 13092 5905 50  0000 L CNN
F 2 "" H 13000 5950 50  0001 C CNN
F 3 "~" H 13000 5950 50  0001 C CNN
	1    13000 5950
	1    0    0    -1  
$EndComp
$Comp
L power:GND #PWR0122
U 1 1 5DEF3FC7
P 11600 7150
F 0 "#PWR0122" H 11600 6900 50  0001 C CNN
F 1 "GND" H 11605 6977 50  0000 C CNN
F 2 "" H 11600 7150 50  0001 C CNN
F 3 "" H 11600 7150 50  0001 C CNN
	1    11600 7150
	1    0    0    -1  
$EndComp
$Comp
L power:GND #PWR0123
U 1 1 5DEF4303
P 11900 5250
F 0 "#PWR0123" H 11900 5000 50  0001 C CNN
F 1 "GND" H 11905 5077 50  0000 C CNN
F 2 "" H 11900 5250 50  0001 C CNN
F 3 "" H 11900 5250 50  0001 C CNN
	1    11900 5250
	1    0    0    -1  
$EndComp
$Comp
L power:GND #PWR0124
U 1 1 5DEF455B
P 11650 1850
F 0 "#PWR0124" H 11650 1600 50  0001 C CNN
F 1 "GND" H 11655 1677 50  0000 C CNN
F 2 "" H 11650 1850 50  0001 C CNN
F 3 "" H 11650 1850 50  0001 C CNN
	1    11650 1850
	1    0    0    -1  
$EndComp
$Comp
L power:+5V #PWR0125
U 1 1 5DEF51E8
P 12450 1450
F 0 "#PWR0125" H 12450 1300 50  0001 C CNN
F 1 "+5V" H 12465 1623 50  0000 C CNN
F 2 "" H 12450 1450 50  0001 C CNN
F 3 "" H 12450 1450 50  0001 C CNN
	1    12450 1450
	1    0    0    -1  
$EndComp
Wire Wire Line
	12250 1600 12450 1600
Wire Wire Line
	12450 1600 12450 1450
Wire Wire Line
	12450 2050 12450 1600
Connection ~ 12450 1600
Wire Wire Line
	12050 1600 11850 1600
Wire Wire Line
	11650 1600 11650 1850
Wire Wire Line
	12300 2050 12300 1750
Wire Wire Line
	12300 1750 11850 1750
Wire Wire Line
	11850 1750 11850 1600
Connection ~ 11850 1600
Wire Wire Line
	11850 1600 11650 1600
Wire Wire Line
	11900 3900 12550 3900
Wire Wire Line
	12550 3900 12550 3950
Wire Wire Line
	11900 5100 11900 5150
Wire Wire Line
	11900 5150 12550 5150
Wire Wire Line
	12550 5150 12550 4150
Connection ~ 11900 5150
Wire Wire Line
	11900 5150 11900 5250
Wire Wire Line
	11600 5850 11400 5850
Wire Wire Line
	11600 7150 11600 7100
Wire Wire Line
	13000 7100 13000 6050
Connection ~ 11600 7100
Text Label 11500 2450 0    50   ~ 0
D0
Text Label 11500 2550 0    50   ~ 0
D1
Text Label 11500 2650 0    50   ~ 0
D2
Text Label 11500 2750 0    50   ~ 0
D3
Text Label 11500 2850 0    50   ~ 0
D4
Text Label 11500 2950 0    50   ~ 0
D5
Wire Wire Line
	11700 2950 11450 2950
Wire Wire Line
	11700 2850 11450 2850
Wire Wire Line
	11700 2750 11450 2750
Wire Wire Line
	11700 2650 11450 2650
Wire Wire Line
	11700 2550 11450 2550
Wire Wire Line
	11700 2450 11450 2450
Entry Wire Line
	11350 2950 11450 3050
Entry Wire Line
	11350 2850 11450 2950
Entry Wire Line
	11350 2750 11450 2850
Entry Wire Line
	11350 2650 11450 2750
Entry Wire Line
	11350 2550 11450 2650
Entry Wire Line
	11350 2450 11450 2550
Entry Wire Line
	11350 2350 11450 2450
Wire Wire Line
	11050 2300 11700 2300
$Comp
L 65xx-SOUND-rescue:DS1685S-5-65xx-Computer U1
U 1 1 5CB7E516
P 3550 2100
F 0 "U1" H 3550 2887 60  0000 C CNN
F 1 "DS1685" H 3550 2781 60  0000 C CNN
F 2 "" H 3550 2300 60  0000 C CNN
F 3 "" H 3550 2300 60  0000 C CNN
	1    3550 2100
	1    0    0    -1  
$EndComp
$Comp
L 65xx-SOUND-rescue:Crystal-65xx-Computer Y1
U 1 1 5CB7F0B5
P 1100 1750
F 0 "Y1" V 1054 1881 50  0000 L CNN
F 1 "32.768kHz" V 1145 1881 50  0000 L CNN
F 2 "" H 1100 1750 50  0001 C CNN
F 3 "" H 1100 1750 50  0001 C CNN
	1    1100 1750
	0    1    1    0   
$EndComp
$Comp
L 65xx-SOUND-rescue:Battery_Cell-65xx-Computer BT1
U 1 1 5CB84558
P 5150 2500
F 0 "BT1" H 5268 2596 50  0000 L CNN
F 1 "Battery_Cell 3V" H 5268 2505 50  0000 L CNN
F 2 "" V 5150 2560 50  0001 C CNN
F 3 "~" V 5150 2560 50  0001 C CNN
	1    5150 2500
	1    0    0    -1  
$EndComp
$Comp
L power:GND #PWR07
U 1 1 5CB85276
P 5150 3100
F 0 "#PWR07" H 5150 2850 50  0001 C CNN
F 1 "GND" H 5155 2927 50  0000 C CNN
F 2 "" H 5150 3100 50  0001 C CNN
F 3 "" H 5150 3100 50  0001 C CNN
	1    5150 3100
	1    0    0    -1  
$EndComp
Wire Wire Line
	5150 3100 5150 2750
Wire Wire Line
	1700 1700 1700 1400
Wire Wire Line
	1700 1400 1100 1400
Wire Wire Line
	1100 1400 1100 1600
Wire Wire Line
	1700 1800 1700 2050
Wire Wire Line
	1700 2050 1100 2050
Wire Wire Line
	1100 2050 1100 1900
Wire Wire Line
	1700 1700 2850 1700
Wire Wire Line
	1700 1800 2850 1800
Wire Wire Line
	4250 1800 4500 1800
Wire Wire Line
	5150 1800 5150 2300
Wire Wire Line
	4250 2000 4950 2000
Wire Wire Line
	4950 2000 4950 2750
Wire Wire Line
	4950 2750 5150 2750
Connection ~ 5150 2750
Wire Wire Line
	5150 2750 5150 2600
Entry Wire Line
	2200 2000 2300 1900
Entry Wire Line
	2200 2100 2300 2000
Entry Wire Line
	2200 2200 2300 2100
Entry Wire Line
	2200 2300 2300 2200
Entry Wire Line
	2200 2400 2300 2300
Entry Wire Line
	2200 2500 2300 2400
Entry Wire Line
	2200 2600 2300 2500
Entry Wire Line
	2200 2700 2300 2600
Wire Bus Line
	2200 2800 2100 2800
Text GLabel 2100 2800 0    50   BiDi ~ 0
DATABUS
Wire Wire Line
	2850 1900 2300 1900
Wire Wire Line
	2850 2000 2300 2000
Wire Wire Line
	2850 2100 2300 2100
Wire Wire Line
	2850 2200 2300 2200
Wire Wire Line
	2850 2300 2300 2300
Wire Wire Line
	2850 2400 2300 2400
Wire Wire Line
	2850 2500 2300 2500
Wire Wire Line
	2850 2600 2300 2600
$Comp
L power:GND #PWR03
U 1 1 5CBD7616
P 2750 3100
F 0 "#PWR03" H 2750 2850 50  0001 C CNN
F 1 "GND" H 2755 2927 50  0000 C CNN
F 2 "" H 2750 3100 50  0001 C CNN
F 3 "" H 2750 3100 50  0001 C CNN
	1    2750 3100
	1    0    0    -1  
$EndComp
Wire Wire Line
	2850 2700 2750 2700
Wire Wire Line
	2750 2700 2750 3100
$Comp
L power:+5V #PWR06
U 1 1 5CBDFEA7
P 5150 1350
F 0 "#PWR06" H 5150 1200 50  0001 C CNN
F 1 "+5V" H 5165 1523 50  0000 C CNN
F 2 "" H 5150 1350 50  0001 C CNN
F 3 "" H 5150 1350 50  0001 C CNN
	1    5150 1350
	1    0    0    -1  
$EndComp
Wire Wire Line
	4250 1600 5150 1600
Wire Wire Line
	5150 1600 5150 1350
$Comp
L 65xx-SOUND-rescue:YMF262-65xx-Computer U2
U 1 1 5CBEC478
P 3500 7150
F 0 "U2" H 3500 7937 60  0000 C CNN
F 1 "YMF262" H 3500 7831 60  0000 C CNN
F 2 "" H 3500 7350 60  0000 C CNN
F 3 "" H 3500 7350 60  0000 C CNN
	1    3500 7150
	1    0    0    -1  
$EndComp
$Comp
L 65xx-SOUND-rescue:YAC512-65xx-Computer U5
U 1 1 5CBEF1A1
P 6950 7200
F 0 "U5" H 6950 7765 50  0000 C CNN
F 1 "YAC512" H 6950 7674 50  0000 C CNN
F 2 "" H 6950 6900 50  0001 C CNN
F 3 "" H 6950 6900 50  0001 C CNN
	1    6950 7200
	1    0    0    -1  
$EndComp
Entry Wire Line
	4850 7250 4950 7350
Entry Wire Line
	4850 7350 4950 7450
Entry Wire Line
	4850 7450 4950 7550
Entry Wire Line
	4850 7550 4950 7650
Entry Wire Line
	4850 7650 4950 7750
Entry Wire Line
	4850 7750 4950 7850
Entry Wire Line
	2450 7650 2550 7550
Text GLabel 5100 8050 2    50   BiDi ~ 0
DATABUS
Wire Wire Line
	4850 7750 4200 7750
Wire Wire Line
	4200 7650 4850 7650
Wire Wire Line
	2800 7650 2550 7650
Wire Wire Line
	2800 7550 2550 7550
Wire Wire Line
	4850 7550 4200 7550
Wire Wire Line
	4850 7450 4200 7450
Wire Wire Line
	4850 7350 4200 7350
Wire Wire Line
	4850 7250 4200 7250
$Comp
L power:GND #PWR04
U 1 1 5CC1FCA6
P 2750 8200
F 0 "#PWR04" H 2750 7950 50  0001 C CNN
F 1 "GND" H 2755 8027 50  0000 C CNN
F 2 "" H 2750 8200 50  0001 C CNN
F 3 "" H 2750 8200 50  0001 C CNN
	1    2750 8200
	1    0    0    -1  
$EndComp
Wire Wire Line
	2800 7750 2750 7750
Wire Wire Line
	2750 7750 2750 8200
$Comp
L power:+5V #PWR02
U 1 1 5CC256D6
P 2100 6300
F 0 "#PWR02" H 2100 6150 50  0001 C CNN
F 1 "+5V" H 2115 6473 50  0000 C CNN
F 2 "" H 2100 6300 50  0001 C CNN
F 3 "" H 2100 6300 50  0001 C CNN
	1    2100 6300
	1    0    0    -1  
$EndComp
Wire Wire Line
	2800 6650 2100 6650
Wire Wire Line
	2100 6650 2100 6400
$Comp
L 65xx-SOUND-rescue:Crystal_oscillator-65xx-Computer U3
U 1 1 5CC2BA94
P 4750 6150
F 0 "U3" H 4750 6538 60  0000 C CNN
F 1 "14.31818MHz" H 4750 6432 60  0000 C CNN
F 2 "" H 4700 6150 60  0001 C CNN
F 3 "" H 4700 6150 60  0001 C CNN
	1    4750 6150
	1    0    0    -1  
$EndComp
Wire Wire Line
	5150 6250 5350 6250
Wire Wire Line
	5350 6250 5350 6400
Wire Wire Line
	5350 6650 4200 6650
$Comp
L power:+5V #PWR08
U 1 1 5CC3285E
P 5350 5850
F 0 "#PWR08" H 5350 5700 50  0001 C CNN
F 1 "+5V" H 5365 6023 50  0000 C CNN
F 2 "" H 5350 5850 50  0001 C CNN
F 3 "" H 5350 5850 50  0001 C CNN
	1    5350 5850
	1    0    0    -1  
$EndComp
$Comp
L power:GND #PWR05
U 1 1 5CC32C7B
P 4250 6350
F 0 "#PWR05" H 4250 6100 50  0001 C CNN
F 1 "GND" H 4255 6177 50  0000 C CNN
F 2 "" H 4250 6350 50  0001 C CNN
F 3 "" H 4250 6350 50  0001 C CNN
	1    4250 6350
	1    0    0    -1  
$EndComp
Wire Wire Line
	4350 6250 4250 6250
Wire Wire Line
	4250 6250 4250 6350
Wire Wire Line
	5150 6050 5350 6050
Wire Wire Line
	5350 6050 5350 5950
$Comp
L Device:C_Small C2
U 1 1 5CC3F5D1
P 5550 6150
F 0 "C2" H 5642 6196 50  0000 L CNN
F 1 "100nF" H 5642 6105 50  0000 L CNN
F 2 "" H 5550 6150 50  0001 C CNN
F 3 "~" H 5550 6150 50  0001 C CNN
	1    5550 6150
	1    0    0    -1  
$EndComp
$Comp
L Device:C_Small C1
U 1 1 5CC3FA3C
P 1700 6550
F 0 "C1" H 1792 6596 50  0000 L CNN
F 1 "100nF" H 1792 6505 50  0000 L CNN
F 2 "" H 1700 6550 50  0001 C CNN
F 3 "~" H 1700 6550 50  0001 C CNN
	1    1700 6550
	1    0    0    -1  
$EndComp
$Comp
L power:GND #PWR01
U 1 1 5CC40758
P 1700 6800
F 0 "#PWR01" H 1700 6550 50  0001 C CNN
F 1 "GND" H 1705 6627 50  0000 C CNN
F 2 "" H 1700 6800 50  0001 C CNN
F 3 "" H 1700 6800 50  0001 C CNN
	1    1700 6800
	1    0    0    -1  
$EndComp
Wire Wire Line
	1700 6800 1700 6650
Wire Wire Line
	2100 6400 1700 6400
Wire Wire Line
	1700 6400 1700 6450
Connection ~ 2100 6400
Wire Wire Line
	2100 6400 2100 6300
Entry Wire Line
	2550 7650 2450 7750
Wire Wire Line
	5350 5950 5550 5950
Wire Wire Line
	5550 5950 5550 6050
Connection ~ 5350 5950
Wire Wire Line
	5350 5950 5350 5850
Wire Wire Line
	5350 6400 5550 6400
Wire Wire Line
	5550 6400 5550 6250
Connection ~ 5350 6400
Wire Wire Line
	5350 6400 5350 6650
Text GLabel 2200 6850 0    50   Input ~ 0
~RESET
Wire Wire Line
	2800 6850 2200 6850
Text GLabel 2400 6950 0    50   Input ~ 0
A0
Wire Wire Line
	2800 6950 2400 6950
Text GLabel 2200 7050 0    50   Input ~ 0
A1
Wire Wire Line
	2800 7050 2200 7050
$Comp
L Device:C_Small C3
U 1 1 5CC9FC65
P 6300 6650
F 0 "C3" H 6392 6696 50  0000 L CNN
F 1 "100nF" H 6392 6605 50  0000 L CNN
F 2 "" H 6300 6650 50  0001 C CNN
F 3 "~" H 6300 6650 50  0001 C CNN
	1    6300 6650
	1    0    0    -1  
$EndComp
Wire Wire Line
	6350 6900 6150 6900
Wire Wire Line
	6350 7100 6150 7100
Wire Wire Line
	6150 7100 6150 6900
Connection ~ 6150 6900
Wire Wire Line
	6150 6900 6000 6900
Wire Wire Line
	6350 7200 5500 7200
Wire Wire Line
	5500 7200 5500 6950
Wire Wire Line
	5500 6950 4200 6950
$Comp
L power:GND #PWR010
U 1 1 5CCC8284
P 6300 7850
F 0 "#PWR010" H 6300 7600 50  0001 C CNN
F 1 "GND" H 6305 7677 50  0000 C CNN
F 2 "" H 6300 7850 50  0001 C CNN
F 3 "" H 6300 7850 50  0001 C CNN
	1    6300 7850
	1    0    0    -1  
$EndComp
$Comp
L power:+5V #PWR09
U 1 1 5CCC85DD
P 5750 6700
F 0 "#PWR09" H 5750 6550 50  0001 C CNN
F 1 "+5V" H 5765 6873 50  0000 C CNN
F 2 "" H 5750 6700 50  0001 C CNN
F 3 "" H 5750 6700 50  0001 C CNN
	1    5750 6700
	1    0    0    -1  
$EndComp
Wire Wire Line
	5750 6700 5750 6900
Wire Wire Line
	6000 6400 6000 6900
Connection ~ 6000 6900
Wire Wire Line
	6000 6900 5750 6900
Wire Wire Line
	6300 6400 6300 6550
Wire Wire Line
	6000 6400 6300 6400
Wire Wire Line
	6300 6750 6300 7000
Wire Wire Line
	6350 7000 6300 7000
Connection ~ 6300 7000
Wire Wire Line
	6300 7000 6300 7850
Wire Wire Line
	6350 7300 5600 7300
Wire Wire Line
	5600 7300 5600 6750
Wire Wire Line
	5600 6750 4200 6750
$Comp
L 65xx-SOUND-rescue:TL074-65xx-Computer U6
U 1 1 5CD12341
P 8600 7000
F 0 "U6" H 8600 7367 50  0000 C CNN
F 1 "TL074" H 8600 7276 50  0000 C CNN
F 2 "" H 8550 7100 50  0001 C CNN
F 3 "" H 8650 7200 50  0001 C CNN
	1    8600 7000
	1    0    0    -1  
$EndComp
$Comp
L 65xx-SOUND-rescue:TL074-65xx-Computer U6
U 2 1 5CD12FBD
P 8600 7700
F 0 "U6" H 8600 8067 50  0000 C CNN
F 1 "TL074" H 8600 7976 50  0000 C CNN
F 2 "" H 8550 7800 50  0001 C CNN
F 3 "" H 8650 7900 50  0001 C CNN
	2    8600 7700
	1    0    0    -1  
$EndComp
$Comp
L 65xx-SOUND-rescue:TL074-65xx-Computer U6
U 3 1 5CD13BFD
P 8600 8700
F 0 "U6" H 8600 9067 50  0000 C CNN
F 1 "TL074" H 8600 8976 50  0000 C CNN
F 2 "" H 8550 8800 50  0001 C CNN
F 3 "" H 8650 8900 50  0001 C CNN
	3    8600 8700
	1    0    0    -1  
$EndComp
$Comp
L 65xx-SOUND-rescue:TL074-65xx-Computer U6
U 4 1 5CD1481F
P 8600 9400
F 0 "U6" H 8600 9767 50  0000 C CNN
F 1 "TL074" H 8600 9676 50  0000 C CNN
F 2 "" H 8550 9500 50  0001 C CNN
F 3 "" H 8650 9600 50  0001 C CNN
	4    8600 9400
	1    0    0    -1  
$EndComp
$Comp
L 65xx-SOUND-rescue:TL074-65xx-Computer U6
U 5 1 5CD1532E
P 10850 10500
F 0 "U6" H 10980 10546 50  0000 L CNN
F 1 "TL074" H 10980 10455 50  0000 L CNN
F 2 "" H 10800 10600 50  0001 C CNN
F 3 "" H 10900 10700 50  0001 C CNN
	5    10850 10500
	1    0    0    -1  
$EndComp
$Comp
L Device:C_Small C6
U 1 1 5CD17B64
P 10000 10550
F 0 "C6" H 10092 10596 50  0000 L CNN
F 1 "100nF" H 10092 10505 50  0000 L CNN
F 2 "" H 10000 10550 50  0001 C CNN
F 3 "~" H 10000 10550 50  0001 C CNN
	1    10000 10550
	1    0    0    -1  
$EndComp
$Comp
L power:+5V #PWR017
U 1 1 5CD18138
P 10750 10050
F 0 "#PWR017" H 10750 9900 50  0001 C CNN
F 1 "+5V" H 10765 10223 50  0000 C CNN
F 2 "" H 10750 10050 50  0001 C CNN
F 3 "" H 10750 10050 50  0001 C CNN
	1    10750 10050
	1    0    0    -1  
$EndComp
$Comp
L power:GND #PWR018
U 1 1 5CD18507
P 10750 10950
F 0 "#PWR018" H 10750 10700 50  0001 C CNN
F 1 "GND" H 10755 10777 50  0000 C CNN
F 2 "" H 10750 10950 50  0001 C CNN
F 3 "" H 10750 10950 50  0001 C CNN
	1    10750 10950
	1    0    0    -1  
$EndComp
Wire Wire Line
	10750 10800 10750 10850
Wire Wire Line
	10750 10200 10750 10150
Wire Wire Line
	10750 10150 10000 10150
Wire Wire Line
	10000 10150 10000 10450
Connection ~ 10750 10150
Wire Wire Line
	10750 10150 10750 10050
Wire Wire Line
	10750 10850 10000 10850
Wire Wire Line
	10000 10850 10000 10650
Connection ~ 10750 10850
Wire Wire Line
	10750 10850 10750 10950
$Comp
L Device:CP_Small C7
U 1 1 5CD563F2
P 7950 6400
F 0 "C7" H 8038 6446 50  0000 L CNN
F 1 "10µF/63V" H 8038 6355 50  0000 L CNN
F 2 "" H 7950 6400 50  0001 C CNN
F 3 "~" H 7950 6400 50  0001 C CNN
	1    7950 6400
	1    0    0    -1  
$EndComp
Wire Wire Line
	8300 6900 7800 6900
Wire Wire Line
	7550 7100 8200 7100
Wire Wire Line
	8900 7000 9100 7000
Wire Wire Line
	9100 7000 9100 7250
Wire Wire Line
	9100 7250 8200 7250
Wire Wire Line
	8200 7250 8200 7100
Connection ~ 8200 7100
Wire Wire Line
	8200 7100 8300 7100
$Comp
L power:GND #PWR013
U 1 1 5CD769F9
P 7950 6600
F 0 "#PWR013" H 7950 6350 50  0001 C CNN
F 1 "GND" H 7955 6427 50  0000 C CNN
F 2 "" H 7950 6600 50  0001 C CNN
F 3 "" H 7950 6600 50  0001 C CNN
	1    7950 6600
	1    0    0    -1  
$EndComp
Wire Wire Line
	7950 6600 7950 6500
Wire Wire Line
	7950 6300 7950 6200
Wire Wire Line
	7950 6200 7800 6200
Wire Wire Line
	7800 6200 7800 6900
Connection ~ 7800 6900
Wire Wire Line
	7800 6900 7550 6900
Wire Wire Line
	8100 7600 8300 7600
$Comp
L Device:R_Small R1
U 1 1 5CD99DCC
P 7950 7800
F 0 "R1" V 7754 7800 50  0000 C CNN
F 1 "33" V 7845 7800 50  0000 C CNN
F 2 "" H 7950 7800 50  0001 C CNN
F 3 "~" H 7950 7800 50  0001 C CNN
	1    7950 7800
	0    1    1    0   
$EndComp
Wire Wire Line
	8300 7800 8200 7800
Wire Wire Line
	7550 7200 8100 7200
Wire Wire Line
	8100 7200 8100 7600
Wire Wire Line
	7550 7300 7750 7300
Wire Wire Line
	7750 7300 7750 7800
Wire Wire Line
	7750 7800 7850 7800
$Comp
L Device:C_Small C8
U 1 1 5CDBF596
P 8100 8050
F 0 "C8" H 8192 8096 50  0000 L CNN
F 1 "68pF" H 8192 8005 50  0000 L CNN
F 2 "" H 8100 8050 50  0001 C CNN
F 3 "~" H 8100 8050 50  0001 C CNN
	1    8100 8050
	1    0    0    -1  
$EndComp
$Comp
L power:GND #PWR016
U 1 1 5CDBFB5B
P 8100 8300
F 0 "#PWR016" H 8100 8050 50  0001 C CNN
F 1 "GND" H 8105 8127 50  0000 C CNN
F 2 "" H 8100 8300 50  0001 C CNN
F 3 "" H 8100 8300 50  0001 C CNN
	1    8100 8300
	1    0    0    -1  
$EndComp
Wire Wire Line
	8100 7950 8100 7600
Connection ~ 8100 7600
Wire Wire Line
	8100 8150 8100 8300
Wire Wire Line
	8900 7700 9100 7700
Wire Wire Line
	9100 7700 9100 7950
Wire Wire Line
	9100 7950 8200 7950
Wire Wire Line
	8200 7950 8200 7800
Connection ~ 8200 7800
Wire Wire Line
	8200 7800 8050 7800
Wire Wire Line
	7550 7400 7700 7400
Wire Wire Line
	7700 7400 7700 8600
Wire Wire Line
	7700 8600 7800 8600
Wire Wire Line
	7550 7500 7650 7500
Wire Wire Line
	7650 7500 7650 9300
Wire Wire Line
	7650 9300 7800 9300
Wire Wire Line
	9050 8950 9050 8700
Wire Wire Line
	9050 8700 8900 8700
Wire Wire Line
	9050 9650 9050 9400
Wire Wire Line
	9050 9400 8900 9400
$Comp
L Device:C_Small C4
U 1 1 5CE5382C
P 7800 8850
F 0 "C4" H 7892 8896 50  0000 L CNN
F 1 "2.7nF" H 7892 8805 50  0000 L CNN
F 2 "" H 7800 8850 50  0001 C CNN
F 3 "~" H 7800 8850 50  0001 C CNN
	1    7800 8850
	1    0    0    -1  
$EndComp
$Comp
L Device:C_Small C5
U 1 1 5CE53C2C
P 7800 9450
F 0 "C5" H 7892 9496 50  0000 L CNN
F 1 "2.7nF" H 7892 9405 50  0000 L CNN
F 2 "" H 7800 9450 50  0001 C CNN
F 3 "~" H 7800 9450 50  0001 C CNN
	1    7800 9450
	1    0    0    -1  
$EndComp
$Comp
L power:GND #PWR011
U 1 1 5CE54013
P 7800 9000
F 0 "#PWR011" H 7800 8750 50  0001 C CNN
F 1 "GND" H 7805 8827 50  0000 C CNN
F 2 "" H 7800 9000 50  0001 C CNN
F 3 "" H 7800 9000 50  0001 C CNN
	1    7800 9000
	1    0    0    -1  
$EndComp
$Comp
L power:GND #PWR012
U 1 1 5CE5445E
P 7800 9650
F 0 "#PWR012" H 7800 9400 50  0001 C CNN
F 1 "GND" H 7805 9477 50  0000 C CNN
F 2 "" H 7800 9650 50  0001 C CNN
F 3 "" H 7800 9650 50  0001 C CNN
	1    7800 9650
	1    0    0    -1  
$EndComp
Wire Wire Line
	7800 9350 7800 9300
Connection ~ 7800 9300
Wire Wire Line
	7800 9300 8300 9300
Wire Wire Line
	7800 9000 7800 8950
Wire Wire Line
	7800 8750 7800 8600
Connection ~ 7800 8600
Wire Wire Line
	7800 8600 8300 8600
Wire Wire Line
	7800 9550 7800 9650
$Comp
L 65xx-SOUND-rescue:Conn_Coaxial-65xx-Computer J1
U 1 1 5CF2BA4F
P 9800 8700
F 0 "J1" H 9900 8675 50  0000 L CNN
F 1 "Conn_Coaxial" H 9900 8584 50  0000 L CNN
F 2 "" H 9800 8700 50  0001 C CNN
F 3 "" H 9800 8700 50  0001 C CNN
	1    9800 8700
	1    0    0    -1  
$EndComp
$Comp
L 65xx-SOUND-rescue:Conn_Coaxial-65xx-Computer J2
U 1 1 5CF2C30A
P 9800 9400
F 0 "J2" H 9900 9375 50  0000 L CNN
F 1 "Conn_Coaxial" H 9900 9284 50  0000 L CNN
F 2 "" H 9800 9400 50  0001 C CNN
F 3 "" H 9800 9400 50  0001 C CNN
	1    9800 9400
	1    0    0    -1  
$EndComp
$Comp
L power:GND #PWR019
U 1 1 5CF4AF4D
P 9800 9000
F 0 "#PWR019" H 9800 8750 50  0001 C CNN
F 1 "GND" H 9805 8827 50  0000 C CNN
F 2 "" H 9800 9000 50  0001 C CNN
F 3 "" H 9800 9000 50  0001 C CNN
	1    9800 9000
	1    0    0    -1  
$EndComp
$Comp
L power:GND #PWR020
U 1 1 5CF4B35A
P 9800 9700
F 0 "#PWR020" H 9800 9450 50  0001 C CNN
F 1 "GND" H 9805 9527 50  0000 C CNN
F 2 "" H 9800 9700 50  0001 C CNN
F 3 "" H 9800 9700 50  0001 C CNN
	1    9800 9700
	1    0    0    -1  
$EndComp
Wire Wire Line
	9800 9000 9800 8900
Wire Wire Line
	9800 9600 9800 9700
Wire Wire Line
	8300 8800 8150 8800
Wire Wire Line
	8150 8800 8150 8950
Wire Wire Line
	8150 8950 9050 8950
Wire Wire Line
	8300 9500 8150 9500
Wire Wire Line
	8150 9500 8150 9650
Wire Wire Line
	8150 9650 9050 9650
Wire Wire Line
	6350 7600 5350 7600
Wire Wire Line
	6350 7500 5400 7500
Wire Wire Line
	6350 7400 6150 7400
Wire Wire Line
	6150 7400 6150 7100
Connection ~ 6150 7100
Wire Wire Line
	5350 7600 5350 7050
Wire Wire Line
	5350 7050 4200 7050
Wire Wire Line
	5400 7500 5400 7150
Wire Wire Line
	5400 7150 4200 7150
Wire Bus Line
	4950 8050 5100 8050
Wire Bus Line
	2450 8050 4950 8050
Connection ~ 4950 8050
Wire Wire Line
	4550 2600 4250 2600
Wire Wire Line
	4250 2400 4450 2400
Wire Wire Line
	4450 2400 4450 2750
Wire Wire Line
	4450 2750 4950 2750
Connection ~ 4950 2750
Wire Wire Line
	12750 4300 12450 4300
$Comp
L 65xx-SOUND-rescue:74HCT138-65xx-Computer U8
U 1 1 5CB7DD65
P 11900 4500
F 0 "U8" H 12000 5000 50  0000 C CNN
F 1 "74HCT138" H 12150 4900 50  0000 C CNN
F 2 "" H 11900 4500 60  0001 C CNN
F 3 "" H 11900 4500 60  0001 C CNN
	1    11900 4500
	1    0    0    -1  
$EndComp
Wire Wire Line
	11350 4500 11100 4500
Wire Wire Line
	11350 4400 11250 4400
Wire Wire Line
	11250 4400 11250 5150
Wire Wire Line
	11250 5150 11900 5150
$Comp
L 65xx-SOUND-rescue:74LS00-65xx-Computer U4
U 1 1 5CBAB223
P 6750 1100
F 0 "U4" H 6750 1566 50  0000 C CNN
F 1 "74LS00" H 6750 1475 50  0000 C CNN
F 2 "" H 6750 1100 60  0001 C CNN
F 3 "" H 6750 1100 60  0001 C CNN
	1    6750 1100
	1    0    0    -1  
$EndComp
$Comp
L 65xx-SOUND-rescue:74LS00-65xx-Computer U4
U 2 1 5CBAD614
P 8650 1100
F 0 "U4" H 8650 1566 50  0000 C CNN
F 1 "74LS00" H 8650 1475 50  0000 C CNN
F 2 "" H 8650 1100 60  0001 C CNN
F 3 "" H 8650 1100 60  0001 C CNN
	2    8650 1100
	1    0    0    -1  
$EndComp
$Comp
L 65xx-SOUND-rescue:74LS00-65xx-Computer U4
U 4 1 5CBAE8AE
P 10200 1100
F 0 "U4" H 10200 1566 50  0000 C CNN
F 1 "74LS00" H 10200 1475 50  0000 C CNN
F 2 "" H 10200 1100 60  0001 C CNN
F 3 "" H 10200 1100 60  0001 C CNN
	4    10200 1100
	1    0    0    -1  
$EndComp
$Comp
L 65xx-SOUND-rescue:74LS00-65xx-Computer U4
U 3 1 5CBAF6C7
P 8150 2250
F 0 "U4" H 7900 2650 50  0000 C CNN
F 1 "74LS00" H 7950 2550 50  0000 C CNN
F 2 "" H 8150 2250 60  0001 C CNN
F 3 "" H 8150 2250 60  0001 C CNN
	3    8150 2250
	1    0    0    -1  
$EndComp
$Comp
L Device:C_Small C9
U 1 1 5CBAFCCE
P 8700 2000
F 0 "C9" H 8792 2046 50  0000 L CNN
F 1 "100nF" H 8792 1955 50  0000 L CNN
F 2 "" H 8700 2000 50  0001 C CNN
F 3 "~" H 8700 2000 50  0001 C CNN
	1    8700 2000
	-1   0    0    1   
$EndComp
Wire Wire Line
	6250 1000 6100 1000
Wire Wire Line
	6100 1000 6100 1100
Wire Wire Line
	6100 1100 6000 1100
Wire Wire Line
	6250 1200 6100 1200
Wire Wire Line
	6100 1200 6100 1100
Connection ~ 6100 1100
Wire Wire Line
	7250 1100 7400 1100
Text GLabel 7400 1100 2    50   Output ~ 0
ALE
Text GLabel 4550 2600 2    50   Input ~ 0
ALE
Text GLabel 7350 2250 0    50   Input ~ 0
R_~W
Wire Wire Line
	7650 2150 7500 2150
Wire Wire Line
	7500 2150 7500 2250
Wire Wire Line
	7500 2250 7350 2250
Wire Wire Line
	7650 2350 7500 2350
Wire Wire Line
	7500 2350 7500 2250
Connection ~ 7500 2250
Wire Wire Line
	8650 2250 9100 2250
Text GLabel 9100 2250 2    50   Output ~ 0
~R~_W
Text GLabel 4600 2300 2    50   Input ~ 0
~R~_W
Text GLabel 4600 2450 2    50   Input ~ 0
~WR
Wire Wire Line
	4550 2500 4550 2450
Wire Wire Line
	4550 2450 4600 2450
Wire Wire Line
	4250 2500 4550 2500
Wire Wire Line
	4600 2300 4250 2300
Text GLabel 4500 2900 2    50   Input ~ 0
~CS_RTC
Wire Wire Line
	4250 2700 4300 2700
Wire Wire Line
	4300 2700 4300 2900
Wire Wire Line
	4300 2900 4500 2900
$Comp
L power:+5V #PWR014
U 1 1 5CD0D739
P 8150 1750
F 0 "#PWR014" H 8150 1600 50  0001 C CNN
F 1 "+5V" H 8165 1923 50  0000 C CNN
F 2 "" H 8150 1750 50  0001 C CNN
F 3 "" H 8150 1750 50  0001 C CNN
	1    8150 1750
	1    0    0    -1  
$EndComp
$Comp
L power:GND #PWR015
U 1 1 5CD0DC14
P 8150 2750
F 0 "#PWR015" H 8150 2500 50  0001 C CNN
F 1 "GND" H 8155 2577 50  0000 C CNN
F 2 "" H 8150 2750 50  0001 C CNN
F 3 "" H 8150 2750 50  0001 C CNN
	1    8150 2750
	1    0    0    -1  
$EndComp
Wire Wire Line
	8150 1750 8150 1850
Wire Wire Line
	8150 2500 8150 2650
Wire Wire Line
	8700 1850 8700 1900
Connection ~ 8150 1850
Wire Wire Line
	8150 1850 8150 2000
Wire Wire Line
	8700 2100 8700 2650
Wire Wire Line
	8700 2650 8150 2650
Connection ~ 8150 2650
Wire Wire Line
	8150 2650 8150 2750
Text GLabel 13800 4050 0    50   Output ~ 0
RAM_R_~W
Text GLabel 13800 4650 0    50   Output ~ 0
RAM_W_~R
Wire Wire Line
	13800 4050 14000 4050
Wire Wire Line
	13800 4650 14000 4650
Text GLabel 1950 7150 0    50   Input ~ 0
RAM_R_~W
Text GLabel 1450 7250 0    50   Input ~ 0
RAM_W_~R
Wire Wire Line
	2800 7150 1950 7150
Wire Wire Line
	1450 7250 2800 7250
Text GLabel 1950 7350 0    50   Input ~ 0
~CS_OPL3
Wire Wire Line
	2800 7350 1950 7350
Wire Wire Line
	11150 4300 11350 4300
Wire Wire Line
	8150 1850 8700 1850
Text Label 2550 1900 0    50   ~ 0
D0
Text Label 2550 2000 0    50   ~ 0
D1
Text Label 2550 2100 0    50   ~ 0
D2
Text Label 2550 2200 0    50   ~ 0
D3
Text Label 2550 2300 0    50   ~ 0
D4
Text Label 2550 2400 0    50   ~ 0
D5
Text Label 2550 2500 0    50   ~ 0
D6
Text Label 2550 2600 0    50   ~ 0
D7
Text Label 2650 7550 0    50   ~ 0
D0
Text Label 2650 7650 0    50   ~ 0
D1
Text Label 4400 7750 0    50   ~ 0
D2
Text Label 4400 7650 0    50   ~ 0
D3
Text Label 4400 7550 0    50   ~ 0
D4
Text Label 4400 7450 0    50   ~ 0
D5
Text Label 4400 7350 0    50   ~ 0
D6
Text Label 4400 7250 0    50   ~ 0
D7
Text Notes 8450 8150 0    50   ~ 0
C8 ist noch 27pF\nR1 ist noch 47 Ohm // 100 Ohm
Text Notes 8000 9800 0    50   ~ 0
C4 und C5 ist noch 1nF
Text Notes 9950 2050 0    50   ~ 0
Verknüpfung der ~CS~ Leitungen \nnoch notwendig.
$Comp
L 65xx-SOUND-rescue:74HCT139-65xx-Computer U9
U 2 1 5CBC0A76
P 12100 7900
F 0 "U9" H 12100 8466 50  0000 C CNN
F 1 "74HCT139" H 12100 8375 50  0000 C CNN
F 2 "" H 12100 7900 50  0001 C CNN
F 3 "" H 12100 7900 50  0001 C CNN
	2    12100 7900
	1    0    0    -1  
$EndComp
$Comp
L 65xx-SOUND-rescue:74HCT139-65xx-Computer U9
U 1 1 5CBBF7B6
P 12050 6550
F 0 "U9" H 12050 7116 50  0000 C CNN
F 1 "74HCT139" H 12050 7025 50  0000 C CNN
F 2 "" H 12050 6550 50  0001 C CNN
F 3 "" H 12050 6550 50  0001 C CNN
	1    12050 6550
	1    0    0    -1  
$EndComp
Wire Wire Line
	11600 5850 11600 6150
Wire Wire Line
	11600 5850 13000 5850
Connection ~ 11600 5850
Wire Wire Line
	11600 7100 13000 7100
Wire Wire Line
	11600 7050 11600 7100
Wire Wire Line
	11600 6950 11600 7100
Wire Wire Line
	7550 7600 7600 7600
Wire Wire Line
	7600 7600 7600 7000
$Comp
L power:+5V #PWR022
U 1 1 5CC74C64
P 7600 6700
F 0 "#PWR022" H 7600 6550 50  0001 C CNN
F 1 "+5V" H 7615 6873 50  0000 C CNN
F 2 "" H 7600 6700 50  0001 C CNN
F 3 "" H 7600 6700 50  0001 C CNN
	1    7600 6700
	1    0    0    -1  
$EndComp
Text GLabel 13300 3950 0    50   Output ~ 0
A3
Wire Wire Line
	14000 3950 13300 3950
Wire Wire Line
	14000 3750 13300 3750
Text GLabel 13300 3750 0    50   Output ~ 0
A2
Text GLabel 11000 6300 0    50   Input ~ 0
A2
Text GLabel 10800 6450 0    50   Input ~ 0
A3
Wire Wire Line
	11200 6300 11000 6300
Wire Wire Line
	11200 6450 10800 6450
Text GLabel 10900 6800 0    50   Input ~ 0
~CS
Wire Wire Line
	11200 6800 10900 6800
Text GLabel 13150 6250 2    50   Output ~ 0
~CS_RTC
Text GLabel 13150 6450 2    50   Output ~ 0
~CS_OPL3
Wire Wire Line
	13150 6250 12900 6250
Wire Wire Line
	13150 6450 12900 6450
$Comp
L Device:CP_Small C11
U 1 1 5CC5E9C5
P 9300 8700
F 0 "C11" H 9388 8746 50  0000 L CNN
F 1 "100µF/10V" H 9388 8655 50  0000 L CNN
F 2 "" H 9300 8700 50  0001 C CNN
F 3 "~" H 9300 8700 50  0001 C CNN
	1    9300 8700
	0    -1   -1   0   
$EndComp
$Comp
L Device:CP_Small C12
U 1 1 5CC5F56D
P 9300 9400
F 0 "C12" H 9388 9446 50  0000 L CNN
F 1 "100µF/10V" H 9388 9355 50  0000 L CNN
F 2 "" H 9300 9400 50  0001 C CNN
F 3 "~" H 9300 9400 50  0001 C CNN
	1    9300 9400
	0    -1   -1   0   
$EndComp
Wire Wire Line
	9650 8700 9450 8700
Wire Wire Line
	9650 9400 9450 9400
Wire Wire Line
	9200 9400 9050 9400
Connection ~ 9050 9400
Wire Wire Line
	9200 8700 9050 8700
Connection ~ 9050 8700
Wire Wire Line
	7550 7000 7600 7000
Connection ~ 7600 7000
Wire Wire Line
	7600 7000 7600 6700
Text Notes 9600 8600 0    50   ~ 0
Right Output
Text Notes 9600 9300 0    50   ~ 0
Left Output
$Comp
L Device:R_Small R2
U 1 1 5CBEB6D3
P 9450 8850
F 0 "R2" V 9254 8850 50  0000 C CNN
F 1 "10k" V 9345 8850 50  0000 C CNN
F 2 "" H 9450 8850 50  0001 C CNN
F 3 "~" H 9450 8850 50  0001 C CNN
	1    9450 8850
	-1   0    0    1   
$EndComp
$Comp
L Device:R_Small R3
U 1 1 5CBECAA2
P 9450 9550
F 0 "R3" V 9254 9550 50  0000 C CNN
F 1 "10k" V 9345 9550 50  0000 C CNN
F 2 "" H 9450 9550 50  0001 C CNN
F 3 "~" H 9450 9550 50  0001 C CNN
	1    9450 9550
	-1   0    0    1   
$EndComp
$Comp
L power:GND #PWR024
U 1 1 5CBECD9F
P 9450 9000
F 0 "#PWR024" H 9450 8750 50  0001 C CNN
F 1 "GND" H 9455 8827 50  0000 C CNN
F 2 "" H 9450 9000 50  0001 C CNN
F 3 "" H 9450 9000 50  0001 C CNN
	1    9450 9000
	1    0    0    -1  
$EndComp
$Comp
L power:GND #PWR025
U 1 1 5CBED0BA
P 9450 9700
F 0 "#PWR025" H 9450 9450 50  0001 C CNN
F 1 "GND" H 9455 9527 50  0000 C CNN
F 2 "" H 9450 9700 50  0001 C CNN
F 3 "" H 9450 9700 50  0001 C CNN
	1    9450 9700
	1    0    0    -1  
$EndComp
Wire Wire Line
	9450 8750 9450 8700
Connection ~ 9450 8700
Wire Wire Line
	9450 8700 9400 8700
Wire Wire Line
	9450 8950 9450 9000
Wire Wire Line
	9450 9450 9450 9400
Connection ~ 9450 9400
Wire Wire Line
	9450 9400 9400 9400
Wire Wire Line
	9450 9650 9450 9700
Text GLabel 11000 2150 0    50   Input ~ 0
~CS
Text GLabel 11000 8150 0    50   Input ~ 0
~CS_RTC
Wire Wire Line
	11250 8150 11000 8150
Text GLabel 11000 7650 0    50   Input ~ 0
A0
Wire Wire Line
	11250 7650 11000 7650
Text GLabel 13750 3450 0    50   Output ~ 0
PHI2
Text GLabel 11000 7800 0    50   Input ~ 0
PHI2
Wire Wire Line
	11250 7800 11000 7800
Wire Wire Line
	12950 8200 13150 8200
Text GLabel 13150 8200 2    50   Output ~ 0
~ALE
Text GLabel 6000 1100 0    50   Input ~ 0
~ALE
Wire Wire Line
	4250 2200 4500 2200
Wire Wire Line
	4500 2200 4500 1800
Connection ~ 4500 1800
Wire Wire Line
	4500 1800 5150 1800
$Comp
L power:+5V #PWR021
U 1 1 5CCC459B
P 7450 3350
F 0 "#PWR021" H 7450 3200 50  0001 C CNN
F 1 "+5V" H 7465 3523 50  0000 C CNN
F 2 "" H 7450 3350 50  0001 C CNN
F 3 "" H 7450 3350 50  0001 C CNN
	1    7450 3350
	1    0    0    -1  
$EndComp
$Comp
L Device:C_Small C10
U 1 1 5CCC45A1
P 9050 3450
F 0 "C10" H 9142 3496 50  0000 L CNN
F 1 "100nF" H 9142 3405 50  0000 L CNN
F 2 "" H 9050 3450 50  0001 C CNN
F 3 "~" H 9050 3450 50  0001 C CNN
	1    9050 3450
	1    0    0    -1  
$EndComp
$Comp
L power:GND #PWR023
U 1 1 5CCC45A7
P 7650 4650
F 0 "#PWR023" H 7650 4400 50  0001 C CNN
F 1 "GND" H 7655 4477 50  0000 C CNN
F 2 "" H 7650 4650 50  0001 C CNN
F 3 "" H 7650 4650 50  0001 C CNN
	1    7650 4650
	1    0    0    -1  
$EndComp
Wire Wire Line
	7650 3350 7450 3350
Wire Wire Line
	7650 4650 7650 4600
Wire Wire Line
	9050 4600 9050 3550
Connection ~ 7650 4600
$Comp
L 65xx-SOUND-rescue:74HCT139-65xx-Computer U7
U 1 1 5CCC45B7
P 8100 4050
F 0 "U7" H 8100 4616 50  0000 C CNN
F 1 "74HCT139" H 8100 4525 50  0000 C CNN
F 2 "" H 8100 4050 50  0001 C CNN
F 3 "" H 8100 4050 50  0001 C CNN
	1    8100 4050
	1    0    0    -1  
$EndComp
Wire Wire Line
	7650 3350 7650 3650
Wire Wire Line
	7650 3350 9050 3350
Connection ~ 7650 3350
Wire Wire Line
	7650 4600 9050 4600
Wire Wire Line
	7650 4550 7650 4600
Wire Wire Line
	7650 4450 7650 4600
$Comp
L 65xx-SOUND-rescue:74HCT139-65xx-Computer U7
U 2 1 5CCC45B1
P 8150 5400
F 0 "U7" H 8150 5966 50  0000 C CNN
F 1 "74HCT139" H 8150 5875 50  0000 C CNN
F 2 "" H 8150 5400 50  0001 C CNN
F 3 "" H 8150 5400 50  0001 C CNN
	2    8150 5400
	1    0    0    -1  
$EndComp
Text GLabel 9250 3750 2    50   Output ~ 0
~WR
Wire Wire Line
	8950 3750 9250 3750
Text GLabel 7000 3800 0    50   Input ~ 0
A0
Text GLabel 7050 3950 0    50   Input ~ 0
R_~W
Text GLabel 7050 4300 0    50   Input ~ 0
~CS_RTC
Wire Wire Line
	7250 3800 7000 3800
Wire Wire Line
	7050 3950 7250 3950
Wire Wire Line
	7250 4300 7050 4300
Wire Bus Line
	2450 7650 2450 8050
Wire Bus Line
	4950 7350 4950 8050
Wire Bus Line
	2200 2000 2200 2800
Wire Bus Line
	11350 2350 11350 3250
$EndSCHEMATC
