EESchema Schematic File Version 4
EELAYER 30 0
EELAYER END
$Descr A3 16535 11693
encoding utf-8
Sheet 1 1
Title "Oak65c02 V9958 Board"
Date "2019-12-29"
Rev "001"
Comp "Uwe Gottschling"
Comment1 ""
Comment2 ""
Comment3 ""
Comment4 ""
$EndDescr
$Comp
L 65XX-V9958-rescue:C64AC_DIN41612_BUS-65xx-Computer X1
U 1 1 5CB7473C
P 14600 5400
F 0 "X1" H 15069 5446 50  0000 L CNN
F 1 "C64AC_DIN41612_BUS" H 15069 5355 50  0000 L CNN
F 2 "" H 14500 5400 50  0001 C CNN
F 3 "" H 14500 5400 50  0001 C CNN
	1    14600 5400
	1    0    0    -1  
$EndComp
$Comp
L 65XX-V9958-rescue:AD724-65xx-Computer U5
U 1 1 5CB7938C
P 4200 2600
F 0 "U5" H 4200 3175 50  0000 C CNN
F 1 "AD724" H 4200 3084 50  0000 C CNN
F 2 "" H 4200 2300 50  0001 C CNN
F 3 "" H 4200 2300 50  0001 C CNN
	1    4200 2600
	1    0    0    -1  
$EndComp
$Comp
L 65XX-V9958-rescue:D41464C-12-65xx-Computer U1
U 1 1 5CB79EC6
P 2200 4950
F 0 "U1" H 2150 5600 50  0000 C CNN
F 1 "D41464C-12" H 1950 5500 50  0000 C CNN
F 2 "" H 2200 4650 50  0001 C CNN
F 3 "" H 2200 4650 50  0001 C CNN
	1    2200 4950
	1    0    0    -1  
$EndComp
$Comp
L 65XX-V9958-rescue:D41464C-12-65xx-Computer U3
U 1 1 5CB7B943
P 2200 8300
F 0 "U3" H 2100 8950 50  0000 C CNN
F 1 "D41464C-12" H 1950 8850 50  0000 C CNN
F 2 "" H 2200 8000 50  0001 C CNN
F 3 "" H 2200 8000 50  0001 C CNN
	1    2200 8300
	1    0    0    -1  
$EndComp
$Comp
L 65XX-V9958-rescue:D41464C-12-65xx-Computer U4
U 1 1 5CB7C36C
P 2200 10000
F 0 "U4" H 2100 10650 50  0000 C CNN
F 1 "D41464C-12" H 1900 10550 50  0000 C CNN
F 2 "" H 2200 9700 50  0001 C CNN
F 3 "" H 2200 9700 50  0001 C CNN
	1    2200 10000
	1    0    0    -1  
$EndComp
$Comp
L 65XX-V9958-rescue:74HCT245-65xx-Computer U10
U 1 1 5CB7C7DB
P 12250 2700
F 0 "U10" H 12100 3550 50  0000 C CNN
F 1 "74HCT245" H 12100 3450 50  0000 C CNN
F 2 "" H 12250 2700 60  0001 C CNN
F 3 "" H 12250 2700 60  0001 C CNN
	1    12250 2700
	1    0    0    -1  
$EndComp
$Comp
L 65XX-V9958-rescue:74HCT138-65xx-Computer U8
U 1 1 5CB7DD65
P 11900 4550
F 0 "U8" H 12000 5050 50  0000 C CNN
F 1 "74HCT138" H 12150 4950 50  0000 C CNN
F 2 "" H 11900 4550 60  0001 C CNN
F 3 "" H 11900 4550 60  0001 C CNN
	1    11900 4550
	1    0    0    -1  
$EndComp
$Comp
L 65XX-V9958-rescue:74HCT138-65xx-Computer U9
U 1 1 5CB7F826
P 11900 6250
F 0 "U9" H 12000 6700 50  0000 C CNN
F 1 "74HCT138" H 12150 6600 50  0000 C CNN
F 2 "" H 11900 6250 60  0001 C CNN
F 3 "" H 11900 6250 60  0001 C CNN
	1    11900 6250
	1    0    0    -1  
$EndComp
$Comp
L 65XX-V9958-rescue:Crystal_oscillator-65xx-Computer U6
U 1 1 5CB8009F
P 6350 1500
F 0 "U6" H 6350 1888 60  0000 C CNN
F 1 "4.433619MHz" H 6350 1782 60  0000 C CNN
F 2 "" H 6300 1500 60  0001 C CNN
F 3 "" H 6300 1500 60  0001 C CNN
	1    6350 1500
	1    0    0    -1  
$EndComp
$Comp
L 65XX-V9958-rescue:Crystal-65xx-Computer Y1
U 1 1 5CB80C95
P 9600 3400
F 0 "Y1" H 9600 3668 50  0000 C CNN
F 1 "21.47727MHz" H 9600 3577 50  0000 C CNN
F 2 "" H 9600 3400 50  0001 C CNN
F 3 "" H 9600 3400 50  0001 C CNN
	1    9600 3400
	0    1    1    0   
$EndComp
$Comp
L 65XX-V9958-rescue:Conn_Coaxial-65xx-Computer J2
U 1 1 5CB81834
P 3600 1250
F 0 "J2" H 3700 1225 50  0000 L CNN
F 1 "CINCH" H 3700 1134 50  0000 L CNN
F 2 "" H 3600 1250 50  0001 C CNN
F 3 "" H 3600 1250 50  0001 C CNN
	1    3600 1250
	-1   0    0    1   
$EndComp
$Comp
L 65XX-V9958-rescue:Mini-DIN-4-65xx-Computer J1
U 1 1 5CB8CD8A
P 1450 2750
F 0 "J1" H 1450 3117 50  0000 C CNN
F 1 "Mini-DIN-4" H 1450 3026 50  0000 C CNN
F 2 "" H 1450 2750 50  0001 C CNN
F 3 "http://service.powerdynamics.com/ec/Catalog17/Section%2011.pdf" H 1450 2750 50  0001 C CNN
	1    1450 2750
	1    0    0    -1  
$EndComp
$Comp
L power:+5V #PWR0101
U 1 1 5CBBFCFC
P 13700 2050
F 0 "#PWR0101" H 13700 1900 50  0001 C CNN
F 1 "+5V" H 13715 2223 50  0000 C CNN
F 2 "" H 13700 2050 50  0001 C CNN
F 3 "" H 13700 2050 50  0001 C CNN
	1    13700 2050
	1    0    0    -1  
$EndComp
$Comp
L power:GND #PWR0102
U 1 1 5CBC059D
P 13550 8800
F 0 "#PWR0102" H 13550 8550 50  0001 C CNN
F 1 "GND" H 13555 8627 50  0000 C CNN
F 2 "" H 13550 8800 50  0001 C CNN
F 3 "" H 13550 8800 50  0001 C CNN
	1    13550 8800
	1    0    0    -1  
$EndComp
Wire Wire Line
	14000 8450 13550 8450
Wire Wire Line
	13550 8450 13550 8550
Wire Wire Line
	14000 8550 13550 8550
Connection ~ 13550 8550
Wire Wire Line
	13550 8550 13550 8800
Wire Wire Line
	14000 2350 13700 2350
Wire Wire Line
	13700 2350 13700 2250
Wire Wire Line
	14000 2250 13700 2250
Connection ~ 13700 2250
Wire Wire Line
	13700 2250 13700 2050
Wire Wire Line
	8900 3400 9200 3400
Wire Wire Line
	9200 3400 9200 3100
Wire Wire Line
	9200 3100 9600 3100
Wire Wire Line
	9600 3100 9600 3250
Wire Wire Line
	9600 3550 9600 3700
Wire Wire Line
	9600 3700 9200 3700
Wire Wire Line
	9200 3700 9200 3500
Wire Wire Line
	9200 3500 8900 3500
Wire Wire Line
	12450 4850 12800 4850
Wire Wire Line
	11050 2150 11700 2150
Text GLabel 12800 4850 2    50   Input ~ 0
~CS
Text GLabel 11150 6600 0    50   Input ~ 0
~CS
Wire Wire Line
	11350 6600 11150 6600
Text GLabel 13650 3250 0    50   Output ~ 0
R_~W
Text GLabel 11050 2300 0    50   Input ~ 0
R_~W
Text GLabel 11050 2150 0    50   Input ~ 0
~CS
Wire Wire Line
	11050 2300 11700 2300
Text GLabel 10950 6500 0    50   Input ~ 0
R_~W
Wire Wire Line
	11350 6500 10950 6500
Text GLabel 13650 3450 0    50   Output ~ 0
PHI2
Wire Wire Line
	11350 6700 10950 6700
Text GLabel 10950 6700 0    50   Input ~ 0
PHI2
$Comp
L power:+5V #PWR0103
U 1 1 5CBCF8D2
P 11100 5700
F 0 "#PWR0103" H 11100 5550 50  0001 C CNN
F 1 "+5V" H 11115 5873 50  0000 C CNN
F 2 "" H 11100 5700 50  0001 C CNN
F 3 "" H 11100 5700 50  0001 C CNN
	1    11100 5700
	1    0    0    -1  
$EndComp
Wire Wire Line
	11350 6050 11100 6050
Wire Wire Line
	11100 6050 11100 5700
Wire Wire Line
	11350 6150 11100 6150
Wire Wire Line
	11100 6150 11100 6050
Connection ~ 11100 6050
Wire Wire Line
	11350 6250 11100 6250
Wire Wire Line
	11100 6250 11100 6150
Connection ~ 11100 6150
Text GLabel 12850 6650 2    50   Output ~ 0
~CSR
Text GLabel 13100 6550 2    50   Output ~ 0
~CSW
Wire Wire Line
	12850 6650 12450 6650
Wire Wire Line
	12450 6550 13100 6550
Wire Wire Line
	7500 6400 7150 6400
Text GLabel 7150 6400 0    50   Input ~ 0
~CSR
Text GLabel 6850 6300 0    50   Input ~ 0
~CSW
Wire Wire Line
	6850 6300 7500 6300
Wire Bus Line
	9200 6900 9300 6900
Text GLabel 9300 6900 2    50   BiDi ~ 0
DATABUS
Entry Wire Line
	9100 5800 9200 5900
Entry Wire Line
	9100 5900 9200 6000
Entry Wire Line
	9100 6000 9200 6100
Entry Wire Line
	9100 6100 9200 6200
Entry Wire Line
	9100 6200 9200 6300
Entry Wire Line
	9100 6300 9200 6400
Entry Wire Line
	9100 6400 9200 6500
Entry Wire Line
	9100 6750 9200 6850
Wire Wire Line
	9100 5800 8900 5800
Wire Wire Line
	9100 5900 8900 5900
Wire Wire Line
	9100 6000 8900 6000
Wire Wire Line
	9100 6100 8900 6100
Wire Wire Line
	9100 6200 8900 6200
Wire Wire Line
	9100 6300 8900 6300
Wire Wire Line
	9100 6400 8900 6400
Wire Wire Line
	9100 6750 7250 6750
Wire Wire Line
	7250 6750 7250 6500
Wire Wire Line
	7250 6500 7500 6500
Text Label 8950 5800 0    50   ~ 0
D0
Text Label 8950 5900 0    50   ~ 0
D1
Text Label 8950 6000 0    50   ~ 0
D2
Text Label 8950 6100 0    50   ~ 0
D3
Text Label 8950 6200 0    50   ~ 0
D4
Text Label 8950 6300 0    50   ~ 0
D5
Text Label 8950 6400 0    50   ~ 0
D6
Text Label 7350 6500 0    50   ~ 0
D7
Wire Bus Line
	11350 3250 11250 3250
Text GLabel 11250 3250 0    50   Output ~ 0
DATABUS
Entry Wire Line
	11350 2350 11450 2450
Entry Wire Line
	11350 2450 11450 2550
Entry Wire Line
	11350 2550 11450 2650
Entry Wire Line
	11350 2650 11450 2750
Entry Wire Line
	11350 2750 11450 2850
Entry Wire Line
	11350 2850 11450 2950
Entry Wire Line
	11350 2950 11450 3050
Entry Wire Line
	11350 3050 11450 3150
Wire Wire Line
	11700 2450 11450 2450
Wire Wire Line
	11700 2550 11450 2550
Wire Wire Line
	11700 2650 11450 2650
Wire Wire Line
	11700 2750 11450 2750
Wire Wire Line
	11700 2850 11450 2850
Wire Wire Line
	11700 2950 11450 2950
Wire Wire Line
	11700 3050 11450 3050
Wire Wire Line
	11700 3150 11450 3150
Text Label 11500 3150 0    50   ~ 0
D7
Text Label 11500 3050 0    50   ~ 0
D6
Text Label 11500 2950 0    50   ~ 0
D5
Text Label 11500 2850 0    50   ~ 0
D4
Text Label 11500 2750 0    50   ~ 0
D3
Text Label 11500 2650 0    50   ~ 0
D2
Text Label 11500 2550 0    50   ~ 0
D1
Text Label 11500 2450 0    50   ~ 0
D0
$Comp
L Device:R_Small R7
U 1 1 5CC0EA93
P 6400 5900
F 0 "R7" H 6459 5946 50  0000 L CNN
F 1 "470" H 6459 5855 50  0000 L CNN
F 2 "" H 6400 5900 50  0001 C CNN
F 3 "~" H 6400 5900 50  0001 C CNN
	1    6400 5900
	1    0    0    -1  
$EndComp
$Comp
L Device:R_Small R6
U 1 1 5CC0FB5B
P 5900 5900
F 0 "R6" H 5959 5946 50  0000 L CNN
F 1 "470" H 5959 5855 50  0000 L CNN
F 2 "" H 5900 5900 50  0001 C CNN
F 3 "~" H 5900 5900 50  0001 C CNN
	1    5900 5900
	1    0    0    -1  
$EndComp
$Comp
L Device:R_Small R4
U 1 1 5CC101AE
P 5450 5900
F 0 "R4" H 5509 5946 50  0000 L CNN
F 1 "470" H 5509 5855 50  0000 L CNN
F 2 "" H 5450 5900 50  0001 C CNN
F 3 "~" H 5450 5900 50  0001 C CNN
	1    5450 5900
	1    0    0    -1  
$EndComp
$Comp
L power:GND #PWR0104
U 1 1 5CC133A4
P 5450 6250
F 0 "#PWR0104" H 5450 6000 50  0001 C CNN
F 1 "GND" H 5455 6077 50  0000 C CNN
F 2 "" H 5450 6250 50  0001 C CNN
F 3 "" H 5450 6250 50  0001 C CNN
	1    5450 6250
	1    0    0    -1  
$EndComp
Wire Wire Line
	5450 6250 5450 6050
Wire Wire Line
	5450 6050 5900 6050
Wire Wire Line
	5900 6050 5900 6000
Connection ~ 5450 6050
Wire Wire Line
	5450 6050 5450 6000
Wire Wire Line
	6400 6050 6400 6000
Connection ~ 5900 6050
Wire Wire Line
	5900 5600 5900 5800
Wire Wire Line
	5450 5500 5450 5800
$Comp
L 65XX-V9958-rescue:V9958-65xx-Computer U7
U 1 1 5CB7723C
P 8200 4900
F 0 "U7" H 8200 6687 60  0000 C CNN
F 1 "V9958" H 8200 6581 60  0000 C CNN
F 2 "" H 8200 5850 60  0000 C CNN
F 3 "" H 8200 5850 60  0000 C CNN
	1    8200 4900
	1    0    0    -1  
$EndComp
$Comp
L Device:C_Small C16
U 1 1 5CC2F776
P 5900 5300
F 0 "C16" H 5992 5346 50  0000 L CNN
F 1 "100nF" H 5992 5255 50  0000 L CNN
F 2 "" H 5900 5300 50  0001 C CNN
F 3 "~" H 5900 5300 50  0001 C CNN
	1    5900 5300
	1    0    0    -1  
$EndComp
$Comp
L Device:C_Small C11
U 1 1 5CC2FC84
P 5450 5300
F 0 "C11" H 5542 5346 50  0000 L CNN
F 1 "100nF" H 5542 5255 50  0000 L CNN
F 2 "" H 5450 5300 50  0001 C CNN
F 3 "~" H 5450 5300 50  0001 C CNN
	1    5450 5300
	1    0    0    -1  
$EndComp
$Comp
L Device:C_Small C19
U 1 1 5CC2FE0E
P 6400 5300
F 0 "C19" H 6492 5346 50  0000 L CNN
F 1 "100nF" H 6492 5255 50  0000 L CNN
F 2 "" H 6400 5300 50  0001 C CNN
F 3 "~" H 6400 5300 50  0001 C CNN
	1    6400 5300
	1    0    0    -1  
$EndComp
Wire Wire Line
	5900 6050 6400 6050
Wire Wire Line
	6400 5800 6400 5700
Wire Wire Line
	5900 5600 5900 5400
Connection ~ 5900 5600
Wire Wire Line
	5450 5400 5450 5500
Connection ~ 5450 5500
Wire Wire Line
	5900 5600 7500 5600
Wire Wire Line
	5450 5500 7500 5500
Wire Wire Line
	6400 5700 7500 5700
Connection ~ 6400 5700
Wire Wire Line
	6400 5700 6400 5400
Wire Wire Line
	5450 5200 5450 5050
Wire Wire Line
	5900 5200 5900 5050
Wire Wire Line
	6400 5200 6400 5050
Text GLabel 5450 5050 1    50   Output ~ 0
GREEN
Text GLabel 5900 5050 1    50   Output ~ 0
RED
Text GLabel 6400 5050 1    50   Output ~ 0
BLUE
Text GLabel 3250 2800 0    50   Input ~ 0
GREEN
Text GLabel 3250 2900 0    50   Input ~ 0
RED
Text GLabel 3250 3000 0    50   Input ~ 0
BLUE
Wire Wire Line
	3250 2800 3600 2800
Wire Wire Line
	3250 2900 3600 2900
Wire Wire Line
	3250 3000 3600 3000
$Comp
L Device:C_Small C10
U 1 1 5CC71273
P 5350 2550
F 0 "C10" H 5442 2596 50  0000 L CNN
F 1 "100nF" H 5442 2505 50  0000 L CNN
F 2 "" H 5350 2550 50  0001 C CNN
F 3 "~" H 5350 2550 50  0001 C CNN
	1    5350 2550
	1    0    0    -1  
$EndComp
$Comp
L Device:C_Small C6
U 1 1 5CC71D44
P 2950 2200
F 0 "C6" H 3042 2246 50  0000 L CNN
F 1 "100nF" H 3042 2155 50  0000 L CNN
F 2 "" H 2950 2200 50  0001 C CNN
F 3 "~" H 2950 2200 50  0001 C CNN
	1    2950 2200
	1    0    0    -1  
$EndComp
$Comp
L Device:Ferrite_Bead_Small FB1
U 1 1 5CC72743
P 2500 2600
F 0 "FB1" V 2263 2600 50  0000 C CNN
F 1 "Ferrite_Bead_Small" V 2354 2600 50  0000 C CNN
F 2 "" V 2430 2600 50  0001 C CNN
F 3 "~" H 2500 2600 50  0001 C CNN
	1    2500 2600
	0    1    1    0   
$EndComp
$Comp
L power:GND #PWR0105
U 1 1 5CC7A202
P 2200 2900
F 0 "#PWR0105" H 2200 2650 50  0001 C CNN
F 1 "GND" H 2205 2727 50  0000 C CNN
F 2 "" H 2200 2900 50  0001 C CNN
F 3 "" H 2200 2900 50  0001 C CNN
	1    2200 2900
	1    0    0    -1  
$EndComp
Wire Wire Line
	2400 2600 2200 2600
Wire Wire Line
	2200 2600 2200 2900
$Comp
L power:+5V #PWR0106
U 1 1 5CC8BB37
P 2950 1850
F 0 "#PWR0106" H 2950 1700 50  0001 C CNN
F 1 "+5V" H 2965 2023 50  0000 C CNN
F 2 "" H 2950 1850 50  0001 C CNN
F 3 "" H 2950 1850 50  0001 C CNN
	1    2950 1850
	1    0    0    -1  
$EndComp
Wire Wire Line
	2950 1850 2950 2000
Wire Wire Line
	4800 2500 5100 2500
Wire Wire Line
	5100 2500 5100 2400
Wire Wire Line
	5100 2400 5350 2400
Wire Wire Line
	5350 2400 5350 2450
Wire Wire Line
	4800 2600 5100 2600
Wire Wire Line
	5100 2600 5100 2700
Wire Wire Line
	5100 2700 5350 2700
Wire Wire Line
	5350 2700 5350 2650
$Comp
L power:+5V #PWR0107
U 1 1 5CC9ADC2
P 5350 2000
F 0 "#PWR0107" H 5350 1850 50  0001 C CNN
F 1 "+5V" H 5365 2173 50  0000 C CNN
F 2 "" H 5350 2000 50  0001 C CNN
F 3 "" H 5350 2000 50  0001 C CNN
	1    5350 2000
	1    0    0    -1  
$EndComp
$Comp
L power:GND #PWR0108
U 1 1 5CC9B582
P 5350 3200
F 0 "#PWR0108" H 5350 2950 50  0001 C CNN
F 1 "GND" H 5355 3027 50  0000 C CNN
F 2 "" H 5350 3200 50  0001 C CNN
F 3 "" H 5350 3200 50  0001 C CNN
	1    5350 3200
	1    0    0    -1  
$EndComp
Wire Wire Line
	5350 2700 5350 2800
Connection ~ 5350 2700
Wire Wire Line
	5350 2400 5350 2200
Connection ~ 5350 2400
$Comp
L Device:CP_Small C15
U 1 1 5CCAC47A
P 5800 2550
F 0 "C15" H 5888 2596 50  0000 L CNN
F 1 "100µF / 10V" H 5888 2505 50  0000 L CNN
F 2 "" H 5800 2550 50  0001 C CNN
F 3 "~" H 5800 2550 50  0001 C CNN
	1    5800 2550
	1    0    0    -1  
$EndComp
Wire Wire Line
	5800 2450 5800 2400
Wire Wire Line
	5350 2400 5800 2400
Wire Wire Line
	5350 2700 5800 2700
Wire Wire Line
	5800 2700 5800 2650
$Comp
L Device:CP_Small C9
U 1 1 5CCB87C8
P 4300 1250
F 0 "C9" V 4525 1250 50  0000 C CNN
F 1 "220µF/25V" V 4434 1250 50  0000 C CNN
F 2 "" H 4300 1250 50  0001 C CNN
F 3 "~" H 4300 1250 50  0001 C CNN
	1    4300 1250
	0    -1   -1   0   
$EndComp
$Comp
L Device:R_Small R3
U 1 1 5CCBA962
P 3950 1250
F 0 "R3" V 3754 1250 50  0000 C CNN
F 1 "75" V 3845 1250 50  0000 C CNN
F 2 "" H 3950 1250 50  0001 C CNN
F 3 "~" H 3950 1250 50  0001 C CNN
	1    3950 1250
	0    1    1    0   
$EndComp
Wire Wire Line
	3750 1250 3850 1250
Wire Wire Line
	4050 1250 4200 1250
Wire Wire Line
	4400 1250 5000 1250
Wire Wire Line
	5000 1250 5000 2900
$Comp
L Device:CP_Small C7
U 1 1 5CCD8A52
P 4200 3550
F 0 "C7" V 4425 3550 50  0000 C CNN
F 1 "220µF/25V" V 4334 3550 50  0000 C CNN
F 2 "" H 4200 3550 50  0001 C CNN
F 3 "~" H 4200 3550 50  0001 C CNN
	1    4200 3550
	0    -1   -1   0   
$EndComp
$Comp
L Device:CP_Small C8
U 1 1 5CCD9342
P 4200 3900
F 0 "C8" V 4425 3900 50  0000 C CNN
F 1 "220µF/25V" V 4334 3900 50  0000 C CNN
F 2 "" H 4200 3900 50  0001 C CNN
F 3 "~" H 4200 3900 50  0001 C CNN
	1    4200 3900
	0    -1   -1   0   
$EndComp
$Comp
L Device:R_Small R1
U 1 1 5CCE36CB
P 3800 3550
F 0 "R1" V 3604 3550 50  0000 C CNN
F 1 "75" V 3695 3550 50  0000 C CNN
F 2 "" H 3800 3550 50  0001 C CNN
F 3 "~" H 3800 3550 50  0001 C CNN
	1    3800 3550
	0    1    1    0   
$EndComp
$Comp
L Device:R_Small R2
U 1 1 5CCE3BBF
P 3800 3900
F 0 "R2" V 3604 3900 50  0000 C CNN
F 1 "75" V 3695 3900 50  0000 C CNN
F 2 "" H 3800 3900 50  0001 C CNN
F 3 "~" H 3800 3900 50  0001 C CNN
	1    3800 3900
	0    1    1    0   
$EndComp
Wire Wire Line
	4800 3000 4900 3000
Wire Wire Line
	4900 3550 4300 3550
Wire Wire Line
	4100 3550 3900 3550
Wire Wire Line
	3900 3900 4100 3900
Wire Wire Line
	4300 3900 4950 3900
Wire Wire Line
	4950 2800 4800 2800
$Comp
L Device:CP_Small C1
U 1 1 5CCFE724
P 2050 2200
F 0 "C1" H 2138 2246 50  0000 L CNN
F 1 "100µF / 10V" H 2138 2155 50  0000 L CNN
F 2 "" H 2050 2200 50  0001 C CNN
F 3 "~" H 2050 2200 50  0001 C CNN
	1    2050 2200
	1    0    0    -1  
$EndComp
Wire Wire Line
	2950 2000 2050 2000
Wire Wire Line
	2050 2000 2050 2100
Connection ~ 2950 2000
Wire Wire Line
	2950 2000 2950 2100
Wire Wire Line
	2200 2600 2050 2600
Wire Wire Line
	2050 2600 2050 2300
Connection ~ 2200 2600
$Comp
L power:GND #PWR0109
U 1 1 5CD152DA
P 1450 3300
F 0 "#PWR0109" H 1450 3050 50  0001 C CNN
F 1 "GND" H 1455 3127 50  0000 C CNN
F 2 "" H 1450 3300 50  0001 C CNN
F 3 "" H 1450 3300 50  0001 C CNN
	1    1450 3300
	1    0    0    -1  
$EndComp
Wire Wire Line
	1150 2750 1050 2750
Wire Wire Line
	1050 2750 1050 3100
Wire Wire Line
	1050 3100 1450 3100
Wire Wire Line
	1450 3100 1450 3300
Wire Wire Line
	1750 2750 1850 2750
Wire Wire Line
	1850 2750 1850 3100
Wire Wire Line
	1850 3100 1450 3100
Connection ~ 1450 3100
Wire Wire Line
	3700 3900 1900 3900
Wire Wire Line
	1900 2650 1750 2650
Wire Wire Line
	1150 2650 1000 2650
Wire Wire Line
	1000 2650 1000 3550
Entry Wire Line
	1000 4450 1100 4550
Entry Wire Line
	1000 4550 1100 4650
Entry Wire Line
	1000 4650 1100 4750
Entry Wire Line
	1000 4750 1100 4850
Entry Wire Line
	1000 4850 1100 4950
Entry Wire Line
	1000 4950 1100 5050
Entry Wire Line
	1000 5050 1100 5150
Entry Wire Line
	1000 5150 1100 5250
Text Label 1200 5250 0    50   ~ 0
AD7
Text Label 1200 5150 0    50   ~ 0
AD6
Text Label 1200 5050 0    50   ~ 0
AD5
Text Label 1200 4950 0    50   ~ 0
AD4
Text Label 1200 4850 0    50   ~ 0
AD3
Text Label 1200 4750 0    50   ~ 0
AD2
Text Label 1200 4650 0    50   ~ 0
AD1
Text Label 1200 4550 0    50   ~ 0
AD0
Wire Wire Line
	1100 5250 1600 5250
Wire Wire Line
	1100 5150 1600 5150
Wire Wire Line
	1100 5050 1600 5050
Wire Wire Line
	1100 4950 1600 4950
Wire Wire Line
	1100 4850 1600 4850
Wire Wire Line
	1100 4750 1600 4750
Wire Wire Line
	1100 4650 1600 4650
Wire Wire Line
	1600 4550 1100 4550
Entry Wire Line
	1000 7800 1100 7900
Entry Wire Line
	1000 7900 1100 8000
Entry Wire Line
	1000 8000 1100 8100
Entry Wire Line
	1000 8100 1100 8200
Entry Wire Line
	1000 8200 1100 8300
Entry Wire Line
	1000 8300 1100 8400
Entry Wire Line
	1000 8400 1100 8500
Entry Wire Line
	1000 8500 1100 8600
Wire Wire Line
	1600 7900 1100 7900
Wire Wire Line
	1600 8000 1100 8000
Wire Wire Line
	1600 8100 1100 8100
Wire Wire Line
	1600 8200 1100 8200
Wire Wire Line
	1100 8300 1600 8300
Wire Wire Line
	1600 8400 1100 8400
Wire Wire Line
	1100 8500 1600 8500
Wire Wire Line
	1600 8600 1100 8600
Entry Wire Line
	1000 9500 1100 9600
Entry Wire Line
	1000 9600 1100 9700
Entry Wire Line
	1000 9700 1100 9800
Entry Wire Line
	1000 9800 1100 9900
Entry Wire Line
	1000 9900 1100 10000
Entry Wire Line
	1000 10000 1100 10100
Entry Wire Line
	1000 10100 1100 10200
Entry Wire Line
	1000 10200 1100 10300
Wire Wire Line
	1600 9600 1100 9600
Wire Wire Line
	1100 9700 1600 9700
Wire Wire Line
	1100 9800 1600 9800
Wire Wire Line
	1600 9900 1100 9900
Wire Wire Line
	1100 10000 1600 10000
Wire Wire Line
	1100 10100 1600 10100
Wire Wire Line
	1100 10200 1600 10200
Wire Wire Line
	1100 10300 1600 10300
Text Label 1200 7900 0    50   ~ 0
AD0
Text Label 1200 8000 0    50   ~ 0
AD1
Text Label 1200 8100 0    50   ~ 0
AD2
Text Label 1200 8200 0    50   ~ 0
AD3
Text Label 1200 8300 0    50   ~ 0
AD4
Text Label 1200 8400 0    50   ~ 0
AD5
Text Label 1200 8500 0    50   ~ 0
AD6
Text Label 1200 8600 0    50   ~ 0
AD7
Text Label 1200 9600 0    50   ~ 0
AD0
Text Label 1200 9700 0    50   ~ 0
AD1
Text Label 1200 9800 0    50   ~ 0
AD2
Text Label 1200 9900 0    50   ~ 0
AD3
Text Label 1200 10000 0    50   ~ 0
AD4
Text Label 1200 10100 0    50   ~ 0
AD5
Text Label 1200 10200 0    50   ~ 0
AD6
Text Label 1200 10300 0    50   ~ 0
AD7
Wire Bus Line
	1000 10600 1100 10600
Text GLabel 1100 10600 2    50   Input ~ 0
VRAM_ADDRESS_BUS
Text GLabel 9700 4200 2    50   Output ~ 0
VRAM_ADDRESS_BUS
Entry Wire Line
	9350 4200 9450 4300
Entry Wire Line
	9350 4300 9450 4400
Entry Wire Line
	9350 4400 9450 4500
Entry Wire Line
	9350 4500 9450 4600
Entry Wire Line
	9350 4600 9450 4700
Entry Wire Line
	9350 4700 9450 4800
Entry Wire Line
	9350 4800 9450 4900
Entry Wire Line
	9350 4900 9450 5000
Wire Bus Line
	9450 4200 9700 4200
Wire Wire Line
	9350 4200 8900 4200
Wire Wire Line
	9350 4300 8900 4300
Wire Wire Line
	9350 4400 8900 4400
Wire Wire Line
	9350 4500 8900 4500
Wire Wire Line
	9350 4600 8900 4600
Wire Wire Line
	9350 4700 8900 4700
Wire Wire Line
	9350 4800 8900 4800
Wire Wire Line
	9350 4900 8900 4900
Text Label 9050 4200 0    50   ~ 0
AD7
Text Label 9050 4300 0    50   ~ 0
AD6
Text Label 9050 4400 0    50   ~ 0
AD5
Text Label 9050 4500 0    50   ~ 0
AD4
Text Label 9050 4600 0    50   ~ 0
AD3
Text Label 9050 4700 0    50   ~ 0
AD2
Text Label 9050 4800 0    50   ~ 0
AD1
Text Label 9050 4900 0    50   ~ 0
AD0
Text GLabel 3700 10050 2    50   BiDi ~ 0
DATABUS
Wire Bus Line
	3700 10050 3400 10050
Entry Wire Line
	3300 4550 3400 4650
Entry Wire Line
	3300 4650 3400 4750
Entry Wire Line
	3300 4750 3400 4850
Entry Wire Line
	3300 4850 3400 4950
Entry Wire Line
	3300 7900 3400 8000
Entry Wire Line
	3300 8000 3400 8100
Entry Wire Line
	3300 8100 3400 8200
Entry Wire Line
	3300 8200 3400 8300
Entry Wire Line
	3300 9600 3400 9700
Entry Wire Line
	3300 9700 3400 9800
Entry Wire Line
	3300 9800 3400 9900
Entry Wire Line
	3300 9900 3400 10000
Wire Wire Line
	2800 8000 3300 8000
Wire Wire Line
	2800 8200 3300 8200
Wire Wire Line
	3300 9600 2800 9600
Wire Wire Line
	2800 9700 3300 9700
Wire Wire Line
	3300 9800 2800 9800
Wire Wire Line
	2800 9900 3300 9900
Text Label 3000 4550 0    50   ~ 0
D0
Text Label 3000 4650 0    50   ~ 0
D1
Text Label 3000 4750 0    50   ~ 0
D2
Text Label 3000 4850 0    50   ~ 0
D3
Text Label 3050 7900 0    50   ~ 0
D0
Text Label 3050 8000 0    50   ~ 0
D1
Text Label 3050 8100 0    50   ~ 0
D2
Text Label 3050 8200 0    50   ~ 0
D3
Text Label 3050 9600 0    50   ~ 0
D4
Text Label 3050 9700 0    50   ~ 0
D5
Text Label 3050 9800 0    50   ~ 0
D6
Text Label 3050 9900 0    50   ~ 0
D7
Wire Wire Line
	8900 3600 9150 3600
Wire Wire Line
	9150 3600 9150 3800
Wire Wire Line
	9150 3800 9950 3800
Text GLabel 9950 3800 2    50   Output ~ 0
~RAS
Text GLabel 3550 5050 2    50   Input ~ 0
~RAS
Wire Wire Line
	3550 5050 2950 5050
Connection ~ 2950 5050
Wire Wire Line
	2950 5050 2800 5050
Wire Wire Line
	2800 8400 2950 8400
Wire Wire Line
	2800 10100 2950 10100
Text GLabel 9550 3900 2    50   Output ~ 0
~CAS_0
Text GLabel 10000 4000 2    50   Output ~ 0
~CAS_1
Wire Wire Line
	8900 3700 9100 3700
Wire Wire Line
	9100 3900 9550 3900
Wire Wire Line
	9100 3700 9100 3900
Wire Wire Line
	8900 3800 9050 3800
Wire Wire Line
	9050 3800 9050 4000
Wire Wire Line
	9050 4000 10000 4000
Text GLabel 3800 5150 2    50   Input ~ 0
~CAS_0
Text GLabel 3750 8500 2    50   Input ~ 0
~CAS_1
Wire Wire Line
	3800 5150 3000 5150
Connection ~ 3000 5150
Wire Wire Line
	3000 5150 2800 5150
Wire Wire Line
	3750 8500 3000 8500
Wire Wire Line
	2800 10200 3000 10200
Connection ~ 3000 8500
Wire Wire Line
	3000 8500 2800 8500
Wire Wire Line
	8900 4100 10700 4100
Text GLabel 10700 4100 2    50   Output ~ 0
R_~W
Text GLabel 3550 5250 2    50   Input ~ 0
R_~W
Wire Wire Line
	3550 5250 2900 5250
Connection ~ 2900 5250
Wire Wire Line
	2900 5250 2800 5250
Wire Wire Line
	2900 8600 2800 8600
Wire Wire Line
	2900 10300 2800 10300
$Comp
L power:GND #PWR0110
U 1 1 5D32DE2E
P 2250 10950
F 0 "#PWR0110" H 2250 10700 50  0001 C CNN
F 1 "GND" H 2255 10777 50  0000 C CNN
F 2 "" H 2250 10950 50  0001 C CNN
F 3 "" H 2250 10950 50  0001 C CNN
	1    2250 10950
	1    0    0    -1  
$EndComp
Wire Wire Line
	2250 10950 2250 10750
Wire Wire Line
	2250 10750 2850 10750
Wire Wire Line
	2850 10750 2850 10400
Wire Wire Line
	2850 10400 2800 10400
Connection ~ 2250 10750
Wire Wire Line
	2250 10750 2250 10500
Wire Wire Line
	3300 4650 2800 4650
Wire Wire Line
	3300 7900 2800 7900
Wire Wire Line
	3300 4550 2800 4550
Wire Wire Line
	3300 8100 2800 8100
Wire Wire Line
	2800 6850 3000 6850
Wire Wire Line
	2900 6950 2800 6950
Wire Wire Line
	2800 6750 2950 6750
Text Label 3050 6550 0    50   ~ 0
D7
Text Label 3050 6450 0    50   ~ 0
D6
Text Label 3050 6350 0    50   ~ 0
D5
Text Label 3050 6250 0    50   ~ 0
D4
Wire Wire Line
	2800 6550 3300 6550
Wire Wire Line
	3300 6450 2800 6450
Wire Wire Line
	2800 6350 3300 6350
Wire Wire Line
	3300 6250 2800 6250
Entry Wire Line
	3300 6550 3400 6650
Entry Wire Line
	3300 6450 3400 6550
Entry Wire Line
	3300 6350 3400 6450
Entry Wire Line
	3300 6250 3400 6350
Text Label 1200 6950 0    50   ~ 0
AD7
Text Label 1200 6850 0    50   ~ 0
AD6
Text Label 1200 6750 0    50   ~ 0
AD5
Text Label 1200 6650 0    50   ~ 0
AD4
Text Label 1200 6550 0    50   ~ 0
AD3
Text Label 1200 6450 0    50   ~ 0
AD2
Text Label 1200 6350 0    50   ~ 0
AD1
Text Label 1200 6250 0    50   ~ 0
AD0
Wire Wire Line
	1100 6950 1600 6950
Wire Wire Line
	1100 6850 1600 6850
Wire Wire Line
	1100 6750 1600 6750
Wire Wire Line
	1100 6650 1600 6650
Wire Wire Line
	1100 6550 1600 6550
Wire Wire Line
	1100 6450 1600 6450
Wire Wire Line
	1600 6350 1100 6350
Wire Wire Line
	1600 6250 1100 6250
Entry Wire Line
	1000 6850 1100 6950
Entry Wire Line
	1000 6750 1100 6850
Entry Wire Line
	1000 6650 1100 6750
Entry Wire Line
	1000 6550 1100 6650
Entry Wire Line
	1000 6450 1100 6550
Entry Wire Line
	1000 6350 1100 6450
Entry Wire Line
	1000 6250 1100 6350
Entry Wire Line
	1000 6150 1100 6250
$Comp
L 65XX-V9958-rescue:D41464C-12-65xx-Computer U2
U 1 1 5CB7B486
P 2200 6650
F 0 "U2" H 2150 7300 50  0000 C CNN
F 1 "D41464C-12" H 1950 7200 50  0000 C CNN
F 2 "" H 2200 6350 50  0001 C CNN
F 3 "" H 2200 6350 50  0001 C CNN
	1    2200 6650
	1    0    0    -1  
$EndComp
Wire Wire Line
	3000 5150 3000 6850
Wire Wire Line
	2800 4750 3300 4750
Wire Wire Line
	2800 4850 3300 4850
Wire Wire Line
	2950 5050 2950 6750
Wire Wire Line
	2900 6950 2900 8600
Connection ~ 2900 6950
Wire Wire Line
	2950 6750 2950 8400
Connection ~ 2950 6750
$Comp
L power:GND #PWR0111
U 1 1 5D58B2D6
P 2250 8900
F 0 "#PWR0111" H 2250 8650 50  0001 C CNN
F 1 "GND" H 2255 8727 50  0000 C CNN
F 2 "" H 2250 8900 50  0001 C CNN
F 3 "" H 2250 8900 50  0001 C CNN
	1    2250 8900
	1    0    0    -1  
$EndComp
$Comp
L power:GND #PWR0112
U 1 1 5D58B8B2
P 2250 7300
F 0 "#PWR0112" H 2250 7050 50  0001 C CNN
F 1 "GND" H 2255 7127 50  0000 C CNN
F 2 "" H 2250 7300 50  0001 C CNN
F 3 "" H 2250 7300 50  0001 C CNN
	1    2250 7300
	1    0    0    -1  
$EndComp
$Comp
L power:GND #PWR0113
U 1 1 5D58BBB6
P 2250 5550
F 0 "#PWR0113" H 2250 5300 50  0001 C CNN
F 1 "GND" H 2255 5377 50  0000 C CNN
F 2 "" H 2250 5550 50  0001 C CNN
F 3 "" H 2250 5550 50  0001 C CNN
	1    2250 5550
	1    0    0    -1  
$EndComp
Wire Wire Line
	2250 8900 2250 8850
Wire Wire Line
	2250 7300 2250 7250
Wire Wire Line
	2250 5550 2250 5500
$Comp
L power:+5V #PWR0114
U 1 1 5D5D6D03
P 2250 4250
F 0 "#PWR0114" H 2250 4100 50  0001 C CNN
F 1 "+5V" H 2265 4423 50  0000 C CNN
F 2 "" H 2250 4250 50  0001 C CNN
F 3 "" H 2250 4250 50  0001 C CNN
	1    2250 4250
	1    0    0    -1  
$EndComp
$Comp
L power:+5V #PWR0115
U 1 1 5D5D713F
P 2250 5950
F 0 "#PWR0115" H 2250 5800 50  0001 C CNN
F 1 "+5V" H 2265 6123 50  0000 C CNN
F 2 "" H 2250 5950 50  0001 C CNN
F 3 "" H 2250 5950 50  0001 C CNN
	1    2250 5950
	1    0    0    -1  
$EndComp
Wire Wire Line
	2250 4250 2250 4300
Wire Wire Line
	2250 6150 2250 6000
$Comp
L power:+5V #PWR0116
U 1 1 5D6BBAA2
P 2250 7700
F 0 "#PWR0116" H 2250 7550 50  0001 C CNN
F 1 "+5V" H 2265 7873 50  0000 C CNN
F 2 "" H 2250 7700 50  0001 C CNN
F 3 "" H 2250 7700 50  0001 C CNN
	1    2250 7700
	1    0    0    -1  
$EndComp
Wire Wire Line
	2250 7700 2250 7800
$Comp
L power:+5V #PWR0117
U 1 1 5D6D590E
P 2250 9350
F 0 "#PWR0117" H 2250 9200 50  0001 C CNN
F 1 "+5V" H 2265 9523 50  0000 C CNN
F 2 "" H 2250 9350 50  0001 C CNN
F 3 "" H 2250 9350 50  0001 C CNN
	1    2250 9350
	1    0    0    -1  
$EndComp
Wire Wire Line
	2250 9350 2250 9400
Wire Wire Line
	12800 3150 14000 3150
Wire Wire Line
	12800 3050 14000 3050
Wire Wire Line
	12800 2950 14000 2950
Wire Wire Line
	12800 2850 14000 2850
Wire Wire Line
	12800 2550 14000 2550
Wire Wire Line
	12800 2750 14000 2750
Wire Wire Line
	12800 2450 14000 2450
Wire Wire Line
	12800 2650 14000 2650
Text GLabel 13300 3350 0    50   Output ~ 0
A0
Text GLabel 13300 3550 0    50   Output ~ 0
A1
Wire Wire Line
	14000 3350 13300 3350
Text GLabel 7150 6200 0    50   Input ~ 0
A0
Text GLabel 6850 6100 0    50   Input ~ 0
A1
Wire Wire Line
	7500 6200 7150 6200
Wire Wire Line
	7500 6100 6850 6100
Text GLabel 7050 4200 0    50   Input ~ 0
~RESET
Wire Wire Line
	7500 4200 7050 4200
Text GLabel 13650 4250 0    50   Output ~ 0
~RESET
Wire Wire Line
	13650 4250 14000 4250
Wire Wire Line
	7500 3900 7050 3900
Text GLabel 7050 3900 0    50   Output ~ 0
~CSYNC
Text GLabel 5500 2300 2    50   Input ~ 0
~CSYNC
Wire Wire Line
	5500 2300 4800 2300
Wire Wire Line
	4800 2400 4900 2400
Wire Wire Line
	4900 2400 4900 2200
Wire Wire Line
	4900 2200 5350 2200
Connection ~ 5350 2200
Wire Wire Line
	5350 2200 5350 2000
$Comp
L Device:C_Small C18
U 1 1 5D8367B3
P 6350 1900
F 0 "C18" H 6442 1946 50  0000 L CNN
F 1 "100nF" H 6442 1855 50  0000 L CNN
F 2 "" H 6350 1900 50  0001 C CNN
F 3 "~" H 6350 1900 50  0001 C CNN
	1    6350 1900
	1    0    0    -1  
$EndComp
$Comp
L power:GND #PWR0118
U 1 1 5D836DAD
P 6350 2100
F 0 "#PWR0118" H 6350 1850 50  0001 C CNN
F 1 "GND" H 6355 1927 50  0000 C CNN
F 2 "" H 6350 2100 50  0001 C CNN
F 3 "" H 6350 2100 50  0001 C CNN
	1    6350 2100
	1    0    0    -1  
$EndComp
$Comp
L power:+5V #PWR0119
U 1 1 5D837088
P 7050 1200
F 0 "#PWR0119" H 7050 1050 50  0001 C CNN
F 1 "+5V" H 7065 1373 50  0000 C CNN
F 2 "" H 7050 1200 50  0001 C CNN
F 3 "" H 7050 1200 50  0001 C CNN
	1    7050 1200
	1    0    0    -1  
$EndComp
Wire Wire Line
	6750 1400 7050 1400
Wire Wire Line
	7050 1400 7050 1200
Wire Wire Line
	5950 1600 5850 1600
Wire Wire Line
	5850 1600 5850 2050
Wire Wire Line
	5850 2050 6350 2050
Wire Wire Line
	6350 2050 6350 2100
Wire Wire Line
	6350 2000 6350 2050
Connection ~ 6350 2050
Wire Wire Line
	6350 1800 7050 1800
Wire Wire Line
	7050 1800 7050 1400
Connection ~ 7050 1400
Wire Wire Line
	6750 1600 7200 1600
Wire Wire Line
	3400 2600 3400 2400
Wire Wire Line
	3400 2400 3600 2400
Wire Wire Line
	3600 2600 3500 2600
Wire Wire Line
	3500 2600 3500 2000
Wire Wire Line
	3500 2000 2950 2000
Wire Wire Line
	3600 2500 3300 2500
Wire Wire Line
	3300 2500 3300 1750
Wire Wire Line
	3300 1750 7200 1750
Wire Wire Line
	7200 1750 7200 1600
Wire Wire Line
	3600 2300 3400 2300
Wire Wire Line
	3400 2300 3400 2400
Connection ~ 3400 2400
Wire Wire Line
	3600 2700 3500 2700
Wire Wire Line
	3500 2700 3500 2600
Connection ~ 3500 2600
Wire Wire Line
	4800 2700 5050 2700
Wire Wire Line
	5050 2700 5050 2800
Wire Wire Line
	5050 2800 5350 2800
Connection ~ 5350 2800
Wire Wire Line
	5350 2800 5350 3200
$Comp
L power:GND #PWR0120
U 1 1 5D94E6E9
P 3200 1400
F 0 "#PWR0120" H 3200 1150 50  0001 C CNN
F 1 "GND" H 3205 1227 50  0000 C CNN
F 2 "" H 3200 1400 50  0001 C CNN
F 3 "" H 3200 1400 50  0001 C CNN
	1    3200 1400
	1    0    0    -1  
$EndComp
Wire Wire Line
	3200 1400 3200 950 
Wire Wire Line
	3200 950  3600 950 
Wire Wire Line
	3600 950  3600 1050
$Comp
L Device:C_Small C2
U 1 1 5D96AAFE
P 2550 4300
F 0 "C2" V 2321 4300 50  0000 C CNN
F 1 "100nF" V 2412 4300 50  0000 C CNN
F 2 "" H 2550 4300 50  0001 C CNN
F 3 "~" H 2550 4300 50  0001 C CNN
	1    2550 4300
	0    1    1    0   
$EndComp
$Comp
L Device:C_Small C3
U 1 1 5D96C9FB
P 2550 6000
F 0 "C3" V 2321 6000 50  0000 C CNN
F 1 "100nF" V 2412 6000 50  0000 C CNN
F 2 "" H 2550 6000 50  0001 C CNN
F 3 "~" H 2550 6000 50  0001 C CNN
	1    2550 6000
	0    1    1    0   
$EndComp
$Comp
L Device:C_Small C4
U 1 1 5D96CD37
P 2600 7700
F 0 "C4" V 2371 7700 50  0000 C CNN
F 1 "100nF" V 2462 7700 50  0000 C CNN
F 2 "" H 2600 7700 50  0001 C CNN
F 3 "~" H 2600 7700 50  0001 C CNN
	1    2600 7700
	0    1    1    0   
$EndComp
$Comp
L Device:C_Small C5
U 1 1 5D96D51C
P 2600 9400
F 0 "C5" V 2371 9400 50  0000 C CNN
F 1 "100nF" V 2462 9400 50  0000 C CNN
F 2 "" H 2600 9400 50  0001 C CNN
F 3 "~" H 2600 9400 50  0001 C CNN
	1    2600 9400
	0    1    1    0   
$EndComp
Wire Wire Line
	2450 4300 2250 4300
Connection ~ 2250 4300
Wire Wire Line
	2250 4300 2250 4450
Wire Wire Line
	2450 6000 2250 6000
Connection ~ 2250 6000
Wire Wire Line
	2250 6000 2250 5950
Wire Wire Line
	2500 7700 2250 7700
Connection ~ 2250 7700
Wire Wire Line
	3000 8500 3000 10200
Wire Wire Line
	2950 8400 2950 10100
Connection ~ 2950 8400
Wire Wire Line
	2900 8600 2900 10300
Connection ~ 2900 8600
Connection ~ 2250 5500
Wire Wire Line
	2250 5500 2250 5450
Wire Wire Line
	2250 8850 2850 8850
Wire Wire Line
	2850 8850 2850 8700
Wire Wire Line
	2850 8700 2800 8700
Connection ~ 2250 8850
Wire Wire Line
	2250 8850 2250 8800
Wire Wire Line
	2250 7250 2850 7250
Wire Wire Line
	2850 7250 2850 7050
Wire Wire Line
	2850 7050 2800 7050
Connection ~ 2250 7250
Wire Wire Line
	2250 7250 2250 7150
Wire Wire Line
	2500 9400 2250 9400
Connection ~ 2250 9400
Wire Wire Line
	2250 9400 2250 9500
Wire Wire Line
	2700 9400 2850 9400
Wire Wire Line
	2850 9400 2850 10400
Connection ~ 2850 10400
Wire Wire Line
	2850 7050 2850 6000
Wire Wire Line
	2850 6000 2650 6000
Connection ~ 2850 7050
Wire Wire Line
	2900 5250 2900 6950
Wire Wire Line
	2800 5350 2850 5350
Wire Wire Line
	2850 5350 2850 5500
Wire Wire Line
	2250 5500 2850 5500
Wire Wire Line
	2850 5350 2850 4300
Wire Wire Line
	2850 4300 2650 4300
Connection ~ 2850 5350
Wire Wire Line
	1000 3550 3700 3550
Wire Wire Line
	4900 3000 4900 3550
Wire Wire Line
	4800 2900 5000 2900
Wire Wire Line
	4950 2800 4950 3900
Wire Wire Line
	1900 2650 1900 3900
Wire Wire Line
	13650 3250 14000 3250
Wire Wire Line
	13650 3450 14000 3450
Wire Wire Line
	13300 3550 14000 3550
$Comp
L Device:C_Small C24
U 1 1 5DD2ECE6
P 12150 1600
F 0 "C24" H 12242 1646 50  0000 L CNN
F 1 "100nF" H 12242 1555 50  0000 L CNN
F 2 "" H 12150 1600 50  0001 C CNN
F 3 "~" H 12150 1600 50  0001 C CNN
	1    12150 1600
	0    -1   -1   0   
$EndComp
Text GLabel 13300 4150 0    50   Output ~ 0
A4
Text GLabel 13300 4350 0    50   Output ~ 0
A5
Text GLabel 13300 4550 0    50   Output ~ 0
A6
Wire Wire Line
	14000 4150 13300 4150
Wire Wire Line
	14000 4350 13300 4350
Wire Wire Line
	14000 4550 13300 4550
Text GLabel 11200 4800 0    50   Input ~ 0
A4
Text GLabel 11200 4900 0    50   Input ~ 0
A5
Text GLabel 11200 5000 0    50   Input ~ 0
A6
Wire Wire Line
	11350 4800 11200 4800
Wire Wire Line
	11350 4900 11200 4900
Wire Wire Line
	11350 5000 11200 5000
Text GLabel 13300 4750 0    50   Output ~ 0
A7
Wire Wire Line
	13300 4750 14000 4750
Text GLabel 11200 4450 0    50   Input ~ 0
A7
Wire Wire Line
	11350 4450 11200 4450
Text GLabel 13650 4450 0    50   Input ~ 0
~IORQ
Text GLabel 10950 4350 0    50   Input ~ 0
~IORQ
Wire Wire Line
	13650 4450 14000 4450
$Comp
L power:+5V #PWR0121
U 1 1 5DEB08DA
P 11900 3900
F 0 "#PWR0121" H 11900 3750 50  0001 C CNN
F 1 "+5V" H 11915 4073 50  0000 C CNN
F 2 "" H 11900 3900 50  0001 C CNN
F 3 "" H 11900 3900 50  0001 C CNN
	1    11900 3900
	1    0    0    -1  
$EndComp
Wire Wire Line
	11900 4250 11900 3950
Wire Wire Line
	11350 4550 11300 4550
Wire Wire Line
	11300 4550 11300 3950
Wire Wire Line
	11300 3950 11900 3950
Connection ~ 11900 3950
Wire Wire Line
	11900 3950 11900 3900
$Comp
L Device:C_Small C25
U 1 1 5DEF37B4
P 12550 4100
F 0 "C25" H 12642 4146 50  0000 L CNN
F 1 "100nF" H 12642 4055 50  0000 L CNN
F 2 "" H 12550 4100 50  0001 C CNN
F 3 "~" H 12550 4100 50  0001 C CNN
	1    12550 4100
	1    0    0    -1  
$EndComp
$Comp
L Device:C_Small C26
U 1 1 5DEF3C5D
P 12550 5800
F 0 "C26" H 12642 5846 50  0000 L CNN
F 1 "100nF" H 12642 5755 50  0000 L CNN
F 2 "" H 12550 5800 50  0001 C CNN
F 3 "~" H 12550 5800 50  0001 C CNN
	1    12550 5800
	1    0    0    -1  
$EndComp
$Comp
L power:GND #PWR0122
U 1 1 5DEF3FC7
P 11900 7000
F 0 "#PWR0122" H 11900 6750 50  0001 C CNN
F 1 "GND" H 11905 6827 50  0000 C CNN
F 2 "" H 11900 7000 50  0001 C CNN
F 3 "" H 11900 7000 50  0001 C CNN
	1    11900 7000
	1    0    0    -1  
$EndComp
$Comp
L power:GND #PWR0123
U 1 1 5DEF4303
P 11900 5300
F 0 "#PWR0123" H 11900 5050 50  0001 C CNN
F 1 "GND" H 11905 5127 50  0000 C CNN
F 2 "" H 11900 5300 50  0001 C CNN
F 3 "" H 11900 5300 50  0001 C CNN
	1    11900 5300
	1    0    0    -1  
$EndComp
$Comp
L power:GND #PWR0124
U 1 1 5DEF455B
P 11650 1850
F 0 "#PWR0124" H 11650 1600 50  0001 C CNN
F 1 "GND" H 11655 1677 50  0000 C CNN
F 2 "" H 11650 1850 50  0001 C CNN
F 3 "" H 11650 1850 50  0001 C CNN
	1    11650 1850
	1    0    0    -1  
$EndComp
$Comp
L power:+5V #PWR0125
U 1 1 5DEF51E8
P 12450 1450
F 0 "#PWR0125" H 12450 1300 50  0001 C CNN
F 1 "+5V" H 12465 1623 50  0000 C CNN
F 2 "" H 12450 1450 50  0001 C CNN
F 3 "" H 12450 1450 50  0001 C CNN
	1    12450 1450
	1    0    0    -1  
$EndComp
Wire Wire Line
	12250 1600 12450 1600
Wire Wire Line
	12450 1600 12450 1450
Wire Wire Line
	12450 2050 12450 1600
Connection ~ 12450 1600
Wire Wire Line
	12050 1600 11850 1600
Wire Wire Line
	11650 1600 11650 1850
Wire Wire Line
	12300 2050 12300 1750
Wire Wire Line
	12300 1750 11850 1750
Wire Wire Line
	11850 1750 11850 1600
Connection ~ 11850 1600
Wire Wire Line
	11850 1600 11650 1600
Wire Wire Line
	11900 3950 12550 3950
Wire Wire Line
	12550 3950 12550 4000
Wire Wire Line
	11900 5150 11900 5200
Wire Wire Line
	11900 5200 12550 5200
Wire Wire Line
	12550 5200 12550 4200
Connection ~ 11900 5200
Wire Wire Line
	11900 5200 11900 5300
Wire Wire Line
	12550 5700 11900 5700
Connection ~ 11100 5700
Wire Wire Line
	11900 5950 11900 5700
Connection ~ 11900 5700
Wire Wire Line
	11900 5700 11100 5700
Wire Wire Line
	11900 7000 11900 6950
Wire Wire Line
	11900 6950 12550 6950
Wire Wire Line
	12550 6950 12550 5900
Connection ~ 11900 6950
Wire Wire Line
	11900 6950 11900 6850
$Comp
L Device:C_Small C20
U 1 1 5E16B9BA
P 6900 5300
F 0 "C20" H 6992 5346 50  0000 L CNN
F 1 "100nF" H 6992 5255 50  0000 L CNN
F 2 "" H 6900 5300 50  0001 C CNN
F 3 "~" H 6900 5300 50  0001 C CNN
	1    6900 5300
	1    0    0    -1  
$EndComp
$Comp
L Device:C_Small C21
U 1 1 5E16C857
P 7000 3200
F 0 "C21" H 7092 3246 50  0000 L CNN
F 1 "100nF" H 7092 3155 50  0000 L CNN
F 2 "" H 7000 3200 50  0001 C CNN
F 3 "~" H 7000 3200 50  0001 C CNN
	1    7000 3200
	1    0    0    -1  
$EndComp
$Comp
L power:GND #PWR0126
U 1 1 5E16FF2C
P 6900 5800
F 0 "#PWR0126" H 6900 5550 50  0001 C CNN
F 1 "GND" H 6905 5627 50  0000 C CNN
F 2 "" H 6900 5800 50  0001 C CNN
F 3 "" H 6900 5800 50  0001 C CNN
	1    6900 5800
	1    0    0    -1  
$EndComp
$Comp
L power:+5V #PWR0127
U 1 1 5E170474
P 6900 5050
F 0 "#PWR0127" H 6900 4900 50  0001 C CNN
F 1 "+5V" H 6915 5223 50  0000 C CNN
F 2 "" H 6900 5050 50  0001 C CNN
F 3 "" H 6900 5050 50  0001 C CNN
	1    6900 5050
	1    0    0    -1  
$EndComp
Wire Wire Line
	6900 5200 6900 5100
Wire Wire Line
	6900 5400 6900 5450
Wire Wire Line
	7500 5400 7250 5400
Wire Wire Line
	7250 5400 7250 5100
Wire Wire Line
	7250 5100 6900 5100
Connection ~ 6900 5100
Wire Wire Line
	6900 5100 6900 5050
Wire Wire Line
	7500 5300 7300 5300
Wire Wire Line
	7300 5300 7300 5450
Wire Wire Line
	7300 5450 6900 5450
Connection ~ 6900 5450
Wire Wire Line
	6900 5450 6900 5800
$Comp
L power:+5V #PWR0128
U 1 1 5E20441C
P 7000 2850
F 0 "#PWR0128" H 7000 2700 50  0001 C CNN
F 1 "+5V" H 7015 3023 50  0000 C CNN
F 2 "" H 7000 2850 50  0001 C CNN
F 3 "" H 7000 2850 50  0001 C CNN
	1    7000 2850
	1    0    0    -1  
$EndComp
$Comp
L power:GND #PWR0129
U 1 1 5E20481D
P 7000 3450
F 0 "#PWR0129" H 7000 3200 50  0001 C CNN
F 1 "GND" H 7005 3277 50  0000 C CNN
F 2 "" H 7000 3450 50  0001 C CNN
F 3 "" H 7000 3450 50  0001 C CNN
	1    7000 3450
	1    0    0    -1  
$EndComp
Wire Wire Line
	7000 3100 7000 2950
Wire Wire Line
	7000 3300 7000 3400
Wire Wire Line
	8900 4000 9000 4000
Wire Wire Line
	9000 4000 9000 2950
Wire Wire Line
	7000 2950 7400 2950
Connection ~ 7000 2950
Wire Wire Line
	7000 2950 7000 2850
Wire Wire Line
	7500 3400 7000 3400
Connection ~ 7000 3400
Wire Wire Line
	7000 3400 7000 3450
Wire Wire Line
	7500 3700 7400 3700
Wire Wire Line
	7400 3700 7400 2950
Connection ~ 7400 2950
Wire Wire Line
	7400 2950 9000 2950
$Comp
L Device:C_Small C22
U 1 1 5E33A8F5
P 10000 3100
F 0 "C22" V 9771 3100 50  0000 C CNN
F 1 "27pF" V 9862 3100 50  0000 C CNN
F 2 "" H 10000 3100 50  0001 C CNN
F 3 "~" H 10000 3100 50  0001 C CNN
	1    10000 3100
	0    1    1    0   
$EndComp
$Comp
L power:GND #PWR0130
U 1 1 5E363107
P 10300 3650
F 0 "#PWR0130" H 10300 3400 50  0001 C CNN
F 1 "GND" H 10305 3477 50  0000 C CNN
F 2 "" H 10300 3650 50  0001 C CNN
F 3 "" H 10300 3650 50  0001 C CNN
	1    10300 3650
	1    0    0    -1  
$EndComp
Wire Wire Line
	10100 3600 10300 3600
Wire Wire Line
	10300 3600 10300 3650
Wire Wire Line
	10100 3100 10300 3100
Wire Wire Line
	10300 3100 10300 3600
Wire Wire Line
	9900 3100 9600 3100
Connection ~ 9600 3100
$Comp
L Device:CP_Small C12
U 1 1 5E42E068
P 7900 8950
F 0 "C12" V 8125 8950 50  0000 C CNN
F 1 "220µF/25V" V 8034 8950 50  0000 C CNN
F 2 "" H 7900 8950 50  0001 C CNN
F 3 "~" H 7900 8950 50  0001 C CNN
	1    7900 8950
	0    -1   -1   0   
$EndComp
$Comp
L Device:CP_Small C13
U 1 1 5E484F7F
P 7900 9350
F 0 "C13" V 8125 9350 50  0000 C CNN
F 1 "220µF/25V" V 8034 9350 50  0000 C CNN
F 2 "" H 7900 9350 50  0001 C CNN
F 3 "~" H 7900 9350 50  0001 C CNN
	1    7900 9350
	0    -1   -1   0   
$EndComp
$Comp
L Device:CP_Small C14
U 1 1 5E48668A
P 7900 9750
F 0 "C14" V 8125 9750 50  0000 C CNN
F 1 "220µF/25V" V 8034 9750 50  0000 C CNN
F 2 "" H 7900 9750 50  0001 C CNN
F 3 "~" H 7900 9750 50  0001 C CNN
	1    7900 9750
	0    -1   -1   0   
$EndComp
$Comp
L 65XX-V9958-rescue:SCART-F-65xx-Computer J3
U 1 1 5E6A1714
P 9600 9350
F 0 "J3" H 9600 10770 50  0000 C CNN
F 1 "SCART-F" H 9600 10679 50  0000 C CNN
F 2 "" H 9600 9400 50  0001 C CNN
F 3 " ~" H 9600 9400 50  0001 C CNN
	1    9600 9350
	1    0    0    -1  
$EndComp
Text GLabel 5150 5500 0    50   Output ~ 0
SCART_G
Text GLabel 5150 5600 0    50   Output ~ 0
SCART_R
Text GLabel 5150 5700 0    50   Output ~ 0
SCART_B
Text GLabel 6650 8650 0    50   Input ~ 0
SCART_G
Text GLabel 5750 8900 0    50   Input ~ 0
SCART_R
Text GLabel 4800 9150 0    50   Input ~ 0
SCART_B
$Comp
L power:GND #PWR0131
U 1 1 5E7A97EA
P 8650 10600
F 0 "#PWR0131" H 8650 10350 50  0001 C CNN
F 1 "GND" H 8655 10427 50  0000 C CNN
F 2 "" H 8650 10600 50  0001 C CNN
F 3 "" H 8650 10600 50  0001 C CNN
	1    8650 10600
	1    0    0    -1  
$EndComp
Wire Wire Line
	9000 9950 8650 9950
Wire Wire Line
	8650 9950 8650 10300
Wire Wire Line
	9000 9550 8650 9550
Wire Wire Line
	8650 9550 8650 9950
Connection ~ 8650 9950
Wire Wire Line
	9000 9150 8650 9150
Wire Wire Line
	8650 9150 8650 9550
Connection ~ 8650 9550
Wire Wire Line
	9000 8750 8650 8750
Wire Wire Line
	8650 8750 8650 9150
Connection ~ 8650 9150
Wire Wire Line
	9000 8350 8650 8350
Wire Wire Line
	8650 8350 8650 8750
Connection ~ 8650 8750
Wire Wire Line
	9000 8550 8500 8550
Text GLabel 7750 8550 0    50   Input ~ 0
~CSYNC
$Comp
L Device:R_Small R5
U 1 1 5E8BC834
P 8000 8550
F 0 "R5" V 7804 8550 50  0000 C CNN
F 1 "560" V 7895 8550 50  0000 C CNN
F 2 "" H 8000 8550 50  0001 C CNN
F 3 "~" H 8000 8550 50  0001 C CNN
	1    8000 8550
	0    1    1    0   
$EndComp
$Comp
L Device:CP_Small C17
U 1 1 5E8BCE0F
P 8400 8550
F 0 "C17" V 8625 8550 50  0000 C CNN
F 1 "220µF/25V" V 8534 8550 50  0000 C CNN
F 2 "" H 8400 8550 50  0001 C CNN
F 3 "~" H 8400 8550 50  0001 C CNN
	1    8400 8550
	0    -1   -1   0   
$EndComp
$Comp
L Device:R_Small R8
U 1 1 5E8BD71C
P 10600 8850
F 0 "R8" V 10796 8850 50  0000 C CNN
F 1 "100" V 10705 8850 50  0000 C CNN
F 2 "" H 10600 8850 50  0001 C CNN
F 3 "~" H 10600 8850 50  0001 C CNN
	1    10600 8850
	0    -1   -1   0   
$EndComp
$Comp
L power:+5V #PWR0132
U 1 1 5E8BEA44
P 11200 8550
F 0 "#PWR0132" H 11200 8400 50  0001 C CNN
F 1 "+5V" H 11215 8723 50  0000 C CNN
F 2 "" H 11200 8550 50  0001 C CNN
F 3 "" H 11200 8550 50  0001 C CNN
	1    11200 8550
	1    0    0    -1  
$EndComp
Wire Wire Line
	11200 8550 11200 8850
Wire Wire Line
	11200 8850 10700 8850
Wire Wire Line
	10500 8850 10200 8850
Wire Wire Line
	7750 8550 7900 8550
Wire Wire Line
	8100 8550 8300 8550
Wire Wire Line
	5450 5500 5150 5500
Wire Wire Line
	5150 5600 5900 5600
Wire Wire Line
	5150 5700 6400 5700
Wire Wire Line
	8000 8950 9000 8950
Wire Wire Line
	8000 9350 9000 9350
Wire Wire Line
	8000 9750 9000 9750
$Comp
L Device:C_Small C23
U 1 1 5E362CCF
P 10000 3600
F 0 "C23" V 9771 3600 50  0000 C CNN
F 1 "27pF" V 9862 3600 50  0000 C CNN
F 2 "" H 10000 3600 50  0001 C CNN
F 3 "~" H 10000 3600 50  0001 C CNN
	1    10000 3600
	0    1    1    0   
$EndComp
Wire Wire Line
	9600 3700 9850 3700
Wire Wire Line
	9850 3700 9850 3600
Wire Wire Line
	9850 3600 9900 3600
Connection ~ 9600 3700
$Comp
L Device:CP_Small C27
U 1 1 5ED2AA53
P 6300 3200
F 0 "C27" H 6388 3246 50  0000 L CNN
F 1 "100µF / 10V" H 6388 3155 50  0000 L CNN
F 2 "" H 6300 3200 50  0001 C CNN
F 3 "~" H 6300 3200 50  0001 C CNN
	1    6300 3200
	1    0    0    -1  
$EndComp
$Comp
L Device:CP_Small C28
U 1 1 5ED2D226
P 7450 1650
F 0 "C28" H 7538 1696 50  0000 L CNN
F 1 "100µF / 10V" H 7538 1605 50  0000 L CNN
F 2 "" H 7450 1650 50  0001 C CNN
F 3 "~" H 7450 1650 50  0001 C CNN
	1    7450 1650
	1    0    0    -1  
$EndComp
Wire Wire Line
	7000 2950 6300 2950
Wire Wire Line
	6300 2950 6300 3100
Wire Wire Line
	7000 3400 6300 3400
Wire Wire Line
	6300 3400 6300 3300
Wire Wire Line
	7050 1400 7450 1400
Wire Wire Line
	7450 1400 7450 1550
Wire Wire Line
	6350 2050 7450 2050
Wire Wire Line
	7450 2050 7450 1750
Text Notes 1200 2300 0    50   ~ 0
S-Video
Text Notes 3200 850  0    50   ~ 0
Composite Video
$Comp
L Device:CP_Small C29
U 1 1 5EDF41C0
P 5600 3200
F 0 "C29" H 5688 3246 50  0000 L CNN
F 1 "100µF / 10V" H 5688 3155 50  0000 L CNN
F 2 "" H 5600 3200 50  0001 C CNN
F 3 "~" H 5600 3200 50  0001 C CNN
	1    5600 3200
	1    0    0    -1  
$EndComp
Wire Wire Line
	6300 2950 5600 2950
Wire Wire Line
	5600 2950 5600 3100
Connection ~ 6300 2950
Wire Wire Line
	6300 3400 5600 3400
Wire Wire Line
	5600 3400 5600 3300
Connection ~ 6300 3400
$Comp
L 65XX-V9958-rescue:BC547C-65xx-Computer Q1
U 1 1 5CCDC80A
P 5100 9150
F 0 "Q1" H 5291 9196 50  0000 L CNN
F 1 "BC547C" H 5291 9105 50  0000 L CNN
F 2 "" H 5300 9250 50  0001 C CNN
F 3 "" H 5100 9150 50  0001 C CNN
	1    5100 9150
	1    0    0    -1  
$EndComp
$Comp
L 65XX-V9958-rescue:BC547C-65xx-Computer Q2
U 1 1 5CCDDCD9
P 6050 8900
F 0 "Q2" H 6241 8946 50  0000 L CNN
F 1 "BC547C" H 6241 8855 50  0000 L CNN
F 2 "" H 6250 9000 50  0001 C CNN
F 3 "" H 6050 8900 50  0001 C CNN
	1    6050 8900
	1    0    0    -1  
$EndComp
$Comp
L 65XX-V9958-rescue:BC547C-65xx-Computer Q3
U 1 1 5CCDEBD2
P 6950 8650
F 0 "Q3" H 7141 8696 50  0000 L CNN
F 1 "BC547C" H 7141 8605 50  0000 L CNN
F 2 "" H 7150 8750 50  0001 C CNN
F 3 "" H 6950 8650 50  0001 C CNN
	1    6950 8650
	1    0    0    -1  
$EndComp
$Comp
L Device:R_Small R11
U 1 1 5CCDFA93
P 7050 9950
F 0 "R11" H 7109 9996 50  0000 L CNN
F 1 "75" H 7109 9905 50  0000 L CNN
F 2 "" H 7050 9950 50  0001 C CNN
F 3 "~" H 7050 9950 50  0001 C CNN
	1    7050 9950
	1    0    0    -1  
$EndComp
$Comp
L Device:R_Small R10
U 1 1 5CCE0227
P 6150 9950
F 0 "R10" H 6209 9996 50  0000 L CNN
F 1 "75" H 6209 9905 50  0000 L CNN
F 2 "" H 6150 9950 50  0001 C CNN
F 3 "~" H 6150 9950 50  0001 C CNN
	1    6150 9950
	1    0    0    -1  
$EndComp
$Comp
L Device:R_Small R9
U 1 1 5CCE0409
P 5200 9950
F 0 "R9" H 5259 9996 50  0000 L CNN
F 1 "75" H 5259 9905 50  0000 L CNN
F 2 "" H 5200 9950 50  0001 C CNN
F 3 "~" H 5200 9950 50  0001 C CNN
	1    5200 9950
	1    0    0    -1  
$EndComp
$Comp
L power:+5V #PWR01
U 1 1 5CED0900
P 7050 8050
F 0 "#PWR01" H 7050 7900 50  0001 C CNN
F 1 "+5V" H 7065 8223 50  0000 C CNN
F 2 "" H 7050 8050 50  0001 C CNN
F 3 "" H 7050 8050 50  0001 C CNN
	1    7050 8050
	1    0    0    -1  
$EndComp
Wire Wire Line
	7050 8450 7050 8200
Wire Wire Line
	7050 8200 6150 8200
Wire Wire Line
	6150 8200 6150 8700
Connection ~ 7050 8200
Wire Wire Line
	7050 8200 7050 8050
Wire Wire Line
	6150 8200 5200 8200
Wire Wire Line
	5200 8200 5200 8950
Connection ~ 6150 8200
Wire Wire Line
	5200 9350 5200 9750
Wire Wire Line
	8650 10300 7050 10300
Wire Wire Line
	7050 10300 7050 10050
Connection ~ 8650 10300
Wire Wire Line
	8650 10300 8650 10600
Wire Wire Line
	7050 10300 6150 10300
Wire Wire Line
	6150 10300 6150 10050
Connection ~ 7050 10300
Wire Wire Line
	6150 10300 5200 10300
Wire Wire Line
	5200 10300 5200 10050
Connection ~ 6150 10300
Wire Wire Line
	5200 9750 7800 9750
Connection ~ 5200 9750
Wire Wire Line
	5200 9750 5200 9850
Wire Wire Line
	6150 9350 6150 9100
Wire Wire Line
	6150 9350 7800 9350
Wire Wire Line
	6150 9850 6150 9350
Connection ~ 6150 9350
Wire Wire Line
	7050 8850 7050 8950
Wire Wire Line
	7050 8950 7800 8950
Connection ~ 7050 8950
Wire Wire Line
	7050 8950 7050 9850
Wire Wire Line
	6750 8650 6650 8650
Wire Wire Line
	5850 8900 5750 8900
Wire Wire Line
	4900 9150 4800 9150
Wire Wire Line
	10950 4350 11350 4350
Wire Wire Line
	2700 7700 2850 7700
Wire Wire Line
	2850 7700 2850 7250
Connection ~ 2850 7250
Wire Wire Line
	3400 2600 2950 2600
Wire Wire Line
	2950 2300 2950 2600
Connection ~ 2950 2600
Wire Wire Line
	2950 2600 2600 2600
$Comp
L Device:C_Small C30
U 1 1 5EA56C49
P 8950 7050
F 0 "C30" H 9042 7096 50  0000 L CNN
F 1 "100nF" H 9042 7005 50  0000 L CNN
F 2 "" H 8950 7050 50  0001 C CNN
F 3 "~" H 8950 7050 50  0001 C CNN
	1    8950 7050
	1    0    0    -1  
$EndComp
$Comp
L power:GND #PWR02
U 1 1 5EA577BD
P 8950 7350
F 0 "#PWR02" H 8950 7100 50  0001 C CNN
F 1 "GND" H 8955 7177 50  0000 C CNN
F 2 "" H 8950 7350 50  0001 C CNN
F 3 "" H 8950 7350 50  0001 C CNN
	1    8950 7350
	1    0    0    -1  
$EndComp
Wire Wire Line
	8950 7350 8950 7150
Wire Wire Line
	8900 6500 8950 6500
Wire Wire Line
	8950 6500 8950 6950
Wire Wire Line
	7500 6000 7400 6000
Wire Wire Line
	7400 6000 7400 3700
Connection ~ 7400 3700
Wire Wire Line
	14000 3650 13650 3650
Wire Wire Line
	7500 5800 7250 5800
Text GLabel 7250 5800 0    60   Output ~ 0
~IRQ
Text GLabel 13650 3650 0    60   Input ~ 0
~IRQ
Wire Wire Line
	7500 5900 7350 5900
Wire Wire Line
	7350 5900 7350 4950
Wire Wire Line
	7350 4950 7100 4950
Wire Wire Line
	7100 4950 7100 4850
$Comp
L Device:R_Small R12
U 1 1 6032706D
P 7100 4750
F 0 "R12" H 7159 4796 50  0000 L CNN
F 1 "10k" H 7159 4705 50  0000 L CNN
F 2 "" H 7100 4750 50  0001 C CNN
F 3 "~" H 7100 4750 50  0001 C CNN
	1    7100 4750
	1    0    0    -1  
$EndComp
$Comp
L power:+5V #PWR03
U 1 1 603274DE
P 7100 4550
F 0 "#PWR03" H 7100 4400 50  0001 C CNN
F 1 "+5V" H 7115 4723 50  0000 C CNN
F 2 "" H 7100 4550 50  0001 C CNN
F 3 "" H 7100 4550 50  0001 C CNN
	1    7100 4550
	1    0    0    -1  
$EndComp
Wire Wire Line
	7100 4550 7100 4650
Wire Bus Line
	9450 4200 9450 5000
Wire Bus Line
	11350 2350 11350 3250
Wire Bus Line
	9200 5800 9200 6900
Wire Bus Line
	3400 4650 3400 10050
Wire Bus Line
	1000 4450 1000 10600
$EndSCHEMATC
