(export (version D)
  (design
    (source /home/uwe/Dokumente/Elektronik/Selbstbaucomputer/Selbstbaucomputer_KICAD/6502.sch)
    (date "So 22 Okt 2017 20:30:20 CEST")
    (tool "Eeschema 4.0.7-e2-6376~58~ubuntu16.04.1")
    (sheet (number 1) (name /) (tstamps /)
      (title_block
        (title "6502 CPU Board")
        (company "Uwe Gottschling")
        (rev 001)
        (date 2017-10-22)
        (source 6502.sch)
        (comment (number 1) (value ""))
        (comment (number 2) (value ""))
        (comment (number 3) (value ""))
        (comment (number 4) (value "")))))
  (components
    (comp (ref U2)
      (value 74LS138)
      (libsource (lib Logic_TTL_IEEE) (part 74LS138))
      (sheetpath (names /) (tstamps /))
      (tstamp 59ECD28A))
    (comp (ref U7)
      (value 74LS245)
      (libsource (lib Logic_TTL_IEEE) (part 74LS245))
      (sheetpath (names /) (tstamps /))
      (tstamp 59ECD2F1))
    (comp (ref U8)
      (value 74LS245)
      (libsource (lib Logic_TTL_IEEE) (part 74LS245))
      (sheetpath (names /) (tstamps /))
      (tstamp 59ECD3C3))
    (comp (ref U9)
      (value 74LS245)
      (libsource (lib Logic_TTL_IEEE) (part 74LS245))
      (sheetpath (names /) (tstamps /))
      (tstamp 59ECD40A))
    (comp (ref U10)
      (value 74LS245)
      (libsource (lib Logic_TTL_IEEE) (part 74LS245))
      (sheetpath (names /) (tstamps /))
      (tstamp 59ECD45F))
    (comp (ref X1)
      (value C64AC_DIN41612_BUS)
      (libsource (lib 65xx-Computer) (part C64AC_DIN41612_BUS))
      (sheetpath (names /) (tstamps /))
      (tstamp 59ECDB96))
    (comp (ref U6)
      (value 7400)
      (libsource (lib Logic_TTL_IEEE) (part 7400))
      (sheetpath (names /) (tstamps /))
      (tstamp 59ECDC83))
    (comp (ref D1)
      (value P6KE6,8A)
      (libsource (lib 65xx-Computer) (part D_TVS_UNI))
      (sheetpath (names /) (tstamps /))
      (tstamp 59ECDF27))
    (comp (ref S1)
      (value Push-button)
      (libsource (lib 65xx-Computer) (part Push-button))
      (sheetpath (names /) (tstamps /))
      (tstamp 59ECE004))
    (comp (ref U3)
      (value 7414)
      (libsource (lib Logic_TTL_IEEE) (part 7414))
      (sheetpath (names /) (tstamps /))
      (tstamp 59ECE07D))
    (comp (ref U5)
      (value 74LS161)
      (libsource (lib Logic_TTL_IEEE) (part 74LS161))
      (sheetpath (names /) (tstamps /))
      (tstamp 59ECE4C3))
    (comp (ref U1)
      (value Crystal_oscillator)
      (libsource (lib 65xx-Computer) (part Crystal_oscillator))
      (sheetpath (names /) (tstamps /))
      (tstamp 59ECEF6C))
    (comp (ref C2)
      (value C)
      (libsource (lib device) (part C))
      (sheetpath (names /) (tstamps /))
      (tstamp 59ED026C))
    (comp (ref C1)
      (value C)
      (libsource (lib device) (part C))
      (sheetpath (names /) (tstamps /))
      (tstamp 59ED0CA8))
    (comp (ref U4)
      (value 65C816)
      (libsource (lib 65xx-Computer) (part 65C816))
      (sheetpath (names /) (tstamps /))
      (tstamp 59ED37B3)))
  (libparts
    (libpart (lib 65xx-Computer) (part 65C816)
      (description "65c02 Western Design Center")
      (fields
        (field (name Reference) U)
        (field (name Value) 65C816))
      (pins
        (pin (num 1) (name ~VD) (type output))
        (pin (num 2) (name RDY) (type BiDi))
        (pin (num 3) (name ~ABORT) (type input))
        (pin (num 4) (name ~IRQ) (type input))
        (pin (num 5) (name ~ML) (type output))
        (pin (num 6) (name ~NMI) (type input))
        (pin (num 7) (name VPA) (type output))
        (pin (num 8) (name VCC) (type power_in))
        (pin (num 9) (name A0) (type output))
        (pin (num 10) (name A1) (type output))
        (pin (num 11) (name A2) (type output))
        (pin (num 12) (name A3) (type output))
        (pin (num 13) (name A4) (type output))
        (pin (num 14) (name A5) (type output))
        (pin (num 15) (name A6) (type output))
        (pin (num 16) (name A7) (type output))
        (pin (num 17) (name A8) (type output))
        (pin (num 18) (name A9) (type output))
        (pin (num 19) (name A10) (type output))
        (pin (num 20) (name A11) (type output))
        (pin (num 21) (name VSS) (type power_in))
        (pin (num 22) (name A12) (type output))
        (pin (num 23) (name A13) (type output))
        (pin (num 24) (name A14) (type output))
        (pin (num 25) (name A15) (type output))
        (pin (num 26) (name D7) (type BiDi))
        (pin (num 27) (name D6) (type BiDi))
        (pin (num 28) (name D5) (type BiDi))
        (pin (num 29) (name D4) (type BiDi))
        (pin (num 30) (name A3) (type BiDi))
        (pin (num 31) (name D2) (type BiDi))
        (pin (num 32) (name D1) (type BiDi))
        (pin (num 33) (name D0) (type BiDi))
        (pin (num 34) (name R/~W) (type output))
        (pin (num 35) (name E) (type output))
        (pin (num 36) (name BE) (type input))
        (pin (num 37) (name PHI2) (type input))
        (pin (num 38) (name MX) (type output))
        (pin (num 39) (name VDA) (type output))
        (pin (num 40) (name ~RES) (type input))))
    (libpart (lib Logic_TTL_IEEE) (part 7400)
      (fields
        (field (name Reference) U)
        (field (name Value) 7400))
      (pins
        (pin (num 1) (name ~) (type input))
        (pin (num 2) (name ~) (type input))
        (pin (num 3) (name ~) (type output))
        (pin (num 4) (name ~) (type input))
        (pin (num 5) (name ~) (type input))
        (pin (num 6) (name ~) (type output))
        (pin (num 7) (name GND) (type power_in))
        (pin (num 8) (name ~) (type output))
        (pin (num 9) (name ~) (type input))
        (pin (num 10) (name ~) (type input))
        (pin (num 11) (name ~) (type output))
        (pin (num 12) (name ~) (type input))
        (pin (num 13) (name ~) (type input))
        (pin (num 14) (name Vcc) (type power_in))))
    (libpart (lib Logic_TTL_IEEE) (part 7414)
      (aliases
        (alias 74LS19))
      (fields
        (field (name Reference) U)
        (field (name Value) 7414))
      (pins
        (pin (num 1) (name ~) (type input))
        (pin (num 2) (name ~) (type output))
        (pin (num 3) (name ~) (type input))
        (pin (num 4) (name ~) (type output))
        (pin (num 5) (name ~) (type input))
        (pin (num 6) (name ~) (type output))
        (pin (num 7) (name Gnd) (type power_in))
        (pin (num 8) (name ~) (type output))
        (pin (num 9) (name ~) (type input))
        (pin (num 10) (name ~) (type output))
        (pin (num 11) (name ~) (type input))
        (pin (num 12) (name ~) (type output))
        (pin (num 13) (name ~) (type input))
        (pin (num 14) (name Vcc) (type power_in))))
    (libpart (lib Logic_TTL_IEEE) (part 74LS138)
      (fields
        (field (name Reference) U)
        (field (name Value) 74LS138))
      (pins
        (pin (num 1) (name A0) (type input))
        (pin (num 2) (name A1) (type input))
        (pin (num 3) (name A2) (type input))
        (pin (num 4) (name ~G2A) (type input))
        (pin (num 5) (name ~G2B) (type input))
        (pin (num 6) (name G1) (type input))
        (pin (num 7) (name ~Y7) (type output))
        (pin (num 8) (name GND) (type power_in))
        (pin (num 9) (name ~Y6) (type output))
        (pin (num 10) (name ~Y5) (type output))
        (pin (num 11) (name ~Y4) (type output))
        (pin (num 12) (name ~Y3) (type output))
        (pin (num 13) (name ~Y2) (type output))
        (pin (num 14) (name ~Y1) (type output))
        (pin (num 15) (name ~Y0) (type output))
        (pin (num 16) (name VCC) (type power_in))))
    (libpart (lib Logic_TTL_IEEE) (part 74LS161)
      (aliases
        (alias 74LS160)
        (alias 74LS162)
        (alias 74LS163))
      (fields
        (field (name Reference) U)
        (field (name Value) 74LS161))
      (pins
        (pin (num 1) (name ~MR) (type input))
        (pin (num 2) (name CK) (type input))
        (pin (num 3) (name P0) (type input))
        (pin (num 4) (name P1) (type input))
        (pin (num 5) (name P2) (type input))
        (pin (num 6) (name P3) (type input))
        (pin (num 7) (name ENP) (type input))
        (pin (num 8) (name GND) (type power_in))
        (pin (num 9) (name ~Pe) (type input))
        (pin (num 10) (name ENT) (type input))
        (pin (num 11) (name Q3) (type output))
        (pin (num 12) (name Q2) (type output))
        (pin (num 13) (name Q1) (type output))
        (pin (num 14) (name Q0) (type output))
        (pin (num 15) (name Tc) (type output))
        (pin (num 16) (name VCC) (type power_in))))
    (libpart (lib Logic_TTL_IEEE) (part 74LS245)
      (fields
        (field (name Reference) U)
        (field (name Value) 74LS245))
      (pins
        (pin (num 1) (name ~DIR) (type input))
        (pin (num 2) (name A0) (type 3state))
        (pin (num 3) (name A1) (type 3state))
        (pin (num 4) (name A2) (type 3state))
        (pin (num 5) (name A3) (type 3state))
        (pin (num 6) (name A4) (type 3state))
        (pin (num 7) (name A5) (type 3state))
        (pin (num 8) (name A6) (type 3state))
        (pin (num 9) (name A7) (type 3state))
        (pin (num 10) (name GND) (type power_in))
        (pin (num 11) (name B7) (type 3state))
        (pin (num 12) (name B6) (type 3state))
        (pin (num 13) (name B5) (type 3state))
        (pin (num 14) (name B4) (type 3state))
        (pin (num 15) (name B3) (type 3state))
        (pin (num 16) (name B2) (type 3state))
        (pin (num 17) (name B1) (type 3state))
        (pin (num 18) (name B0) (type 3state))
        (pin (num 19) (name ~CE) (type input))
        (pin (num 20) (name VCC) (type power_in))))
    (libpart (lib device) (part C)
      (description "Unpolarized capacitor")
      (footprints
        (fp C_*))
      (fields
        (field (name Reference) C)
        (field (name Value) C))
      (pins
        (pin (num 1) (name ~) (type passive))
        (pin (num 2) (name ~) (type passive))))
    (libpart (lib 65xx-Computer) (part C64AC_DIN41612_BUS)
      (description "Connector Europe 64 contacts, ranges A,B,C")
      (fields
        (field (name Reference) X)
        (field (name Value) C64AC_DIN41612_BUS))
      (pins
        (pin (num A1) (name "1A(+5V)") (type passive))
        (pin (num A2) (name "2A(D0)") (type passive))
        (pin (num A3) (name "3A(D2)") (type passive))
        (pin (num A4) (name "4A(D4)") (type passive))
        (pin (num A5) (name "5A(D6)") (type passive))
        (pin (num A6) (name "6A(R/~W~)") (type passive))
        (pin (num A7) (name "7A(PHI2)") (type passive))
        (pin (num A8) (name "8A(~IRQ~)") (type passive))
        (pin (num A9) (name "9A(~NMI~)") (type passive))
        (pin (num A10) (name "10A(RAM_W/~R~)") (type passive))
        (pin (num A11) (name "11A(~RES~)") (type passive))
        (pin (num A12) (name "12A(~IORQ)") (type passive))
        (pin (num A13) (name "13A(RAM_W/~R~)") (type passive))
        (pin (num A14) (name "14A(~PHI2)") (type passive))
        (pin (num A15) (name 15A) (type passive))
        (pin (num A16) (name 16A) (type passive))
        (pin (num A17) (name 17A) (type passive))
        (pin (num A18) (name 18A) (type passive))
        (pin (num A19) (name 19A) (type passive))
        (pin (num A20) (name 20A) (type passive))
        (pin (num A21) (name 21A) (type passive))
        (pin (num A22) (name 22A) (type passive))
        (pin (num A23) (name 23A) (type passive))
        (pin (num A24) (name 24A) (type passive))
        (pin (num A25) (name 25A) (type passive))
        (pin (num A26) (name 26A) (type passive))
        (pin (num A27) (name 27A) (type passive))
        (pin (num A28) (name 28A) (type passive))
        (pin (num A29) (name 29A) (type passive))
        (pin (num A30) (name 30A) (type passive))
        (pin (num A31) (name 31A) (type passive))
        (pin (num A32) (name "32A(GND)") (type passive))
        (pin (num C1) (name "1C(+5V)") (type passive))
        (pin (num C2) (name "2C(D1)") (type passive))
        (pin (num C3) (name "3C(D3)") (type passive))
        (pin (num C4) (name "4C(D5)") (type passive))
        (pin (num C5) (name "5C(D7)") (type passive))
        (pin (num C6) (name "6C(A0)") (type passive))
        (pin (num C7) (name "7C(A1)") (type passive))
        (pin (num C8) (name "8C(A2)") (type passive))
        (pin (num C9) (name "9C(A3)") (type passive))
        (pin (num C10) (name "10C(A4)") (type passive))
        (pin (num C11) (name "11C(A5)") (type passive))
        (pin (num C12) (name "12C(A6)") (type passive))
        (pin (num C13) (name "13C(A7)") (type passive))
        (pin (num C14) (name "14C(A8)") (type passive))
        (pin (num C15) (name "15C(A9)") (type passive))
        (pin (num C16) (name "16C(A10)") (type passive))
        (pin (num C17) (name "17C(A11)") (type passive))
        (pin (num C18) (name "18C(A12)") (type passive))
        (pin (num C19) (name "19C(A13)") (type passive))
        (pin (num C20) (name "20C(A14)") (type passive))
        (pin (num C21) (name "21C(A15)") (type passive))
        (pin (num C22) (name 22C) (type passive))
        (pin (num C23) (name 23C) (type passive))
        (pin (num C24) (name 24C) (type passive))
        (pin (num C25) (name 25C) (type passive))
        (pin (num C26) (name 26C) (type passive))
        (pin (num C27) (name 27C) (type passive))
        (pin (num C28) (name 28C) (type passive))
        (pin (num C29) (name 29C) (type passive))
        (pin (num C30) (name 30C) (type passive))
        (pin (num C31) (name 31C) (type passive))
        (pin (num C32) (name "32C(GND)") (type passive))))
    (libpart (lib 65xx-Computer) (part Crystal_oscillator)
      (fields
        (field (name Reference) U)
        (field (name Value) Crystal_oscillator))
      (pins
        (pin (num 1) (name NC) (type NotConnected))
        (pin (num 7) (name GND) (type power_in))
        (pin (num 8) (name OUTPUT) (type output))
        (pin (num 14) (name +VCC) (type power_in))))
    (libpart (lib 65xx-Computer) (part D_TVS_UNI)
      (description "Bidirectional transient-voltage-suppression (TVS) diode")
      (docs https://en.wikipedia.org/wiki/Transient-voltage-suppression_diode)
      (footprints
        (fp TO-???*)
        (fp *SingleDiode)
        (fp *_Diode_*)
        (fp *SingleDiode*)
        (fp D_*))
      (fields
        (field (name Reference) D)
        (field (name Value) D_TVS_UNI))
      (pins
        (pin (num 1) (name A1) (type passive))
        (pin (num 2) (name A2) (type passive))))
    (libpart (lib 65xx-Computer) (part Push-button)
      (fields
        (field (name Reference) S)
        (field (name Value) Push-button))
      (pins
        (pin (num 1) (name ~) (type power_in))
        (pin (num 2) (name ~) (type power_in)))))
  (libraries
    (library (logical Logic_TTL_IEEE)
      (uri /home/uwe/Dokumente/Elektronik/Kicad/kicad-library-master/library/Logic_TTL_IEEE.lib))
    (library (logical 65xx-Computer)
      (uri /home/uwe/Dokumente/Elektronik/Kicad/6502/65xx-Computer.lib))
    (library (logical device)
      (uri /home/uwe/Dokumente/Elektronik/Kicad/kicad-library-master/library/device.lib)))
  (nets
    (net (code 1) (name "Net-(U1-Pad8)")
      (node (ref U1) (pin 8)))
    (net (code 2) (name "Net-(U1-Pad14)")
      (node (ref U1) (pin 14)))
    (net (code 3) (name "Net-(U1-Pad7)")
      (node (ref U1) (pin 7)))
    (net (code 4) (name "Net-(U1-Pad1)")
      (node (ref U1) (pin 1)))
    (net (code 5) (name "Net-(U5-Pad15)")
      (node (ref U5) (pin 15)))
    (net (code 6) (name "Net-(U5-Pad14)")
      (node (ref U5) (pin 14)))
    (net (code 7) (name "Net-(U5-Pad13)")
      (node (ref U5) (pin 13)))
    (net (code 8) (name "Net-(U5-Pad12)")
      (node (ref U5) (pin 12)))
    (net (code 9) (name "Net-(U5-Pad11)")
      (node (ref U5) (pin 11)))
    (net (code 10) (name "Net-(U5-Pad10)")
      (node (ref U5) (pin 10)))
    (net (code 11) (name "Net-(U5-Pad9)")
      (node (ref U5) (pin 9)))
    (net (code 12) (name "Net-(U5-Pad7)")
      (node (ref U5) (pin 7)))
    (net (code 13) (name "Net-(U5-Pad6)")
      (node (ref U5) (pin 6)))
    (net (code 14) (name "Net-(U5-Pad5)")
      (node (ref U5) (pin 5)))
    (net (code 15) (name GND)
      (node (ref C1) (pin 2))
      (node (ref U6) (pin 7))
      (node (ref U5) (pin 8))
      (node (ref U3) (pin 7))
      (node (ref C2) (pin 2))
      (node (ref U7) (pin 10))
      (node (ref U8) (pin 10))
      (node (ref U9) (pin 10))
      (node (ref U10) (pin 10))
      (node (ref U4) (pin 21))
      (node (ref U2) (pin 8)))
    (net (code 16) (name "Net-(U3-Pad4)")
      (node (ref U3) (pin 4)))
    (net (code 17) (name "Net-(U3-Pad3)")
      (node (ref U3) (pin 3)))
    (net (code 18) (name +5V)
      (node (ref U3) (pin 14))
      (node (ref U6) (pin 14))
      (node (ref U10) (pin 20))
      (node (ref U4) (pin 8))
      (node (ref U7) (pin 20))
      (node (ref U8) (pin 20))
      (node (ref U9) (pin 20))
      (node (ref C1) (pin 1))
      (node (ref U2) (pin 16))
      (node (ref C2) (pin 1))
      (node (ref U5) (pin 16)))
    (net (code 19) (name "Net-(U3-Pad2)")
      (node (ref U3) (pin 2)))
    (net (code 20) (name "Net-(U3-Pad1)")
      (node (ref U3) (pin 1)))
    (net (code 21) (name "Net-(U3-Pad11)")
      (node (ref U3) (pin 11)))
    (net (code 22) (name "Net-(U3-Pad10)")
      (node (ref U3) (pin 10)))
    (net (code 23) (name "Net-(S1-Pad2)")
      (node (ref S1) (pin 2)))
    (net (code 24) (name "Net-(S1-Pad1)")
      (node (ref S1) (pin 1)))
    (net (code 25) (name "Net-(D1-Pad2)")
      (node (ref D1) (pin 2)))
    (net (code 26) (name "Net-(D1-Pad1)")
      (node (ref D1) (pin 1)))
    (net (code 27) (name "Net-(U5-Pad4)")
      (node (ref U5) (pin 4)))
    (net (code 28) (name "Net-(U5-Pad3)")
      (node (ref U5) (pin 3)))
    (net (code 29) (name "Net-(U5-Pad2)")
      (node (ref U5) (pin 2)))
    (net (code 30) (name "Net-(U5-Pad1)")
      (node (ref U5) (pin 1)))
    (net (code 31) (name "Net-(U3-Pad13)")
      (node (ref U3) (pin 13)))
    (net (code 32) (name "Net-(U3-Pad12)")
      (node (ref U3) (pin 12)))
    (net (code 33) (name "Net-(U3-Pad9)")
      (node (ref U3) (pin 9)))
    (net (code 34) (name "Net-(U3-Pad8)")
      (node (ref U3) (pin 8)))
    (net (code 35) (name "Net-(U3-Pad6)")
      (node (ref U3) (pin 6)))
    (net (code 36) (name "Net-(U3-Pad5)")
      (node (ref U3) (pin 5)))
    (net (code 37) (name /D7)
      (node (ref U7) (pin 11))
      (node (ref U4) (pin 26)))
    (net (code 38) (name /D6)
      (node (ref U4) (pin 27))
      (node (ref U7) (pin 12)))
    (net (code 39) (name /D5)
      (node (ref U4) (pin 28))
      (node (ref U7) (pin 13)))
    (net (code 40) (name /D4)
      (node (ref U7) (pin 14))
      (node (ref U4) (pin 29)))
    (net (code 41) (name /D3)
      (node (ref U7) (pin 15))
      (node (ref U4) (pin 30)))
    (net (code 42) (name /D2)
      (node (ref U7) (pin 16))
      (node (ref U4) (pin 31)))
    (net (code 43) (name /D1)
      (node (ref U7) (pin 17))
      (node (ref U4) (pin 32)))
    (net (code 44) (name /D0)
      (node (ref U4) (pin 33))
      (node (ref U7) (pin 18)))
    (net (code 46) (name "Net-(U7-Pad9)")
      (node (ref U7) (pin 9))
      (node (ref X1) (pin C5)))
    (net (code 47) (name "Net-(U7-Pad8)")
      (node (ref U7) (pin 8))
      (node (ref X1) (pin A5)))
    (net (code 48) (name "Net-(U7-Pad7)")
      (node (ref U7) (pin 7))
      (node (ref X1) (pin C4)))
    (net (code 49) (name "Net-(U7-Pad6)")
      (node (ref U7) (pin 6))
      (node (ref X1) (pin A4)))
    (net (code 50) (name "Net-(U7-Pad5)")
      (node (ref U7) (pin 5))
      (node (ref X1) (pin C3)))
    (net (code 51) (name "Net-(U7-Pad4)")
      (node (ref U7) (pin 4))
      (node (ref X1) (pin A3)))
    (net (code 52) (name "Net-(U7-Pad3)")
      (node (ref U7) (pin 3))
      (node (ref X1) (pin C2)))
    (net (code 53) (name "Net-(U7-Pad2)")
      (node (ref X1) (pin A2))
      (node (ref U7) (pin 2)))
    (net (code 54) (name "Net-(U4-Pad7)")
      (node (ref U4) (pin 7)))
    (net (code 55) (name "Net-(U4-Pad22)")
      (node (ref U4) (pin 22)))
    (net (code 56) (name "Net-(U4-Pad12)")
      (node (ref U4) (pin 12)))
    (net (code 57) (name "Net-(U4-Pad11)")
      (node (ref U4) (pin 11)))
    (net (code 58) (name "Net-(U4-Pad40)")
      (node (ref U4) (pin 40)))
    (net (code 59) (name "Net-(U4-Pad20)")
      (node (ref U4) (pin 20)))
    (net (code 60) (name "Net-(U4-Pad10)")
      (node (ref U4) (pin 10)))
    (net (code 61) (name "Net-(U4-Pad9)")
      (node (ref U4) (pin 9)))
    (net (code 62) (name "Net-(U4-Pad13)")
      (node (ref U4) (pin 13)))
    (net (code 63) (name "Net-(U4-Pad6)")
      (node (ref U4) (pin 6)))
    (net (code 64) (name "Net-(U4-Pad5)")
      (node (ref U4) (pin 5)))
    (net (code 65) (name "Net-(U4-Pad4)")
      (node (ref U4) (pin 4)))
    (net (code 66) (name "Net-(U4-Pad3)")
      (node (ref U4) (pin 3)))
    (net (code 67) (name "Net-(U4-Pad2)")
      (node (ref U4) (pin 2)))
    (net (code 68) (name "Net-(U4-Pad1)")
      (node (ref U4) (pin 1)))
    (net (code 69) (name "Net-(U4-Pad17)")
      (node (ref U4) (pin 17)))
    (net (code 70) (name "Net-(U4-Pad39)")
      (node (ref U4) (pin 39)))
    (net (code 71) (name "Net-(U4-Pad19)")
      (node (ref U4) (pin 19)))
    (net (code 72) (name "Net-(U4-Pad38)")
      (node (ref U4) (pin 38)))
    (net (code 73) (name "Net-(U4-Pad18)")
      (node (ref U4) (pin 18)))
    (net (code 74) (name "Net-(U4-Pad37)")
      (node (ref U4) (pin 37)))
    (net (code 75) (name "Net-(U6-Pad13)")
      (node (ref U6) (pin 13)))
    (net (code 76) (name "Net-(U4-Pad36)")
      (node (ref U4) (pin 36)))
    (net (code 77) (name "Net-(U4-Pad16)")
      (node (ref U4) (pin 16)))
    (net (code 78) (name "Net-(U4-Pad35)")
      (node (ref U4) (pin 35)))
    (net (code 79) (name "Net-(U4-Pad25)")
      (node (ref U4) (pin 25)))
    (net (code 80) (name "Net-(U4-Pad15)")
      (node (ref U4) (pin 15)))
    (net (code 81) (name "Net-(U4-Pad34)")
      (node (ref U4) (pin 34)))
    (net (code 82) (name "Net-(U4-Pad24)")
      (node (ref U4) (pin 24)))
    (net (code 83) (name "Net-(U4-Pad14)")
      (node (ref U4) (pin 14)))
    (net (code 84) (name "Net-(U4-Pad23)")
      (node (ref U4) (pin 23)))
    (net (code 85) (name "Net-(U8-Pad19)")
      (node (ref U8) (pin 19)))
    (net (code 86) (name "Net-(U9-Pad8)")
      (node (ref U9) (pin 8)))
    (net (code 87) (name "Net-(U9-Pad7)")
      (node (ref U9) (pin 7)))
    (net (code 88) (name "Net-(U9-Pad6)")
      (node (ref U9) (pin 6)))
    (net (code 89) (name "Net-(U9-Pad5)")
      (node (ref U9) (pin 5)))
    (net (code 90) (name "Net-(U9-Pad4)")
      (node (ref U9) (pin 4)))
    (net (code 91) (name "Net-(U9-Pad3)")
      (node (ref U9) (pin 3)))
    (net (code 92) (name "Net-(U9-Pad2)")
      (node (ref U9) (pin 2)))
    (net (code 93) (name "Net-(U9-Pad1)")
      (node (ref U9) (pin 1)))
    (net (code 94) (name "Net-(U9-Pad9)")
      (node (ref U9) (pin 9)))
    (net (code 95) (name "Net-(U8-Pad18)")
      (node (ref U8) (pin 18)))
    (net (code 96) (name "Net-(U8-Pad17)")
      (node (ref U8) (pin 17)))
    (net (code 97) (name "Net-(U8-Pad16)")
      (node (ref U8) (pin 16)))
    (net (code 98) (name "Net-(U8-Pad15)")
      (node (ref U8) (pin 15)))
    (net (code 99) (name "Net-(U8-Pad14)")
      (node (ref U8) (pin 14)))
    (net (code 100) (name "Net-(U8-Pad13)")
      (node (ref U8) (pin 13)))
    (net (code 101) (name "Net-(U8-Pad12)")
      (node (ref U8) (pin 12)))
    (net (code 102) (name "Net-(U8-Pad11)")
      (node (ref U8) (pin 11)))
    (net (code 103) (name "Net-(U8-Pad9)")
      (node (ref U8) (pin 9)))
    (net (code 104) (name "Net-(U8-Pad8)")
      (node (ref U8) (pin 8)))
    (net (code 105) (name "Net-(U8-Pad7)")
      (node (ref U8) (pin 7)))
    (net (code 106) (name "Net-(U10-Pad12)")
      (node (ref U10) (pin 12)))
    (net (code 107) (name "Net-(U10-Pad11)")
      (node (ref U10) (pin 11)))
    (net (code 108) (name "Net-(U10-Pad9)")
      (node (ref U10) (pin 9)))
    (net (code 109) (name "Net-(U10-Pad8)")
      (node (ref U10) (pin 8)))
    (net (code 110) (name "Net-(U10-Pad7)")
      (node (ref U10) (pin 7)))
    (net (code 111) (name "Net-(U10-Pad6)")
      (node (ref U10) (pin 6)))
    (net (code 112) (name "Net-(U10-Pad5)")
      (node (ref U10) (pin 5)))
    (net (code 113) (name "Net-(U10-Pad4)")
      (node (ref U10) (pin 4)))
    (net (code 114) (name "Net-(U10-Pad3)")
      (node (ref U10) (pin 3)))
    (net (code 115) (name "Net-(U10-Pad2)")
      (node (ref U10) (pin 2)))
    (net (code 116) (name "Net-(U10-Pad1)")
      (node (ref U10) (pin 1)))
    (net (code 117) (name "Net-(U8-Pad6)")
      (node (ref U8) (pin 6)))
    (net (code 118) (name "Net-(U9-Pad19)")
      (node (ref U9) (pin 19)))
    (net (code 119) (name "Net-(U9-Pad18)")
      (node (ref U9) (pin 18)))
    (net (code 120) (name "Net-(U9-Pad17)")
      (node (ref U9) (pin 17)))
    (net (code 121) (name "Net-(U9-Pad16)")
      (node (ref U9) (pin 16)))
    (net (code 122) (name "Net-(U9-Pad15)")
      (node (ref U9) (pin 15)))
    (net (code 123) (name "Net-(U9-Pad14)")
      (node (ref U9) (pin 14)))
    (net (code 124) (name "Net-(U9-Pad13)")
      (node (ref U9) (pin 13)))
    (net (code 125) (name "Net-(U9-Pad12)")
      (node (ref U9) (pin 12)))
    (net (code 126) (name "Net-(U9-Pad11)")
      (node (ref U9) (pin 11)))
    (net (code 127) (name "Net-(U2-Pad10)")
      (node (ref U2) (pin 10)))
    (net (code 128) (name "Net-(U7-Pad1)")
      (node (ref U7) (pin 1)))
    (net (code 129) (name "Net-(U2-Pad15)")
      (node (ref U2) (pin 15)))
    (net (code 130) (name "Net-(U2-Pad14)")
      (node (ref U2) (pin 14)))
    (net (code 131) (name "Net-(U2-Pad13)")
      (node (ref U2) (pin 13)))
    (net (code 132) (name "Net-(U2-Pad12)")
      (node (ref U2) (pin 12)))
    (net (code 133) (name "Net-(U2-Pad11)")
      (node (ref U2) (pin 11)))
    (net (code 134) (name "Net-(U2-Pad9)")
      (node (ref U2) (pin 9)))
    (net (code 135) (name "Net-(U2-Pad7)")
      (node (ref U2) (pin 7)))
    (net (code 136) (name "Net-(U2-Pad6)")
      (node (ref U2) (pin 6)))
    (net (code 137) (name "Net-(U2-Pad5)")
      (node (ref U2) (pin 5)))
    (net (code 138) (name "Net-(U2-Pad4)")
      (node (ref U2) (pin 4)))
    (net (code 139) (name "Net-(U2-Pad3)")
      (node (ref U2) (pin 3)))
    (net (code 140) (name "Net-(U2-Pad2)")
      (node (ref U2) (pin 2)))
    (net (code 141) (name "Net-(U2-Pad1)")
      (node (ref U2) (pin 1)))
    (net (code 142) (name "Net-(U8-Pad5)")
      (node (ref U8) (pin 5)))
    (net (code 143) (name "Net-(U8-Pad4)")
      (node (ref U8) (pin 4)))
    (net (code 144) (name "Net-(U8-Pad3)")
      (node (ref U8) (pin 3)))
    (net (code 145) (name "Net-(U8-Pad2)")
      (node (ref U8) (pin 2)))
    (net (code 146) (name "Net-(U8-Pad1)")
      (node (ref U8) (pin 1)))
    (net (code 147) (name "Net-(U7-Pad19)")
      (node (ref U7) (pin 19)))
    (net (code 148) (name "Net-(U10-Pad13)")
      (node (ref U10) (pin 13)))
    (net (code 149) (name "Net-(X1-PadA27)")
      (node (ref X1) (pin A27)))
    (net (code 150) (name "Net-(X1-PadC29)")
      (node (ref X1) (pin C29)))
    (net (code 151) (name "Net-(X1-PadA29)")
      (node (ref X1) (pin A29)))
    (net (code 152) (name "Net-(X1-PadC19)")
      (node (ref X1) (pin C19)))
    (net (code 153) (name "Net-(X1-PadA19)")
      (node (ref X1) (pin A19)))
    (net (code 154) (name "Net-(X1-PadC28)")
      (node (ref X1) (pin C28)))
    (net (code 155) (name "Net-(X1-PadA28)")
      (node (ref X1) (pin A28)))
    (net (code 156) (name "Net-(X1-PadC18)")
      (node (ref X1) (pin C18)))
    (net (code 157) (name "Net-(X1-PadA18)")
      (node (ref X1) (pin A18)))
    (net (code 158) (name "Net-(X1-PadC27)")
      (node (ref X1) (pin C27)))
    (net (code 159) (name "Net-(X1-PadC17)")
      (node (ref X1) (pin C17)))
    (net (code 160) (name "Net-(X1-PadA17)")
      (node (ref X1) (pin A17)))
    (net (code 161) (name "Net-(X1-PadC26)")
      (node (ref X1) (pin C26)))
    (net (code 162) (name "Net-(X1-PadA26)")
      (node (ref X1) (pin A26)))
    (net (code 163) (name "Net-(X1-PadC16)")
      (node (ref X1) (pin C16)))
    (net (code 164) (name "Net-(X1-PadA16)")
      (node (ref X1) (pin A16)))
    (net (code 165) (name "Net-(X1-PadC25)")
      (node (ref X1) (pin C25)))
    (net (code 166) (name "Net-(X1-PadA25)")
      (node (ref X1) (pin A25)))
    (net (code 167) (name "Net-(X1-PadC15)")
      (node (ref X1) (pin C15)))
    (net (code 168) (name "Net-(X1-PadA15)")
      (node (ref X1) (pin A15)))
    (net (code 169) (name "Net-(X1-PadC24)")
      (node (ref X1) (pin C24)))
    (net (code 170) (name "Net-(U6-Pad12)")
      (node (ref U6) (pin 12)))
    (net (code 171) (name "Net-(U6-Pad11)")
      (node (ref U6) (pin 11)))
    (net (code 172) (name "Net-(U6-Pad10)")
      (node (ref U6) (pin 10)))
    (net (code 173) (name "Net-(U6-Pad9)")
      (node (ref U6) (pin 9)))
    (net (code 174) (name "Net-(U6-Pad8)")
      (node (ref U6) (pin 8)))
    (net (code 175) (name "Net-(X1-PadA24)")
      (node (ref X1) (pin A24)))
    (net (code 176) (name "Net-(U6-Pad6)")
      (node (ref U6) (pin 6)))
    (net (code 177) (name "Net-(U6-Pad5)")
      (node (ref U6) (pin 5)))
    (net (code 178) (name "Net-(U6-Pad4)")
      (node (ref U6) (pin 4)))
    (net (code 179) (name "Net-(U6-Pad3)")
      (node (ref U6) (pin 3)))
    (net (code 180) (name "Net-(U6-Pad2)")
      (node (ref U6) (pin 2)))
    (net (code 181) (name "Net-(U6-Pad1)")
      (node (ref U6) (pin 1)))
    (net (code 182) (name "Net-(X1-PadC9)")
      (node (ref X1) (pin C9)))
    (net (code 183) (name "Net-(X1-PadA9)")
      (node (ref X1) (pin A9)))
    (net (code 184) (name "Net-(X1-PadC8)")
      (node (ref X1) (pin C8)))
    (net (code 185) (name "Net-(X1-PadA8)")
      (node (ref X1) (pin A8)))
    (net (code 186) (name "Net-(X1-PadC7)")
      (node (ref X1) (pin C7)))
    (net (code 187) (name "Net-(X1-PadA7)")
      (node (ref X1) (pin A7)))
    (net (code 188) (name "Net-(X1-PadC6)")
      (node (ref X1) (pin C6)))
    (net (code 189) (name "Net-(X1-PadA6)")
      (node (ref X1) (pin A6)))
    (net (code 190) (name "Net-(X1-PadA10)")
      (node (ref X1) (pin A10)))
    (net (code 191) (name "Net-(X1-PadC1)")
      (node (ref X1) (pin C1)))
    (net (code 192) (name "Net-(X1-PadA1)")
      (node (ref X1) (pin A1)))
    (net (code 193) (name "Net-(U10-Pad19)")
      (node (ref U10) (pin 19)))
    (net (code 194) (name "Net-(U10-Pad18)")
      (node (ref U10) (pin 18)))
    (net (code 195) (name "Net-(U10-Pad17)")
      (node (ref U10) (pin 17)))
    (net (code 196) (name "Net-(U10-Pad16)")
      (node (ref U10) (pin 16)))
    (net (code 197) (name "Net-(U10-Pad15)")
      (node (ref U10) (pin 15)))
    (net (code 198) (name "Net-(U10-Pad14)")
      (node (ref U10) (pin 14)))
    (net (code 199) (name "Net-(X1-PadA12)")
      (node (ref X1) (pin A12)))
    (net (code 200) (name "Net-(X1-PadC14)")
      (node (ref X1) (pin C14)))
    (net (code 201) (name "Net-(X1-PadA14)")
      (node (ref X1) (pin A14)))
    (net (code 202) (name "Net-(X1-PadC23)")
      (node (ref X1) (pin C23)))
    (net (code 203) (name "Net-(X1-PadA23)")
      (node (ref X1) (pin A23)))
    (net (code 204) (name "Net-(X1-PadC13)")
      (node (ref X1) (pin C13)))
    (net (code 205) (name "Net-(X1-PadA13)")
      (node (ref X1) (pin A13)))
    (net (code 206) (name "Net-(X1-PadC32)")
      (node (ref X1) (pin C32)))
    (net (code 207) (name "Net-(X1-PadA32)")
      (node (ref X1) (pin A32)))
    (net (code 208) (name "Net-(X1-PadC22)")
      (node (ref X1) (pin C22)))
    (net (code 209) (name "Net-(X1-PadA22)")
      (node (ref X1) (pin A22)))
    (net (code 210) (name "Net-(X1-PadC12)")
      (node (ref X1) (pin C12)))
    (net (code 211) (name "Net-(X1-PadC31)")
      (node (ref X1) (pin C31)))
    (net (code 212) (name "Net-(X1-PadA31)")
      (node (ref X1) (pin A31)))
    (net (code 213) (name "Net-(X1-PadC21)")
      (node (ref X1) (pin C21)))
    (net (code 214) (name "Net-(X1-PadA21)")
      (node (ref X1) (pin A21)))
    (net (code 215) (name "Net-(X1-PadC11)")
      (node (ref X1) (pin C11)))
    (net (code 216) (name "Net-(X1-PadA11)")
      (node (ref X1) (pin A11)))
    (net (code 217) (name "Net-(X1-PadC30)")
      (node (ref X1) (pin C30)))
    (net (code 218) (name "Net-(X1-PadA30)")
      (node (ref X1) (pin A30)))
    (net (code 219) (name "Net-(X1-PadC20)")
      (node (ref X1) (pin C20)))
    (net (code 220) (name "Net-(X1-PadA20)")
      (node (ref X1) (pin A20)))
    (net (code 221) (name "Net-(X1-PadC10)")
      (node (ref X1) (pin C10)))))