EESchema Schematic File Version 5
EELAYER 36 0
EELAYER END
$Descr A3 16535 11693
encoding utf-8
Sheet 1 1
Title "Oak65c02 CPU Board"
Date "2019-12-29"
Rev "001"
Comp "Uwe Gottschling"
Comment1 ""
Comment2 ""
Comment3 ""
Comment4 ""
Comment5 ""
Comment6 ""
Comment7 ""
Comment8 ""
Comment9 ""
$EndDescr
Connection ~ 1250 6450
Connection ~ 1250 7850
Connection ~ 2050 3000
Connection ~ 2050 3100
Connection ~ 2050 3200
Connection ~ 2200 3650
Connection ~ 2200 3750
Connection ~ 2200 3850
Connection ~ 2350 6850
Connection ~ 2350 7300
Connection ~ 3600 1000
Connection ~ 3600 1800
Connection ~ 3900 1200
Connection ~ 4400 4050
Connection ~ 4400 4950
Connection ~ 4600 4050
Connection ~ 4600 4750
Connection ~ 4800 4050
Connection ~ 5000 4050
Connection ~ 5000 5150
Connection ~ 5750 8700
Connection ~ 5800 2800
Connection ~ 5800 2900
Connection ~ 5800 3000
Connection ~ 5800 3100
Connection ~ 5800 3200
Connection ~ 5800 3400
Connection ~ 7000 3650
Connection ~ 7300 6950
Connection ~ 8600 900 
Connection ~ 8600 1500
Connection ~ 8700 7300
Connection ~ 8700 8350
Connection ~ 8900 900 
Connection ~ 8900 1500
Connection ~ 9200 900 
Connection ~ 9200 1500
Connection ~ 9500 900 
Connection ~ 9500 1500
Connection ~ 9800 900 
Connection ~ 9800 1500
Connection ~ 10100 900 
Connection ~ 10100 1500
Connection ~ 10400 900 
Connection ~ 10400 1500
Connection ~ 10700 900 
Connection ~ 10700 1500
Connection ~ 11000 900 
Connection ~ 11000 1500
Connection ~ 11350 900 
Connection ~ 11350 1500
Connection ~ 11800 900 
Connection ~ 11800 1500
Connection ~ 12250 900 
Connection ~ 12250 1500
Connection ~ 12350 7700
Connection ~ 14450 1800
Connection ~ 14500 8100
Entry Wire Line
	5250 5350 5350 5250
Entry Wire Line
	5250 5450 5350 5350
Entry Wire Line
	5250 5550 5350 5450
Entry Wire Line
	5250 5650 5350 5550
Entry Wire Line
	5250 5750 5350 5650
Entry Wire Line
	5250 5850 5350 5750
Entry Wire Line
	5250 5950 5350 5850
Entry Wire Line
	5250 6050 5350 5950
Entry Wire Line
	5250 6150 5350 6050
Entry Wire Line
	5250 6250 5350 6150
Entry Wire Line
	5250 6350 5350 6250
Entry Wire Line
	5250 6450 5350 6350
Entry Wire Line
	5950 1700 6050 1800
Entry Wire Line
	5950 1800 6050 1900
Entry Wire Line
	5950 1900 6050 2000
Entry Wire Line
	5950 2000 6050 2100
Entry Wire Line
	5950 2100 6050 2200
Entry Wire Line
	5950 2200 6050 2300
Entry Wire Line
	5950 2300 6050 2400
Entry Wire Line
	5950 2400 6050 2500
Entry Wire Line
	5950 2500 6050 2600
Entry Wire Line
	7650 5150 7750 5050
Entry Wire Line
	7650 5250 7750 5150
Entry Wire Line
	7650 5350 7750 5250
Entry Wire Line
	7650 5450 7750 5350
Entry Wire Line
	7650 5550 7750 5450
Entry Wire Line
	7650 5650 7750 5550
Entry Wire Line
	7650 5750 7750 5650
Entry Wire Line
	7650 5850 7750 5750
Entry Wire Line
	7650 5950 7750 6050
Entry Wire Line
	7650 6050 7750 6150
Entry Wire Line
	7650 6150 7750 6250
Entry Wire Line
	7650 6250 7750 6350
Entry Wire Line
	10350 2750 10450 2850
Entry Wire Line
	10350 2850 10450 2950
Entry Wire Line
	10350 2950 10450 3050
Entry Wire Line
	10350 3050 10450 3150
Entry Wire Line
	10350 3150 10450 3250
Entry Wire Line
	10350 3250 10450 3350
Entry Wire Line
	10350 3350 10450 3450
Entry Wire Line
	10350 3450 10450 3550
Entry Wire Line
	10350 4600 10450 4700
Entry Wire Line
	10350 4700 10450 4800
Entry Wire Line
	10350 4800 10450 4900
Entry Wire Line
	10350 4900 10450 5000
Entry Wire Line
	10350 5000 10450 5100
Entry Wire Line
	10350 5100 10450 5200
Entry Wire Line
	10350 5200 10450 5300
Entry Wire Line
	10350 5300 10450 5400
Entry Wire Line
	10350 6200 10450 6300
Entry Wire Line
	10350 6300 10450 6400
Entry Wire Line
	10350 6400 10450 6500
Entry Wire Line
	10350 6500 10450 6600
Entry Wire Line
	10350 6600 10450 6700
Entry Wire Line
	10350 6700 10450 6800
Entry Wire Line
	10350 6800 10450 6900
Entry Wire Line
	10350 6900 10450 7000
Wire Wire Line
	1250 6350 1250 6450
Wire Wire Line
	1250 6450 1250 6850
Wire Wire Line
	1250 6850 1800 6850
Wire Wire Line
	1250 7300 1250 7850
Wire Wire Line
	1250 7850 1250 7950
Wire Wire Line
	1700 7300 1250 7300
Wire Wire Line
	1800 6450 1250 6450
Wire Wire Line
	1800 7850 1250 7850
Wire Wire Line
	2050 2850 2050 3000
Wire Wire Line
	2050 3000 2050 3100
Wire Wire Line
	2050 3100 2050 3200
Wire Wire Line
	2050 3200 2050 3300
Wire Wire Line
	2050 3300 2350 3300
Wire Wire Line
	2200 1200 2450 1200
Wire Wire Line
	2200 1800 2200 1200
Wire Wire Line
	2200 2150 2200 3400
Wire Wire Line
	2200 2150 3900 2150
Wire Wire Line
	2200 3400 2350 3400
Wire Wire Line
	2200 3550 2200 3650
Wire Wire Line
	2200 3650 2200 3750
Wire Wire Line
	2200 3750 2200 3850
Wire Wire Line
	2200 3850 2200 4000
Wire Wire Line
	2200 3850 2350 3850
Wire Wire Line
	2200 7300 2350 7300
Wire Wire Line
	2350 3000 2050 3000
Wire Wire Line
	2350 3100 2050 3100
Wire Wire Line
	2350 3200 2050 3200
Wire Wire Line
	2350 3550 2200 3550
Wire Wire Line
	2350 3650 2200 3650
Wire Wire Line
	2350 3750 2200 3750
Wire Wire Line
	2350 6450 2100 6450
Wire Wire Line
	2350 6450 2350 6850
Wire Wire Line
	2350 6850 2100 6850
Wire Wire Line
	2350 6850 2350 7300
Wire Wire Line
	2350 7300 2350 7850
Wire Wire Line
	2350 7300 2450 7300
Wire Wire Line
	2350 7850 2100 7850
Wire Wire Line
	2800 2550 2800 2650
Wire Wire Line
	2950 2550 2800 2550
Wire Wire Line
	2950 2900 2950 2550
Wire Wire Line
	3050 2900 3050 2750
Wire Wire Line
	3250 1000 3600 1000
Wire Wire Line
	3250 1200 3900 1200
Wire Wire Line
	3450 3650 3700 3650
Wire Wire Line
	3550 7300 3650 7300
Wire Wire Line
	3600 800  3600 1000
Wire Wire Line
	3600 1000 3600 1450
Wire Wire Line
	3600 1750 3600 1800
Wire Wire Line
	3600 1800 2200 1800
Wire Wire Line
	3600 1800 3600 1900
Wire Wire Line
	3900 1200 3950 1200
Wire Wire Line
	3900 2150 3900 1200
Wire Wire Line
	3950 4750 4600 4750
Wire Wire Line
	3950 4950 4400 4950
Wire Wire Line
	4200 4050 4200 4100
Wire Wire Line
	4200 4050 4400 4050
Wire Wire Line
	4200 4400 4200 4650
Wire Wire Line
	4200 4650 5550 4650
Wire Wire Line
	4400 4050 4600 4050
Wire Wire Line
	4400 4100 4400 4050
Wire Wire Line
	4400 4950 4400 4400
Wire Wire Line
	4400 4950 5550 4950
Wire Wire Line
	4600 4050 4800 4050
Wire Wire Line
	4600 4100 4600 4050
Wire Wire Line
	4600 4750 4600 4400
Wire Wire Line
	4600 4750 5550 4750
Wire Wire Line
	4800 4050 5000 4050
Wire Wire Line
	4800 4100 4800 4050
Wire Wire Line
	4800 4550 4800 4400
Wire Wire Line
	4850 7300 4750 7300
Wire Wire Line
	5000 3950 5000 4050
Wire Wire Line
	5000 4050 5000 5150
Wire Wire Line
	5000 5150 5000 6450
Wire Wire Line
	5000 5150 5550 5150
Wire Wire Line
	5000 6950 5000 6750
Wire Wire Line
	5350 5250 5550 5250
Wire Wire Line
	5350 5550 5550 5550
Wire Wire Line
	5350 5750 5550 5750
Wire Wire Line
	5400 1200 5050 1200
Wire Wire Line
	5550 4550 4800 4550
Wire Wire Line
	5550 5350 5350 5350
Wire Wire Line
	5550 5450 5350 5450
Wire Wire Line
	5550 5650 5350 5650
Wire Wire Line
	5550 5850 5350 5850
Wire Wire Line
	5550 5950 5350 5950
Wire Wire Line
	5550 6050 5350 6050
Wire Wire Line
	5550 6150 5350 6150
Wire Wire Line
	5550 6250 5350 6250
Wire Wire Line
	5550 6350 5350 6350
Wire Wire Line
	5600 8700 5750 8700
Wire Wire Line
	5750 8500 5750 8700
Wire Wire Line
	5750 8700 5900 8700
Wire Wire Line
	5800 2600 5800 2800
Wire Wire Line
	5800 2800 5800 2900
Wire Wire Line
	5800 2900 5800 3000
Wire Wire Line
	5800 3000 5800 3100
Wire Wire Line
	5800 3100 5800 3200
Wire Wire Line
	5800 3200 5800 3400
Wire Wire Line
	5800 3400 5800 3500
Wire Wire Line
	5800 3400 6450 3400
Wire Wire Line
	5800 3500 6450 3500
Wire Wire Line
	5850 7750 5700 7750
Wire Wire Line
	5900 8500 5750 8500
Wire Wire Line
	6350 3300 6450 3300
Wire Wire Line
	6350 3650 6350 3300
Wire Wire Line
	6400 7450 6400 7500
Wire Wire Line
	6400 8050 6400 8000
Wire Wire Line
	6450 1800 6050 1800
Wire Wire Line
	6450 1900 6050 1900
Wire Wire Line
	6450 2000 6050 2000
Wire Wire Line
	6450 2100 6050 2100
Wire Wire Line
	6450 2200 6050 2200
Wire Wire Line
	6450 2300 6050 2300
Wire Wire Line
	6450 2400 6050 2400
Wire Wire Line
	6450 2500 6050 2500
Wire Wire Line
	6450 2600 6050 2600
Wire Wire Line
	6450 2800 5800 2800
Wire Wire Line
	6450 2900 5800 2900
Wire Wire Line
	6450 3000 5800 3000
Wire Wire Line
	6450 3100 5800 3100
Wire Wire Line
	6450 3200 5800 3200
Wire Wire Line
	6900 8600 7050 8600
Wire Wire Line
	6950 4450 7900 4450
Wire Wire Line
	6950 4750 7900 4750
Wire Wire Line
	6950 5050 7650 5050
Wire Wire Line
	6950 5150 7650 5150
Wire Wire Line
	6950 5250 7650 5250
Wire Wire Line
	6950 5350 7650 5350
Wire Wire Line
	6950 5550 7650 5550
Wire Wire Line
	6950 5750 7650 5750
Wire Wire Line
	6950 5950 7650 5950
Wire Wire Line
	6950 6050 7650 6050
Wire Wire Line
	6950 6150 7650 6150
Wire Wire Line
	6950 6250 7650 6250
Wire Wire Line
	6950 6350 7300 6350
Wire Wire Line
	6950 7750 7100 7750
Wire Wire Line
	7000 1600 7000 1750
Wire Wire Line
	7000 3650 6350 3650
Wire Wire Line
	7000 3650 7000 3550
Wire Wire Line
	7000 3750 7000 3650
Wire Wire Line
	7250 4100 7250 3950
Wire Wire Line
	7250 4400 7250 4850
Wire Wire Line
	7250 4850 6950 4850
Wire Wire Line
	7300 6350 7300 6950
Wire Wire Line
	7300 6950 5000 6950
Wire Wire Line
	7300 6950 7300 7050
Wire Wire Line
	7550 2700 7600 2700
Wire Wire Line
	7650 4850 8300 4850
Wire Wire Line
	7650 5050 7650 4850
Wire Wire Line
	7650 5450 6950 5450
Wire Wire Line
	7650 5650 6950 5650
Wire Wire Line
	7650 5850 6950 5850
Wire Wire Line
	8200 7750 8050 7750
Wire Wire Line
	8200 7950 8050 7950
Wire Wire Line
	8600 800  8600 900 
Wire Wire Line
	8600 900  8600 1050
Wire Wire Line
	8600 900  8900 900 
Wire Wire Line
	8600 1350 8600 1500
Wire Wire Line
	8600 1500 8600 1700
Wire Wire Line
	8600 1500 8900 1500
Wire Wire Line
	8700 7200 8700 7300
Wire Wire Line
	8700 7300 8700 7600
Wire Wire Line
	8700 8100 8700 8350
Wire Wire Line
	8700 8350 8700 8450
Wire Wire Line
	8900 900  9200 900 
Wire Wire Line
	8900 1050 8900 900 
Wire Wire Line
	8900 1350 8900 1500
Wire Wire Line
	8900 1500 9200 1500
Wire Wire Line
	9150 7300 8700 7300
Wire Wire Line
	9150 7350 9150 7300
Wire Wire Line
	9150 7650 9150 8350
Wire Wire Line
	9150 8350 8700 8350
Wire Wire Line
	9200 900  9500 900 
Wire Wire Line
	9200 1050 9200 900 
Wire Wire Line
	9200 1500 9200 1350
Wire Wire Line
	9200 1500 9500 1500
Wire Wire Line
	9200 7850 9400 7850
Wire Wire Line
	9500 900  9500 1050
Wire Wire Line
	9500 900  9800 900 
Wire Wire Line
	9500 1500 9500 1350
Wire Wire Line
	9500 1500 9800 1500
Wire Wire Line
	9800 900  10100 900 
Wire Wire Line
	9800 1050 9800 900 
Wire Wire Line
	9800 1350 9800 1500
Wire Wire Line
	9800 1500 10100 1500
Wire Wire Line
	10100 900  10400 900 
Wire Wire Line
	10100 1050 10100 900 
Wire Wire Line
	10100 1350 10100 1500
Wire Wire Line
	10100 1500 10400 1500
Wire Wire Line
	10350 8250 10850 8250
Wire Wire Line
	10400 900  10700 900 
Wire Wire Line
	10400 1050 10400 900 
Wire Wire Line
	10400 1350 10400 1500
Wire Wire Line
	10400 1500 10700 1500
Wire Wire Line
	10450 4800 10850 4800
Wire Wire Line
	10450 5000 10850 5000
Wire Wire Line
	10450 5200 10850 5200
Wire Wire Line
	10550 4400 10550 5550
Wire Wire Line
	10550 6000 10550 7150
Wire Wire Line
	10700 900  11000 900 
Wire Wire Line
	10700 1050 10700 900 
Wire Wire Line
	10700 1350 10700 1500
Wire Wire Line
	10700 1500 11000 1500
Wire Wire Line
	10750 4550 10750 4250
Wire Wire Line
	10750 6150 10750 5900
Wire Wire Line
	10850 2850 10450 2850
Wire Wire Line
	10850 2950 10450 2950
Wire Wire Line
	10850 3050 10450 3050
Wire Wire Line
	10850 3150 10450 3150
Wire Wire Line
	10850 3250 10450 3250
Wire Wire Line
	10850 3350 10450 3350
Wire Wire Line
	10850 3450 10450 3450
Wire Wire Line
	10850 3550 10450 3550
Wire Wire Line
	10850 4400 10550 4400
Wire Wire Line
	10850 4550 10750 4550
Wire Wire Line
	10850 4700 10450 4700
Wire Wire Line
	10850 4900 10450 4900
Wire Wire Line
	10850 5100 10450 5100
Wire Wire Line
	10850 5300 10450 5300
Wire Wire Line
	10850 5400 10450 5400
Wire Wire Line
	10850 6000 10550 6000
Wire Wire Line
	10850 6150 10750 6150
Wire Wire Line
	10850 6300 10450 6300
Wire Wire Line
	10850 6400 10450 6400
Wire Wire Line
	10850 6500 10450 6500
Wire Wire Line
	10850 6600 10450 6600
Wire Wire Line
	10850 6700 10450 6700
Wire Wire Line
	10850 6800 10450 6800
Wire Wire Line
	10850 6900 10450 6900
Wire Wire Line
	10850 7000 10450 7000
Wire Wire Line
	10850 7850 10500 7850
Wire Wire Line
	10850 7950 10750 7950
Wire Wire Line
	10850 8050 10350 8050
Wire Wire Line
	10850 8150 10750 8150
Wire Wire Line
	10850 8350 10750 8350
Wire Wire Line
	11000 900  11000 1050
Wire Wire Line
	11000 900  11350 900 
Wire Wire Line
	11000 1350 11000 1500
Wire Wire Line
	11000 1500 11350 1500
Wire Wire Line
	11200 2450 11200 2300
Wire Wire Line
	11200 7350 11200 7450
Wire Wire Line
	11300 3900 11300 3950
Wire Wire Line
	11350 900  11800 900 
Wire Wire Line
	11350 1050 11350 900 
Wire Wire Line
	11350 1350 11350 1500
Wire Wire Line
	11350 1500 11800 1500
Wire Wire Line
	11350 2050 11500 2050
Wire Wire Line
	11350 2450 11350 2050
Wire Wire Line
	11350 7200 11600 7200
Wire Wire Line
	11350 7450 11350 7200
Wire Wire Line
	11450 3900 11300 3900
Wire Wire Line
	11450 4300 11450 3900
Wire Wire Line
	11450 5600 11300 5600
Wire Wire Line
	11450 5900 11450 5600
Wire Wire Line
	11500 2050 11500 2150
Wire Wire Line
	11600 4200 11600 4300
Wire Wire Line
	11600 5800 11600 5900
Wire Wire Line
	11600 7200 11600 7250
Wire Wire Line
	11800 900  12250 900 
Wire Wire Line
	11800 1050 11800 900 
Wire Wire Line
	11800 1350 11800 1500
Wire Wire Line
	11800 1500 12250 1500
Wire Wire Line
	11950 3050 12500 3050
Wire Wire Line
	11950 3250 12600 3250
Wire Wire Line
	11950 3450 12700 3450
Wire Wire Line
	11950 4700 12850 4700
Wire Wire Line
	11950 4800 12950 4800
Wire Wire Line
	11950 4900 13050 4900
Wire Wire Line
	11950 5000 13150 5000
Wire Wire Line
	11950 5100 13250 5100
Wire Wire Line
	11950 5200 13350 5200
Wire Wire Line
	11950 5300 13450 5300
Wire Wire Line
	11950 5400 13550 5400
Wire Wire Line
	11950 6300 13650 6300
Wire Wire Line
	11950 6400 13750 6400
Wire Wire Line
	11950 6500 13850 6500
Wire Wire Line
	11950 6600 13950 6600
Wire Wire Line
	11950 6700 14050 6700
Wire Wire Line
	11950 6800 14150 6800
Wire Wire Line
	11950 6900 14250 6900
Wire Wire Line
	11950 7000 14350 7000
Wire Wire Line
	11950 7550 12350 7550
Wire Wire Line
	11950 7700 12350 7700
Wire Wire Line
	11950 7850 13200 7850
Wire Wire Line
	11950 7950 12800 7950
Wire Wire Line
	11950 8050 13400 8050
Wire Wire Line
	11950 8150 13500 8150
Wire Wire Line
	11950 8250 12900 8250
Wire Wire Line
	11950 8350 13600 8350
Wire Wire Line
	12100 2550 11950 2550
Wire Wire Line
	12100 2700 11950 2700
Wire Wire Line
	12250 900  12750 900 
Wire Wire Line
	12250 1050 12250 900 
Wire Wire Line
	12250 1350 12250 1500
Wire Wire Line
	12250 1500 12750 1500
Wire Wire Line
	12350 7550 12350 7700
Wire Wire Line
	12350 7700 12350 8950
Wire Wire Line
	12400 2000 12400 2850
Wire Wire Line
	12400 2000 14700 2000
Wire Wire Line
	12400 2850 11950 2850
Wire Wire Line
	12450 2100 12450 2950
Wire Wire Line
	12450 2100 14700 2100
Wire Wire Line
	12450 2950 11950 2950
Wire Wire Line
	12500 2200 14700 2200
Wire Wire Line
	12500 3050 12500 2200
Wire Wire Line
	12550 2300 12550 3150
Wire Wire Line
	12550 2300 14700 2300
Wire Wire Line
	12550 3150 11950 3150
Wire Wire Line
	12600 2400 14700 2400
Wire Wire Line
	12600 3250 12600 2400
Wire Wire Line
	12650 2500 12650 3350
Wire Wire Line
	12650 2500 14700 2500
Wire Wire Line
	12650 3350 11950 3350
Wire Wire Line
	12700 2600 14700 2600
Wire Wire Line
	12700 3450 12700 2600
Wire Wire Line
	12750 900  12750 1050
Wire Wire Line
	12750 1500 12750 1350
Wire Wire Line
	12750 2700 12750 3550
Wire Wire Line
	12750 2700 14700 2700
Wire Wire Line
	12750 3550 11950 3550
Wire Wire Line
	12800 2800 14700 2800
Wire Wire Line
	12800 7950 12800 2800
Wire Wire Line
	12850 2900 14700 2900
Wire Wire Line
	12850 4700 12850 2900
Wire Wire Line
	12900 3000 14700 3000
Wire Wire Line
	12900 8250 12900 3000
Wire Wire Line
	12950 3100 14700 3100
Wire Wire Line
	12950 4800 12950 3100
Wire Wire Line
	13050 3300 14700 3300
Wire Wire Line
	13050 4900 13050 3300
Wire Wire Line
	13150 3500 14700 3500
Wire Wire Line
	13150 5000 13150 3500
Wire Wire Line
	13200 3600 14700 3600
Wire Wire Line
	13200 7850 13200 3600
Wire Wire Line
	13250 3700 14700 3700
Wire Wire Line
	13250 5100 13250 3700
Wire Wire Line
	13350 3900 14700 3900
Wire Wire Line
	13350 5200 13350 3900
Wire Wire Line
	13400 4000 14700 4000
Wire Wire Line
	13400 8050 13400 4000
Wire Wire Line
	13450 4100 14700 4100
Wire Wire Line
	13450 5300 13450 4100
Wire Wire Line
	13500 4200 14700 4200
Wire Wire Line
	13500 8150 13500 4200
Wire Wire Line
	13550 4300 14700 4300
Wire Wire Line
	13550 5400 13550 4300
Wire Wire Line
	13600 850  13600 1150
Wire Wire Line
	13600 1450 13600 1650
Wire Wire Line
	13600 4400 14700 4400
Wire Wire Line
	13600 8350 13600 4400
Wire Wire Line
	13650 4500 14700 4500
Wire Wire Line
	13650 6300 13650 4500
Wire Wire Line
	13750 4700 14700 4700
Wire Wire Line
	13750 6400 13750 4700
Wire Wire Line
	13850 4900 14700 4900
Wire Wire Line
	13850 6500 13850 4900
Wire Wire Line
	13950 5100 14700 5100
Wire Wire Line
	13950 6600 13950 5100
Wire Wire Line
	14050 5300 14700 5300
Wire Wire Line
	14050 6700 14050 5300
Wire Wire Line
	14150 5500 14700 5500
Wire Wire Line
	14150 6800 14150 5500
Wire Wire Line
	14250 5700 14700 5700
Wire Wire Line
	14250 6900 14250 5700
Wire Wire Line
	14350 5900 14700 5900
Wire Wire Line
	14350 7000 14350 5900
Wire Wire Line
	14450 1450 14450 1800
Wire Wire Line
	14450 1800 14450 1900
Wire Wire Line
	14450 1800 14700 1800
Wire Wire Line
	14450 1900 14700 1900
Wire Wire Line
	14500 8000 14500 8100
Wire Wire Line
	14500 8100 14500 8250
Wire Wire Line
	14700 3200 13900 3200
Wire Wire Line
	14700 3400 13900 3400
Wire Wire Line
	14700 3800 13950 3800
Wire Wire Line
	14700 7600 14400 7600
Wire Wire Line
	14700 8000 14500 8000
Wire Wire Line
	14700 8100 14500 8100
Wire Bus Line
	5250 5350 5250 5450
Wire Bus Line
	5250 5450 5250 5550
Wire Bus Line
	5250 5550 5250 5650
Wire Bus Line
	5250 5650 5250 5750
Wire Bus Line
	5250 5750 5250 5850
Wire Bus Line
	5250 5850 5250 5950
Wire Bus Line
	5250 5950 5250 6050
Wire Bus Line
	5250 6050 5250 6150
Wire Bus Line
	5250 6150 5250 6250
Wire Bus Line
	5250 6250 5250 6350
Wire Bus Line
	5250 6350 5250 6450
Wire Bus Line
	5250 6450 5250 6650
Wire Bus Line
	5250 6650 7750 6650
Wire Bus Line
	5750 1700 5950 1700
Wire Bus Line
	5950 1700 5950 1800
Wire Bus Line
	5950 1800 5950 1900
Wire Bus Line
	5950 1900 5950 2000
Wire Bus Line
	5950 2000 5950 2100
Wire Bus Line
	5950 2100 5950 2200
Wire Bus Line
	5950 2200 5950 2300
Wire Bus Line
	5950 2300 5950 2400
Wire Bus Line
	5950 2400 5950 2500
Wire Bus Line
	5950 2500 5950 2550
Wire Bus Line
	7750 4950 7750 5050
Wire Bus Line
	7750 4950 7900 4950
Wire Bus Line
	7750 5050 7750 5150
Wire Bus Line
	7750 5150 7750 5250
Wire Bus Line
	7750 5250 7750 5350
Wire Bus Line
	7750 5350 7750 5450
Wire Bus Line
	7750 5450 7750 5550
Wire Bus Line
	7750 5550 7750 5650
Wire Bus Line
	7750 5650 7750 5750
Wire Bus Line
	7750 5950 7750 6050
Wire Bus Line
	7750 5950 7900 5950
Wire Bus Line
	7750 6050 7750 6150
Wire Bus Line
	7750 6150 7750 6250
Wire Bus Line
	7750 6250 7750 6350
Wire Bus Line
	7750 6350 7750 6650
Wire Bus Line
	10050 4350 10350 4350
Wire Bus Line
	10350 2750 10050 2750
Wire Bus Line
	10350 2750 10350 2850
Wire Bus Line
	10350 2850 10350 2950
Wire Bus Line
	10350 2950 10350 3050
Wire Bus Line
	10350 3050 10350 3150
Wire Bus Line
	10350 3150 10350 3250
Wire Bus Line
	10350 3250 10350 3350
Wire Bus Line
	10350 3350 10350 3450
Wire Bus Line
	10350 4350 10350 4600
Wire Bus Line
	10350 4600 10350 4700
Wire Bus Line
	10350 4700 10350 4800
Wire Bus Line
	10350 4800 10350 4900
Wire Bus Line
	10350 4900 10350 5000
Wire Bus Line
	10350 5000 10350 5100
Wire Bus Line
	10350 5100 10350 5200
Wire Bus Line
	10350 5200 10350 5300
Wire Bus Line
	10350 5300 10350 6200
Wire Bus Line
	10350 6200 10350 6300
Wire Bus Line
	10350 6300 10350 6400
Wire Bus Line
	10350 6400 10350 6500
Wire Bus Line
	10350 6500 10350 6600
Wire Bus Line
	10350 6600 10350 6700
Wire Bus Line
	10350 6700 10350 6800
Wire Bus Line
	10350 6800 10350 6900
Text Notes 1650 6300 0    50   ~ 0
RESET-LOGIC
Text Notes 3450 3650 0    60   ~ 0
2MHz
Text Notes 5600 4200 0    50   ~ 0
Work with 65C816 or 65C02.
Text Notes 7300 3350 0    50   ~ 0
~{IORQ} $DF00 to $DFFF
Text Label 5400 5250 0    50   ~ 0
A0
Text Label 5400 5350 0    50   ~ 0
A1
Text Label 5400 5450 0    50   ~ 0
A2
Text Label 5400 5550 0    50   ~ 0
A3
Text Label 5400 5650 0    50   ~ 0
A4
Text Label 5400 5750 0    50   ~ 0
A5
Text Label 5400 5850 0    50   ~ 0
A6
Text Label 5400 5950 0    50   ~ 0
A7
Text Label 5400 6050 0    50   ~ 0
A8
Text Label 5400 6150 0    50   ~ 0
A9
Text Label 5400 6250 0    50   ~ 0
A10
Text Label 5400 6350 0    50   ~ 0
A11
Text Label 6100 1800 0    50   ~ 0
A7
Text Label 6100 1900 0    50   ~ 0
A8
Text Label 6100 2000 0    50   ~ 0
A9
Text Label 6100 2100 0    50   ~ 0
A10
Text Label 6100 2200 0    50   ~ 0
A11
Text Label 6100 2300 0    50   ~ 0
A12
Text Label 6100 2400 0    50   ~ 0
A13
Text Label 6100 2500 0    50   ~ 0
A14
Text Label 6100 2600 0    50   ~ 0
A15
Text Label 7100 5150 0    50   ~ 0
D0
Text Label 7100 5250 0    50   ~ 0
D1
Text Label 7100 5350 0    50   ~ 0
D2
Text Label 7100 5450 0    50   ~ 0
D3
Text Label 7100 5550 0    50   ~ 0
D4
Text Label 7100 5650 0    50   ~ 0
D5
Text Label 7100 5750 0    50   ~ 0
D6
Text Label 7100 5850 0    50   ~ 0
D7
Text Label 7100 5950 0    50   ~ 0
A15
Text Label 7100 6050 0    50   ~ 0
A14
Text Label 7100 6150 0    50   ~ 0
A13
Text Label 7100 6250 0    50   ~ 0
A12
Text Label 10650 2850 0    50   ~ 0
D0
Text Label 10650 2950 0    50   ~ 0
D1
Text Label 10650 3050 0    50   ~ 0
D2
Text Label 10650 3150 0    50   ~ 0
D3
Text Label 10650 3250 0    50   ~ 0
D4
Text Label 10650 3350 0    50   ~ 0
D5
Text Label 10650 3450 0    50   ~ 0
D6
Text Label 10650 3550 0    50   ~ 0
D7
Text Label 10650 4700 0    50   ~ 0
A0
Text Label 10650 4800 0    50   ~ 0
A1
Text Label 10650 4900 0    50   ~ 0
A2
Text Label 10650 5000 0    50   ~ 0
A3
Text Label 10650 5100 0    50   ~ 0
A4
Text Label 10650 5200 0    50   ~ 0
A5
Text Label 10650 5300 0    50   ~ 0
A6
Text Label 10650 5400 0    50   ~ 0
A7
Text Label 10650 6300 0    50   ~ 0
A8
Text Label 10650 6400 0    50   ~ 0
A9
Text Label 10650 6500 0    50   ~ 0
A10
Text Label 10650 6600 0    50   ~ 0
A11
Text Label 10650 6700 0    50   ~ 0
A12
Text Label 10650 6800 0    50   ~ 0
A13
Text Label 10650 6900 0    50   ~ 0
A14
Text Label 10650 7000 0    50   ~ 0
A15
Text GLabel 3700 3650 2    50   Output ~ 0
PHI2
Text GLabel 3950 4750 0    50   Input ~ 0
~{IRQ}
Text GLabel 3950 4950 0    50   Input ~ 0
~{NMI}
Text GLabel 4850 7300 2    50   Output ~ 0
~{RESET}
Text GLabel 5400 1200 2    50   Output ~ 0
8MHz
Text GLabel 5600 8700 0    50   Input ~ 0
PHI2
Text GLabel 5700 7750 0    50   Input ~ 0
R_~{W}
Text GLabel 5750 1700 0    50   Input ~ 0
ADDRESSBUS
Text GLabel 7050 8600 2    50   Output ~ 0
~{PHI2}
Text GLabel 7100 7750 2    50   Output ~ 0
~{R}_W
Text GLabel 7600 2700 2    50   Output ~ 0
~{IORQ}
Text GLabel 7900 4450 2    50   Input ~ 0
~{RESET}
Text GLabel 7900 4750 2    50   Input ~ 0
PHI2
Text GLabel 7900 4950 2    50   BiDi ~ 0
DATABUS
Text GLabel 7900 5950 2    50   Output ~ 0
ADDRESSBUS
Text GLabel 8050 7750 0    50   Input ~ 0
PHI2
Text GLabel 8050 7950 0    50   Input ~ 0
~{R}_W
Text GLabel 8300 4850 2    50   Output ~ 0
R_~{W}
Text GLabel 9400 7850 2    50   Output ~ 0
RAM_R_~{W}
Text GLabel 10050 2750 0    50   BiDi ~ 0
DATABUS
Text GLabel 10050 4350 0    50   Input ~ 0
ADDRESSBUS
Text GLabel 10350 8050 0    50   Input ~ 0
~{IORQ}
Text GLabel 10350 8250 0    50   Input ~ 0
PHI2
Text GLabel 10500 7850 0    50   Input ~ 0
RAM_R_~{W}
Text GLabel 10750 7950 0    50   Input ~ 0
R_~{W}
Text GLabel 10750 8150 0    50   Input ~ 0
~{R}_W
Text GLabel 10750 8350 0    50   Input ~ 0
~{PHI2}
Text GLabel 12100 2550 2    50   Input ~ 0
~{PHI2}
Text GLabel 12100 2700 2    50   Input ~ 0
R_~{W}
Text GLabel 13900 3200 0    50   Input ~ 0
~{IRQ}
Text GLabel 13900 3400 0    50   Input ~ 0
~{NMI}
Text GLabel 13950 3800 0    50   Input ~ 0
~{RESET}
Text GLabel 14400 7600 0    50   Input ~ 0
8MHz
$Comp
L 6502-rescue:+5V #PWR01
U 1 1 59EE674D
P 1250 6350
F 0 "#PWR01" H 1250 6200 50  0001 C CNN
F 1 "+5V" H 1250 6490 50  0000 C CNN
F 2 "" H 1250 6350 50  0001 C CNN
F 3 "" H 1250 6350 50  0001 C CNN
	1    1250 6350
	1    0    0    -1  
$EndComp
$Comp
L 6502-rescue:+5V #PWR03
U 1 1 59EE2964
P 2050 2850
F 0 "#PWR03" H 2050 2700 50  0001 C CNN
F 1 "+5V" H 2050 2990 50  0000 C CNN
F 2 "" H 2050 2850 50  0001 C CNN
F 3 "" H 2050 2850 50  0001 C CNN
	1    2050 2850
	1    0    0    -1  
$EndComp
$Comp
L 6502-rescue:+5V #PWR06
U 1 1 59F64AF9
P 3050 2750
F 0 "#PWR06" H 3050 2600 50  0001 C CNN
F 1 "+5V" H 3050 2890 50  0000 C CNN
F 2 "" H 3050 2750 50  0001 C CNN
F 3 "" H 3050 2750 50  0001 C CNN
	1    3050 2750
	1    0    0    -1  
$EndComp
$Comp
L 6502-rescue:+5V #PWR07
U 1 1 59ECF8F4
P 3600 800
F 0 "#PWR07" H 3600 650 50  0001 C CNN
F 1 "+5V" H 3600 940 50  0000 C CNN
F 2 "" H 3600 800 50  0001 C CNN
F 3 "" H 3600 800 50  0001 C CNN
	1    3600 800 
	1    0    0    -1  
$EndComp
$Comp
L 6502-rescue:+5V #PWR09
U 1 1 59ED0C0E
P 5000 3950
F 0 "#PWR09" H 5000 3800 50  0001 C CNN
F 1 "+5V" H 5000 4090 50  0000 C CNN
F 2 "" H 5000 3950 50  0001 C CNN
F 3 "" H 5000 3950 50  0001 C CNN
	1    5000 3950
	1    0    0    -1  
$EndComp
$Comp
L 6502-rescue:+5V #PWR010
U 1 1 5A55A81A
P 5800 2600
F 0 "#PWR010" H 5800 2450 50  0001 C CNN
F 1 "+5V" H 5800 2740 50  0000 C CNN
F 2 "" H 5800 2600 50  0001 C CNN
F 3 "" H 5800 2600 50  0001 C CNN
	1    5800 2600
	1    0    0    -1  
$EndComp
$Comp
L 6502-rescue:+5V #PWR011
U 1 1 59F63B14
P 6400 7450
F 0 "#PWR011" H 6400 7300 50  0001 C CNN
F 1 "+5V" H 6400 7590 50  0000 C CNN
F 2 "" H 6400 7450 50  0001 C CNN
F 3 "" H 6400 7450 50  0001 C CNN
	1    6400 7450
	1    0    0    -1  
$EndComp
$Comp
L 6502-rescue:+5V #PWR013
U 1 1 59F65BDA
P 7000 1600
F 0 "#PWR013" H 7000 1450 50  0001 C CNN
F 1 "+5V" H 7000 1740 50  0000 C CNN
F 2 "" H 7000 1600 50  0001 C CNN
F 3 "" H 7000 1600 50  0001 C CNN
	1    7000 1600
	1    0    0    -1  
$EndComp
$Comp
L 6502-rescue:+5V #PWR015
U 1 1 59EE3EDC
P 7250 3950
F 0 "#PWR015" H 7250 3800 50  0001 C CNN
F 1 "+5V" H 7250 4090 50  0000 C CNN
F 2 "" H 7250 3950 50  0001 C CNN
F 3 "" H 7250 3950 50  0001 C CNN
	1    7250 3950
	1    0    0    -1  
$EndComp
$Comp
L 6502-rescue:+5V #PWR017
U 1 1 59F8D041
P 8600 800
F 0 "#PWR017" H 8600 650 50  0001 C CNN
F 1 "+5V" H 8600 940 50  0000 C CNN
F 2 "" H 8600 800 50  0001 C CNN
F 3 "" H 8600 800 50  0001 C CNN
	1    8600 800 
	1    0    0    -1  
$EndComp
$Comp
L 6502-rescue:+5V #PWR019
U 1 1 59ECFFC4
P 8700 7200
F 0 "#PWR019" H 8700 7050 50  0001 C CNN
F 1 "+5V" H 8700 7340 50  0000 C CNN
F 2 "" H 8700 7200 50  0001 C CNN
F 3 "" H 8700 7200 50  0001 C CNN
	1    8700 7200
	1    0    0    -1  
$EndComp
$Comp
L 6502-rescue:+5V #PWR023
U 1 1 59EF7AF2
P 10750 4250
F 0 "#PWR023" H 10750 4100 50  0001 C CNN
F 1 "+5V" H 10750 4390 50  0000 C CNN
F 2 "" H 10750 4250 50  0001 C CNN
F 3 "" H 10750 4250 50  0001 C CNN
	1    10750 4250
	1    0    0    -1  
$EndComp
$Comp
L 6502-rescue:+5V #PWR024
U 1 1 59EF8AB4
P 10750 5900
F 0 "#PWR024" H 10750 5750 50  0001 C CNN
F 1 "+5V" H 10750 6040 50  0000 C CNN
F 2 "" H 10750 5900 50  0001 C CNN
F 3 "" H 10750 5900 50  0001 C CNN
	1    10750 5900
	1    0    0    -1  
$EndComp
$Comp
L 6502-rescue:+5V #PWR025
U 1 1 59F638A6
P 11200 2300
F 0 "#PWR025" H 11200 2150 50  0001 C CNN
F 1 "+5V" H 11200 2440 50  0000 C CNN
F 2 "" H 11200 2300 50  0001 C CNN
F 3 "" H 11200 2300 50  0001 C CNN
	1    11200 2300
	1    0    0    -1  
$EndComp
$Comp
L 6502-rescue:+5V #PWR026
U 1 1 59F64F4C
P 11200 7350
F 0 "#PWR026" H 11200 7200 50  0001 C CNN
F 1 "+5V" H 11200 7490 50  0000 C CNN
F 2 "" H 11200 7350 50  0001 C CNN
F 3 "" H 11200 7350 50  0001 C CNN
	1    11200 7350
	1    0    0    -1  
$EndComp
$Comp
L 6502-rescue:+5V #PWR030
U 1 1 59F6396B
P 11600 4200
F 0 "#PWR030" H 11600 4050 50  0001 C CNN
F 1 "+5V" H 11600 4340 50  0000 C CNN
F 2 "" H 11600 4200 50  0001 C CNN
F 3 "" H 11600 4200 50  0001 C CNN
	1    11600 4200
	1    0    0    -1  
$EndComp
$Comp
L 6502-rescue:+5V #PWR031
U 1 1 59F63AAC
P 11600 5800
F 0 "#PWR031" H 11600 5650 50  0001 C CNN
F 1 "+5V" H 11600 5940 50  0000 C CNN
F 2 "" H 11600 5800 50  0001 C CNN
F 3 "" H 11600 5800 50  0001 C CNN
	1    11600 5800
	1    0    0    -1  
$EndComp
$Comp
L 6502-rescue:+5V #PWR0101
U 1 1 5E0E0BF3
P 13600 850
F 0 "#PWR0101" H 13600 700 50  0001 C CNN
F 1 "+5V" H 13600 990 50  0000 C CNN
F 2 "" H 13600 850 50  0001 C CNN
F 3 "" H 13600 850 50  0001 C CNN
	1    13600 850 
	1    0    0    -1  
$EndComp
$Comp
L 6502-rescue:+5V #PWR035
U 1 1 59EE0A83
P 14450 1450
F 0 "#PWR035" H 14450 1300 50  0001 C CNN
F 1 "+5V" H 14450 1590 50  0000 C CNN
F 2 "" H 14450 1450 50  0001 C CNN
F 3 "" H 14450 1450 50  0001 C CNN
	1    14450 1450
	1    0    0    -1  
$EndComp
$Comp
L 6502-rescue:GNDD #PWR02
U 1 1 59EE66E5
P 1250 7950
F 0 "#PWR02" H 1250 7700 50  0001 C CNN
F 1 "GNDD" H 1250 7825 50  0000 C CNN
F 2 "" H 1250 7950 50  0001 C CNN
F 3 "" H 1250 7950 50  0001 C CNN
	1    1250 7950
	1    0    0    -1  
$EndComp
$Comp
L 6502-rescue:GNDD #PWR04
U 1 1 59EE2547
P 2200 4000
F 0 "#PWR04" H 2200 3750 50  0001 C CNN
F 1 "GNDD" H 2200 3875 50  0000 C CNN
F 2 "" H 2200 4000 50  0001 C CNN
F 3 "" H 2200 4000 50  0001 C CNN
	1    2200 4000
	1    0    0    -1  
$EndComp
$Comp
L 6502-rescue:GNDD #PWR05
U 1 1 59F6491D
P 2800 2650
F 0 "#PWR05" H 2800 2400 50  0001 C CNN
F 1 "GNDD" H 2800 2525 50  0000 C CNN
F 2 "" H 2800 2650 50  0001 C CNN
F 3 "" H 2800 2650 50  0001 C CNN
	1    2800 2650
	1    0    0    -1  
$EndComp
$Comp
L 6502-rescue:GNDD #PWR08
U 1 1 59ECF947
P 3600 1900
F 0 "#PWR08" H 3600 1650 50  0001 C CNN
F 1 "GNDD" H 3600 1775 50  0000 C CNN
F 2 "" H 3600 1900 50  0001 C CNN
F 3 "" H 3600 1900 50  0001 C CNN
	1    3600 1900
	1    0    0    -1  
$EndComp
$Comp
L 6502-rescue:GNDD #PWR012
U 1 1 59F646C5
P 6400 8050
F 0 "#PWR012" H 6400 7800 50  0001 C CNN
F 1 "GNDD" H 6400 7925 50  0000 C CNN
F 2 "" H 6400 8050 50  0001 C CNN
F 3 "" H 6400 8050 50  0001 C CNN
	1    6400 8050
	1    0    0    -1  
$EndComp
$Comp
L 6502-rescue:GNDD #PWR014
U 1 1 59F65CFC
P 7000 3750
F 0 "#PWR014" H 7000 3500 50  0001 C CNN
F 1 "GNDD" H 7000 3625 50  0000 C CNN
F 2 "" H 7000 3750 50  0001 C CNN
F 3 "" H 7000 3750 50  0001 C CNN
	1    7000 3750
	1    0    0    -1  
$EndComp
$Comp
L 6502-rescue:GNDD #PWR016
U 1 1 59ED0C5B
P 7300 7050
F 0 "#PWR016" H 7300 6800 50  0001 C CNN
F 1 "GNDD" H 7300 6925 50  0000 C CNN
F 2 "" H 7300 7050 50  0001 C CNN
F 3 "" H 7300 7050 50  0001 C CNN
	1    7300 7050
	1    0    0    -1  
$EndComp
$Comp
L 6502-rescue:GNDD #PWR018
U 1 1 59F8D1A1
P 8600 1700
F 0 "#PWR018" H 8600 1450 50  0001 C CNN
F 1 "GNDD" H 8600 1575 50  0000 C CNN
F 2 "" H 8600 1700 50  0001 C CNN
F 3 "" H 8600 1700 50  0001 C CNN
	1    8600 1700
	1    0    0    -1  
$EndComp
$Comp
L 6502-rescue:GNDD #PWR020
U 1 1 59ED0134
P 8700 8450
F 0 "#PWR020" H 8700 8200 50  0001 C CNN
F 1 "GNDD" H 8700 8325 50  0000 C CNN
F 2 "" H 8700 8450 50  0001 C CNN
F 3 "" H 8700 8450 50  0001 C CNN
	1    8700 8450
	1    0    0    -1  
$EndComp
$Comp
L 6502-rescue:GNDD #PWR021
U 1 1 59EF756F
P 10550 5550
F 0 "#PWR021" H 10550 5300 50  0001 C CNN
F 1 "GNDD" H 10550 5425 50  0000 C CNN
F 2 "" H 10550 5550 50  0001 C CNN
F 3 "" H 10550 5550 50  0001 C CNN
	1    10550 5550
	1    0    0    -1  
$EndComp
$Comp
L 6502-rescue:GNDD #PWR022
U 1 1 59EF75D7
P 10550 7150
F 0 "#PWR022" H 10550 6900 50  0001 C CNN
F 1 "GNDD" H 10550 7025 50  0000 C CNN
F 2 "" H 10550 7150 50  0001 C CNN
F 3 "" H 10550 7150 50  0001 C CNN
	1    10550 7150
	1    0    0    -1  
$EndComp
$Comp
L 6502-rescue:GNDD #PWR027
U 1 1 59F63429
P 11300 3950
F 0 "#PWR027" H 11300 3700 50  0001 C CNN
F 1 "GNDD" H 11300 3825 50  0000 C CNN
F 2 "" H 11300 3950 50  0001 C CNN
F 3 "" H 11300 3950 50  0001 C CNN
	1    11300 3950
	1    0    0    -1  
$EndComp
$Comp
L 6502-rescue:GNDD #PWR028
U 1 1 59F6356A
P 11300 5600
F 0 "#PWR028" H 11300 5350 50  0001 C CNN
F 1 "GNDD" H 11300 5475 50  0000 C CNN
F 2 "" H 11300 5600 50  0001 C CNN
F 3 "" H 11300 5600 50  0001 C CNN
	1    11300 5600
	1    0    0    -1  
$EndComp
$Comp
L 6502-rescue:GNDD #PWR029
U 1 1 59F63727
P 11500 2150
F 0 "#PWR029" H 11500 1900 50  0001 C CNN
F 1 "GNDD" H 11500 2025 50  0000 C CNN
F 2 "" H 11500 2150 50  0001 C CNN
F 3 "" H 11500 2150 50  0001 C CNN
	1    11500 2150
	1    0    0    -1  
$EndComp
$Comp
L 6502-rescue:GNDD #PWR032
U 1 1 59F64B61
P 11600 7250
F 0 "#PWR032" H 11600 7000 50  0001 C CNN
F 1 "GNDD" H 11600 7125 50  0000 C CNN
F 2 "" H 11600 7250 50  0001 C CNN
F 3 "" H 11600 7250 50  0001 C CNN
	1    11600 7250
	1    0    0    -1  
$EndComp
$Comp
L 6502-rescue:GNDD #PWR033
U 1 1 59EDE194
P 12350 8950
F 0 "#PWR033" H 12350 8700 50  0001 C CNN
F 1 "GNDD" H 12350 8825 50  0000 C CNN
F 2 "" H 12350 8950 50  0001 C CNN
F 3 "" H 12350 8950 50  0001 C CNN
	1    12350 8950
	1    0    0    -1  
$EndComp
$Comp
L 6502-rescue:GNDD #PWR034
U 1 1 59EE52F4
P 13600 1650
F 0 "#PWR034" H 13600 1400 50  0001 C CNN
F 1 "GNDD" H 13600 1525 50  0000 C CNN
F 2 "" H 13600 1650 50  0001 C CNN
F 3 "" H 13600 1650 50  0001 C CNN
	1    13600 1650
	1    0    0    -1  
$EndComp
$Comp
L 6502-rescue:GNDD #PWR036
U 1 1 59EE06B5
P 14500 8250
F 0 "#PWR036" H 14500 8000 50  0001 C CNN
F 1 "GNDD" H 14500 8125 50  0000 C CNN
F 2 "" H 14500 8250 50  0001 C CNN
F 3 "" H 14500 8250 50  0001 C CNN
	1    14500 8250
	1    0    0    -1  
$EndComp
$Comp
L 6502-rescue:R R1
U 1 1 59EE6133
P 1950 6450
F 0 "R1" V 2030 6450 50  0000 C CNN
F 1 "100k" V 1950 6450 50  0000 C CNN
F 2 "" V 1880 6450 50  0001 C CNN
F 3 "" H 1950 6450 50  0001 C CNN
	1    1950 6450
	0    1    1    0   
$EndComp
$Comp
L 6502-rescue:R R6
U 1 1 5A6A3CFE
P 4200 4250
F 0 "R6" V 4280 4250 50  0000 C CNN
F 1 "3k" V 4200 4250 50  0000 C CNN
F 2 "" V 4130 4250 50  0001 C CNN
F 3 "" H 4200 4250 50  0001 C CNN
	1    4200 4250
	1    0    0    -1  
$EndComp
$Comp
L 6502-rescue:R R2
U 1 1 59EE33CA
P 4400 4250
F 0 "R2" V 4480 4250 50  0000 C CNN
F 1 "3k" V 4400 4250 50  0000 C CNN
F 2 "" V 4330 4250 50  0001 C CNN
F 3 "" H 4400 4250 50  0001 C CNN
	1    4400 4250
	1    0    0    -1  
$EndComp
$Comp
L 6502-rescue:R R3
U 1 1 59EE3368
P 4600 4250
F 0 "R3" V 4680 4250 50  0000 C CNN
F 1 "3k" V 4600 4250 50  0000 C CNN
F 2 "" V 4530 4250 50  0001 C CNN
F 3 "" H 4600 4250 50  0001 C CNN
	1    4600 4250
	1    0    0    -1  
$EndComp
$Comp
L 6502-rescue:R R4
U 1 1 59EE30FC
P 4800 4250
F 0 "R4" V 4880 4250 50  0000 C CNN
F 1 "3k" V 4800 4250 50  0000 C CNN
F 2 "" V 4730 4250 50  0001 C CNN
F 3 "" H 4800 4250 50  0001 C CNN
	1    4800 4250
	1    0    0    -1  
$EndComp
$Comp
L 6502-rescue:R R5
U 1 1 59EE3D3B
P 7250 4250
F 0 "R5" V 7330 4250 50  0000 C CNN
F 1 "3k" V 7250 4250 50  0000 C CNN
F 2 "" V 7180 4250 50  0001 C CNN
F 3 "" H 7250 4250 50  0001 C CNN
	1    7250 4250
	1    0    0    -1  
$EndComp
$Comp
L 6502-rescue:D D2
U 1 1 59EE5D62
P 1950 6850
F 0 "D2" H 1950 6950 50  0000 C CNN
F 1 "1N4148" H 1950 6750 50  0000 C CNN
F 2 "" H 1950 6850 50  0001 C CNN
F 3 "" H 1950 6850 50  0001 C CNN
	1    1950 6850
	1    0    0    -1  
$EndComp
$Comp
L 6502-rescue:D_TVS_UNI D1
U 1 1 59ECDF27
P 13600 1300
F 0 "D1" H 13600 1400 50  0000 C CNN
F 1 "P6KE6,8A" H 13600 1200 50  0000 C CNN
F 2 "" H 13600 1300 50  0001 C CNN
F 3 "" H 13600 1300 50  0001 C CNN
	1    13600 1300
	0    -1   -1   0   
$EndComp
$Comp
L 6502-rescue:CP C3
U 1 1 59EE4DE6
P 1950 7850
F 0 "C3" H 1975 7950 50  0000 L CNN
F 1 "10µF/25V" H 1975 7750 50  0000 L CNN
F 2 "" H 1988 7700 50  0001 C CNN
F 3 "" H 1950 7850 50  0001 C CNN
	1    1950 7850
	0    -1   -1   0   
$EndComp
$Comp
L 6502-rescue:C C4
U 1 1 59EDED7A
P 3600 1600
F 0 "C4" H 3625 1700 50  0000 L CNN
F 1 "100nF" H 3625 1500 50  0000 L CNN
F 2 "" H 3638 1450 50  0001 C CNN
F 3 "" H 3600 1600 50  0001 C CNN
	1    3600 1600
	1    0    0    -1  
$EndComp
$Comp
L 6502-rescue:C C1
U 1 1 59ED0CA8
P 5000 6600
F 0 "C1" H 5025 6700 50  0000 L CNN
F 1 "100nF" H 5025 6500 50  0000 L CNN
F 2 "" H 5038 6450 50  0000 C CNN
F 3 "" H 5000 6600 50  0001 C CNN
	1    5000 6600
	1    0    0    -1  
$EndComp
$Comp
L 6502-rescue:C C5
U 1 1 59F8D41A
P 8600 1200
F 0 "C5" H 8625 1300 50  0000 L CNN
F 1 "100nF" H 8625 1100 50  0000 L CNN
F 2 "" H 8638 1050 50  0001 C CNN
F 3 "" H 8600 1200 50  0001 C CNN
	1    8600 1200
	1    0    0    -1  
$EndComp
$Comp
L 6502-rescue:C C6
U 1 1 59F8D815
P 8900 1200
F 0 "C6" H 8925 1300 50  0000 L CNN
F 1 "100nF" H 8925 1100 50  0000 L CNN
F 2 "" H 8938 1050 50  0001 C CNN
F 3 "" H 8900 1200 50  0001 C CNN
	1    8900 1200
	1    0    0    -1  
$EndComp
$Comp
L 6502-rescue:C C2
U 1 1 59ED026C
P 9150 7500
F 0 "C2" H 9175 7600 50  0000 L CNN
F 1 "100nF" H 9175 7400 50  0000 L CNN
F 2 "" H 9188 7350 50  0001 C CNN
F 3 "" H 9150 7500 50  0001 C CNN
	1    9150 7500
	1    0    0    -1  
$EndComp
$Comp
L 6502-rescue:C C7
U 1 1 59F8D890
P 9200 1200
F 0 "C7" H 9225 1300 50  0000 L CNN
F 1 "100nF" H 9225 1100 50  0000 L CNN
F 2 "" H 9238 1050 50  0001 C CNN
F 3 "" H 9200 1200 50  0001 C CNN
	1    9200 1200
	1    0    0    -1  
$EndComp
$Comp
L 6502-rescue:C C8
U 1 1 59F8D918
P 9500 1200
F 0 "C8" H 9525 1300 50  0000 L CNN
F 1 "100nF" H 9525 1100 50  0000 L CNN
F 2 "" H 9538 1050 50  0001 C CNN
F 3 "" H 9500 1200 50  0001 C CNN
	1    9500 1200
	1    0    0    -1  
$EndComp
$Comp
L 6502-rescue:C C9
U 1 1 59F8DA4C
P 9800 1200
F 0 "C9" H 9825 1300 50  0000 L CNN
F 1 "100nF" H 9825 1100 50  0000 L CNN
F 2 "" H 9838 1050 50  0001 C CNN
F 3 "" H 9800 1200 50  0001 C CNN
	1    9800 1200
	1    0    0    -1  
$EndComp
$Comp
L 6502-rescue:C C10
U 1 1 59F8DAD4
P 10100 1200
F 0 "C10" H 10125 1300 50  0000 L CNN
F 1 "100nF" H 10125 1100 50  0000 L CNN
F 2 "" H 10138 1050 50  0001 C CNN
F 3 "" H 10100 1200 50  0001 C CNN
	1    10100 1200
	1    0    0    -1  
$EndComp
$Comp
L 6502-rescue:C C11
U 1 1 59F8DBCE
P 10400 1200
F 0 "C11" H 10425 1300 50  0000 L CNN
F 1 "100nF" H 10425 1100 50  0000 L CNN
F 2 "" H 10438 1050 50  0001 C CNN
F 3 "" H 10400 1200 50  0001 C CNN
	1    10400 1200
	1    0    0    -1  
$EndComp
$Comp
L 6502-rescue:C C12
U 1 1 59F8DC58
P 10700 1200
F 0 "C12" H 10725 1300 50  0000 L CNN
F 1 "100nF" H 10725 1100 50  0000 L CNN
F 2 "" H 10738 1050 50  0001 C CNN
F 3 "" H 10700 1200 50  0001 C CNN
	1    10700 1200
	1    0    0    -1  
$EndComp
$Comp
L 6502-rescue:C C13
U 1 1 59F8DCEB
P 11000 1200
F 0 "C13" H 11025 1300 50  0000 L CNN
F 1 "100nF" H 11025 1100 50  0000 L CNN
F 2 "" H 11038 1050 50  0001 C CNN
F 3 "" H 11000 1200 50  0001 C CNN
	1    11000 1200
	1    0    0    -1  
$EndComp
$Comp
L 6502-rescue:CP C14
U 1 1 59F8E0ED
P 11350 1200
F 0 "C14" H 11375 1300 50  0000 L CNN
F 1 "47µF/6,3V" H 11375 1100 50  0000 L CNN
F 2 "" H 11388 1050 50  0001 C CNN
F 3 "" H 11350 1200 50  0001 C CNN
	1    11350 1200
	1    0    0    -1  
$EndComp
$Comp
L 6502-rescue:CP C15
U 1 1 59F8E6B9
P 11800 1200
F 0 "C15" H 11825 1300 50  0000 L CNN
F 1 "47µF/6,3V" H 11825 1100 50  0000 L CNN
F 2 "" H 11838 1050 50  0001 C CNN
F 3 "" H 11800 1200 50  0001 C CNN
	1    11800 1200
	1    0    0    -1  
$EndComp
$Comp
L 6502-rescue:CP C16
U 1 1 59F8E759
P 12250 1200
F 0 "C16" H 12275 1300 50  0000 L CNN
F 1 "470µF/10V" H 12275 1100 50  0000 L CNN
F 2 "" H 12288 1050 50  0001 C CNN
F 3 "" H 12250 1200 50  0001 C CNN
	1    12250 1200
	1    0    0    -1  
$EndComp
$Comp
L 6502-rescue:CP C17
U 1 1 59F8E92D
P 12750 1200
F 0 "C17" H 12775 1300 50  0000 L CNN
F 1 "100µF/10V" H 12775 1100 50  0000 L CNN
F 2 "" H 12788 1050 50  0001 C CNN
F 3 "" H 12750 1200 50  0001 C CNN
	1    12750 1200
	1    0    0    -1  
$EndComp
$Comp
L 6502-rescue:Push-button S1
U 1 1 59ECE004
P 1950 7400
F 0 "S1" H 1950 7750 60  0000 C CNN
F 1 "Push-button" H 1950 7450 60  0000 C CNN
F 2 "" H 1950 7450 60  0001 C CNN
F 3 "" H 1950 7450 60  0001 C CNN
	1    1950 7400
	1    0    0    -1  
$EndComp
$Comp
L 6502-rescue:Crystal_oscillator U1
U 1 1 59ECEF6C
P 2850 1100
F 0 "U1" H 2800 1350 60  0000 C CNN
F 1 "Crystal_oscillator 8MHz" H 2850 850 60  0000 C CNN
F 2 "" H 2800 1100 60  0001 C CNN
F 3 "" H 2800 1100 60  0001 C CNN
	1    2850 1100
	1    0    0    -1  
$EndComp
$Comp
L 6502-rescue:74AC00 U3
U 1 1 59F8B48B
P 3350 10100
F 0 "U3" H 3600 10400 50  0000 C CNN
F 1 "74AC00" H 3550 9800 50  0000 C CNN
F 2 "" H 3350 10100 60  0001 C CNN
F 3 "" H 3350 10100 60  0001 C CNN
	1    3350 10100
	1    0    0    -1  
$EndComp
$Comp
L 6502-rescue:74AC00 U3
U 2 1 59F8B54A
P 4400 10100
F 0 "U3" H 4650 10400 50  0000 C CNN
F 1 "74AC00" H 4600 9800 50  0000 C CNN
F 2 "" H 4400 10100 60  0001 C CNN
F 3 "" H 4400 10100 60  0001 C CNN
	2    4400 10100
	1    0    0    -1  
$EndComp
$Comp
L 6502-rescue:74AC00 U3
U 4 1 59F8B24E
P 6400 8600
F 0 "U3" H 6650 8900 50  0000 C CNN
F 1 "74AC00" H 6600 8300 50  0000 C CNN
F 2 "" H 6400 8600 60  0001 C CNN
F 3 "" H 6400 8600 60  0001 C CNN
	4    6400 8600
	1    0    0    -1  
$EndComp
$Comp
L 6502-rescue:74AC00 U3
U 3 1 59F8B5C3
P 8700 7850
F 0 "U3" H 8950 8150 50  0000 C CNN
F 1 "74AC00" H 8900 7550 50  0000 C CNN
F 2 "" H 8700 7850 60  0001 C CNN
F 3 "" H 8700 7850 60  0001 C CNN
	3    8700 7850
	1    0    0    -1  
$EndComp
$Comp
L 6502-rescue:74HCT14 U2
U 1 1 59F89A29
P 3000 7300
F 0 "U2" H 3150 7600 50  0000 C CNN
F 1 "74HCT14" H 3200 7000 50  0000 C CNN
F 2 "" H 3000 7300 60  0001 C CNN
F 3 "" H 3000 7300 60  0001 C CNN
	1    3000 7300
	1    0    0    -1  
$EndComp
$Comp
L 6502-rescue:74HCT14 U2
U 2 1 59F89C37
P 3250 9250
F 0 "U2" H 3400 9550 50  0000 C CNN
F 1 "74HCT14" H 3450 8950 50  0000 C CNN
F 2 "" H 3250 9250 60  0001 C CNN
F 3 "" H 3250 9250 60  0001 C CNN
	2    3250 9250
	1    0    0    -1  
$EndComp
$Comp
L 6502-rescue:74HCT14 U2
U 3 1 59F89AB6
P 4200 7300
F 0 "U2" H 4350 7600 50  0000 C CNN
F 1 "74HCT14" H 4400 7000 50  0000 C CNN
F 2 "" H 4200 7300 60  0001 C CNN
F 3 "" H 4200 7300 60  0001 C CNN
	3    4200 7300
	1    0    0    -1  
$EndComp
$Comp
L 6502-rescue:74HCT14 U2
U 4 1 59F89CB6
P 4450 9250
F 0 "U2" H 4600 9550 50  0000 C CNN
F 1 "74HCT14" H 4650 8950 50  0000 C CNN
F 2 "" H 4450 9250 60  0001 C CNN
F 3 "" H 4450 9250 60  0001 C CNN
	4    4450 9250
	1    0    0    -1  
$EndComp
$Comp
L 6502-rescue:74HCT14 U2
U 5 1 59F89B9C
P 4500 1200
F 0 "U2" H 4650 1500 50  0000 C CNN
F 1 "74HCT14" H 4700 900 50  0000 C CNN
F 2 "" H 4500 1200 60  0001 C CNN
F 3 "" H 4500 1200 60  0001 C CNN
	5    4500 1200
	1    0    0    -1  
$EndComp
$Comp
L 6502-rescue:74HCT14 U2
U 6 1 59F89B27
P 6400 7750
F 0 "U2" H 6550 8050 50  0000 C CNN
F 1 "74HCT14" H 6600 7450 50  0000 C CNN
F 2 "" H 6400 7750 60  0001 C CNN
F 3 "" H 6400 7750 60  0001 C CNN
	6    6400 7750
	1    0    0    -1  
$EndComp
$Comp
L 6502-rescue:74LS161 U5
U 1 1 59ECE4C3
P 2900 3450
F 0 "U5" H 3200 4050 50  0000 C CNN
F 1 "74LS161" H 3200 2900 50  0000 C CNN
F 2 "" H 2900 3450 60  0001 C CNN
F 3 "" H 2900 3450 60  0001 C CNN
	1    2900 3450
	1    0    0    -1  
$EndComp
$Comp
L 6502-rescue:74HCT245 U7
U 1 1 59F8895C
P 11400 3100
F 0 "U7" H 11700 3600 50  0000 L CNN
F 1 "74HCT245" H 11500 2500 50  0000 L CNN
F 2 "" H 11400 3100 60  0001 C CNN
F 3 "" H 11400 3100 60  0001 C CNN
	1    11400 3100
	-1   0    0    -1  
$EndComp
$Comp
L 6502-rescue:74HCT245 U8
U 1 1 59F88FA3
P 11400 4950
F 0 "U8" H 11700 5450 50  0000 L CNN
F 1 "74HCT245" H 11500 4350 50  0000 L CNN
F 2 "" H 11400 4950 60  0001 C CNN
F 3 "" H 11400 4950 60  0001 C CNN
	1    11400 4950
	1    0    0    -1  
$EndComp
$Comp
L 6502-rescue:74HCT245 U9
U 1 1 59F891CD
P 11400 6550
F 0 "U9" H 11700 7050 50  0000 L CNN
F 1 "74HCT245" H 11500 5950 50  0000 L CNN
F 2 "" H 11400 6550 60  0001 C CNN
F 3 "" H 11400 6550 60  0001 C CNN
	1    11400 6550
	1    0    0    -1  
$EndComp
$Comp
L 6502-rescue:74HCT245 U10
U 1 1 59F89356
P 11400 8100
F 0 "U10" H 11700 8600 50  0000 L CNN
F 1 "74HCT245" H 11500 7500 50  0000 L CNN
F 2 "" H 11400 8100 60  0001 C CNN
F 3 "" H 11400 8100 60  0001 C CNN
	1    11400 8100
	-1   0    0    -1  
$EndComp
$Comp
L 6502-rescue:74LS688 U6
U 1 1 5A555506
P 7000 2700
F 0 "U6" H 7300 3600 50  0000 C CNN
F 1 "74HCT688" H 7400 1800 50  0000 C CNN
F 2 "" H 7000 2700 60  0001 C CNN
F 3 "" H 7000 2700 60  0001 C CNN
	1    7000 2700
	1    0    0    -1  
$EndComp
$Comp
L 6502-rescue:65C816 U4
U 1 1 59ED37B3
P 6250 5400
F 0 "U4" H 6250 6500 60  0000 C CNN
F 1 "65C816" H 6250 5400 60  0000 C CNN
F 2 "" H 6250 6050 60  0000 C CNN
F 3 "" H 6250 6050 60  0000 C CNN
	1    6250 5400
	1    0    0    -1  
$EndComp
$Comp
L 6502-rescue:C64AC_DIN41612_BUS-RESCUE-6502 X1
U 1 1 59ECDB96
P 15300 4950
F 0 "X1" H 15200 8250 50  0000 C CNN
F 1 "C64AC_DIN41612_BUS" V 15700 4900 50  0000 C CNN
F 2 "" H 15200 4950 50  0001 C CNN
F 3 "" H 15200 4950 50  0001 C CNN
	1    15300 4950
	1    0    0    -1  
$EndComp
$EndSCHEMATC
