EESchema Schematic File Version 4
EELAYER 30 0
EELAYER END
$Descr A3 16535 11693
encoding utf-8
Sheet 1 1
Title "Oak65c02 Sound / RTC Board"
Date "2019-12-29"
Rev "001"
Comp "Uwe Gottschling"
Comment1 ""
Comment2 ""
Comment3 ""
Comment4 ""
$EndDescr
$Comp
L 65xx-FPU-rescue:C64AC_DIN41612_BUS-65xx-Computer-65xx-SOUND-rescue X1
U 1 1 5CB7473C
P 14600 5400
F 0 "X1" H 15069 5446 50  0000 L CNN
F 1 "C64AC_DIN41612_BUS" H 15069 5355 50  0000 L CNN
F 2 "" H 14500 5400 50  0001 C CNN
F 3 "" H 14500 5400 50  0001 C CNN
	1    14600 5400
	1    0    0    -1  
$EndComp
$Comp
L 65xx-FPU-rescue:74HCT245-65xx-Computer-65xx-SOUND-rescue U10
U 1 1 5CB7C7DB
P 12250 2700
F 0 "U10" H 12100 3550 50  0000 C CNN
F 1 "74HCT245" H 12100 3450 50  0000 C CNN
F 2 "" H 12250 2700 60  0001 C CNN
F 3 "" H 12250 2700 60  0001 C CNN
	1    12250 2700
	1    0    0    -1  
$EndComp
$Comp
L power:+5V #PWR0101
U 1 1 5CBBFCFC
P 13700 2050
F 0 "#PWR0101" H 13700 1900 50  0001 C CNN
F 1 "+5V" H 13715 2223 50  0000 C CNN
F 2 "" H 13700 2050 50  0001 C CNN
F 3 "" H 13700 2050 50  0001 C CNN
	1    13700 2050
	1    0    0    -1  
$EndComp
$Comp
L power:GND #PWR0102
U 1 1 5CBC059D
P 13550 8800
F 0 "#PWR0102" H 13550 8550 50  0001 C CNN
F 1 "GND" H 13555 8627 50  0000 C CNN
F 2 "" H 13550 8800 50  0001 C CNN
F 3 "" H 13550 8800 50  0001 C CNN
	1    13550 8800
	1    0    0    -1  
$EndComp
Wire Wire Line
	14000 8450 13550 8450
Wire Wire Line
	13550 8450 13550 8550
Wire Wire Line
	14000 8550 13550 8550
Connection ~ 13550 8550
Wire Wire Line
	13550 8550 13550 8800
Wire Wire Line
	14000 2350 13700 2350
Wire Wire Line
	13700 2350 13700 2250
Wire Wire Line
	14000 2250 13700 2250
Connection ~ 13700 2250
Wire Wire Line
	13700 2250 13700 2050
Wire Wire Line
	11000 2150 11700 2150
Text GLabel 12750 4300 2    50   Output ~ 0
~CS
Text GLabel 13750 3250 0    50   Output ~ 0
R_~W
Text GLabel 11050 2300 0    50   Input ~ 0
R_~W
$Comp
L power:+5V #PWR0103
U 1 1 5CBCF8D2
P 11400 5850
F 0 "#PWR0103" H 11400 5700 50  0001 C CNN
F 1 "+5V" H 11415 6023 50  0000 C CNN
F 2 "" H 11400 5850 50  0001 C CNN
F 3 "" H 11400 5850 50  0001 C CNN
	1    11400 5850
	1    0    0    -1  
$EndComp
Wire Bus Line
	11350 3250 11250 3250
Text GLabel 11250 3250 0    50   BiDi ~ 0
DATABUS
Entry Wire Line
	11350 3050 11450 3150
Wire Wire Line
	11700 3050 11450 3050
Wire Wire Line
	11700 3150 11450 3150
Text Label 11500 3150 0    50   ~ 0
D7
Text Label 11500 3050 0    50   ~ 0
D6
Wire Wire Line
	12800 3150 14000 3150
Wire Wire Line
	12800 3050 14000 3050
Wire Wire Line
	12800 2950 14000 2950
Wire Wire Line
	12800 2850 14000 2850
Wire Wire Line
	12800 2550 14000 2550
Wire Wire Line
	12800 2750 14000 2750
Wire Wire Line
	12800 2450 14000 2450
Wire Wire Line
	12800 2650 14000 2650
Text GLabel 13300 3350 0    50   Output ~ 0
A0
Text GLabel 13300 3550 0    50   Output ~ 0
A1
Wire Wire Line
	14000 3350 13300 3350
Text GLabel 13800 4250 0    50   Output ~ 0
~RESET
Wire Wire Line
	13800 4250 14000 4250
Wire Wire Line
	13750 3250 14000 3250
Wire Wire Line
	13750 3450 14000 3450
Wire Wire Line
	13300 3550 14000 3550
$Comp
L Device:C_Small C24
U 1 1 5DD2ECE6
P 12150 1600
F 0 "C24" H 12242 1646 50  0000 L CNN
F 1 "100nF" H 12242 1555 50  0000 L CNN
F 2 "" H 12150 1600 50  0001 C CNN
F 3 "~" H 12150 1600 50  0001 C CNN
	1    12150 1600
	0    -1   -1   0   
$EndComp
Text GLabel 13300 4150 0    50   Output ~ 0
A4
Text GLabel 13300 4350 0    50   Output ~ 0
A5
Text GLabel 13300 4550 0    50   Output ~ 0
A6
Wire Wire Line
	14000 4150 13300 4150
Wire Wire Line
	14000 4350 13300 4350
Wire Wire Line
	14000 4550 13300 4550
Text GLabel 11050 4750 0    50   Input ~ 0
A4
Text GLabel 11050 4850 0    50   Input ~ 0
A5
Text GLabel 11050 4950 0    50   Input ~ 0
A6
Wire Wire Line
	11350 4750 11050 4750
Wire Wire Line
	11350 4850 11050 4850
Wire Wire Line
	11350 4950 11050 4950
Text GLabel 13300 4750 0    50   Output ~ 0
A7
Wire Wire Line
	13300 4750 14000 4750
Text GLabel 11100 4500 0    50   Input ~ 0
A7
Text GLabel 13800 4450 0    50   Output ~ 0
~IORQ
Text GLabel 11150 4300 0    50   Input ~ 0
~IORQ
Wire Wire Line
	13800 4450 14000 4450
$Comp
L power:+5V #PWR0121
U 1 1 5DEB08DA
P 11900 3850
F 0 "#PWR0121" H 11900 3700 50  0001 C CNN
F 1 "+5V" H 11915 4023 50  0000 C CNN
F 2 "" H 11900 3850 50  0001 C CNN
F 3 "" H 11900 3850 50  0001 C CNN
	1    11900 3850
	1    0    0    -1  
$EndComp
Wire Wire Line
	11900 4200 11900 3900
Connection ~ 11900 3900
Wire Wire Line
	11900 3900 11900 3850
$Comp
L Device:C_Small C25
U 1 1 5DEF37B4
P 12550 4050
F 0 "C25" H 12642 4096 50  0000 L CNN
F 1 "100nF" H 12642 4005 50  0000 L CNN
F 2 "" H 12550 4050 50  0001 C CNN
F 3 "~" H 12550 4050 50  0001 C CNN
	1    12550 4050
	1    0    0    -1  
$EndComp
$Comp
L Device:C_Small C26
U 1 1 5DEF3C5D
P 13000 5950
F 0 "C26" H 13092 5996 50  0000 L CNN
F 1 "100nF" H 13092 5905 50  0000 L CNN
F 2 "" H 13000 5950 50  0001 C CNN
F 3 "~" H 13000 5950 50  0001 C CNN
	1    13000 5950
	1    0    0    -1  
$EndComp
$Comp
L power:GND #PWR0122
U 1 1 5DEF3FC7
P 11600 7150
F 0 "#PWR0122" H 11600 6900 50  0001 C CNN
F 1 "GND" H 11605 6977 50  0000 C CNN
F 2 "" H 11600 7150 50  0001 C CNN
F 3 "" H 11600 7150 50  0001 C CNN
	1    11600 7150
	1    0    0    -1  
$EndComp
$Comp
L power:GND #PWR0123
U 1 1 5DEF4303
P 11900 5250
F 0 "#PWR0123" H 11900 5000 50  0001 C CNN
F 1 "GND" H 11905 5077 50  0000 C CNN
F 2 "" H 11900 5250 50  0001 C CNN
F 3 "" H 11900 5250 50  0001 C CNN
	1    11900 5250
	1    0    0    -1  
$EndComp
$Comp
L power:GND #PWR0124
U 1 1 5DEF455B
P 11650 1850
F 0 "#PWR0124" H 11650 1600 50  0001 C CNN
F 1 "GND" H 11655 1677 50  0000 C CNN
F 2 "" H 11650 1850 50  0001 C CNN
F 3 "" H 11650 1850 50  0001 C CNN
	1    11650 1850
	1    0    0    -1  
$EndComp
$Comp
L power:+5V #PWR0125
U 1 1 5DEF51E8
P 12450 1450
F 0 "#PWR0125" H 12450 1300 50  0001 C CNN
F 1 "+5V" H 12465 1623 50  0000 C CNN
F 2 "" H 12450 1450 50  0001 C CNN
F 3 "" H 12450 1450 50  0001 C CNN
	1    12450 1450
	1    0    0    -1  
$EndComp
Wire Wire Line
	12250 1600 12450 1600
Wire Wire Line
	12450 1600 12450 1450
Wire Wire Line
	12450 2050 12450 1600
Connection ~ 12450 1600
Wire Wire Line
	12050 1600 11850 1600
Wire Wire Line
	11650 1600 11650 1850
Wire Wire Line
	12300 2050 12300 1750
Wire Wire Line
	12300 1750 11850 1750
Wire Wire Line
	11850 1750 11850 1600
Connection ~ 11850 1600
Wire Wire Line
	11850 1600 11650 1600
Wire Wire Line
	11900 3900 12550 3900
Wire Wire Line
	12550 3900 12550 3950
Wire Wire Line
	11900 5100 11900 5150
Wire Wire Line
	11900 5150 12550 5150
Wire Wire Line
	12550 5150 12550 4150
Connection ~ 11900 5150
Wire Wire Line
	11900 5150 11900 5250
Wire Wire Line
	11600 5850 11400 5850
Wire Wire Line
	11600 7150 11600 7100
Wire Wire Line
	13000 7100 13000 6050
Connection ~ 11600 7100
Text Label 11500 2450 0    50   ~ 0
D0
Text Label 11500 2550 0    50   ~ 0
D1
Text Label 11500 2650 0    50   ~ 0
D2
Text Label 11500 2750 0    50   ~ 0
D3
Text Label 11500 2850 0    50   ~ 0
D4
Text Label 11500 2950 0    50   ~ 0
D5
Wire Wire Line
	11700 2950 11450 2950
Wire Wire Line
	11700 2850 11450 2850
Wire Wire Line
	11700 2750 11450 2750
Wire Wire Line
	11700 2650 11450 2650
Wire Wire Line
	11700 2550 11450 2550
Wire Wire Line
	11700 2450 11450 2450
Entry Wire Line
	11350 2950 11450 3050
Entry Wire Line
	11350 2850 11450 2950
Entry Wire Line
	11350 2750 11450 2850
Entry Wire Line
	11350 2650 11450 2750
Entry Wire Line
	11350 2550 11450 2650
Entry Wire Line
	11350 2450 11450 2550
Entry Wire Line
	11350 2350 11450 2450
Wire Wire Line
	11050 2300 11700 2300
Wire Wire Line
	12750 4300 12450 4300
$Comp
L 65xx-FPU-rescue:74HCT138-65xx-Computer-65xx-SOUND-rescue U8
U 1 1 5CB7DD65
P 11900 4500
F 0 "U8" H 12000 5000 50  0000 C CNN
F 1 "74HCT138" H 12150 4900 50  0000 C CNN
F 2 "" H 11900 4500 60  0001 C CNN
F 3 "" H 11900 4500 60  0001 C CNN
	1    11900 4500
	1    0    0    -1  
$EndComp
Wire Wire Line
	11350 4500 11100 4500
Wire Wire Line
	11350 4400 11250 4400
Wire Wire Line
	11250 4400 11250 5150
Wire Wire Line
	11250 5150 11900 5150
$Comp
L 65xx-FPU-rescue:74LS00-65xx-Computer-65xx-SOUND-rescue U4
U 1 1 5CBAB223
P 6750 1100
F 0 "U4" H 6750 1566 50  0000 C CNN
F 1 "74LS00" H 6750 1475 50  0000 C CNN
F 2 "" H 6750 1100 60  0001 C CNN
F 3 "" H 6750 1100 60  0001 C CNN
	1    6750 1100
	1    0    0    -1  
$EndComp
$Comp
L 65xx-FPU-rescue:74LS00-65xx-Computer-65xx-SOUND-rescue U4
U 2 1 5CBAD614
P 8650 1100
F 0 "U4" H 8650 1566 50  0000 C CNN
F 1 "74LS00" H 8650 1475 50  0000 C CNN
F 2 "" H 8650 1100 60  0001 C CNN
F 3 "" H 8650 1100 60  0001 C CNN
	2    8650 1100
	1    0    0    -1  
$EndComp
$Comp
L 65xx-FPU-rescue:74LS00-65xx-Computer-65xx-SOUND-rescue U4
U 4 1 5CBAE8AE
P 10200 1100
F 0 "U4" H 10200 1566 50  0000 C CNN
F 1 "74LS00" H 10200 1475 50  0000 C CNN
F 2 "" H 10200 1100 60  0001 C CNN
F 3 "" H 10200 1100 60  0001 C CNN
	4    10200 1100
	1    0    0    -1  
$EndComp
$Comp
L 65xx-FPU-rescue:74LS00-65xx-Computer-65xx-SOUND-rescue U4
U 3 1 5CBAF6C7
P 8150 2250
F 0 "U4" H 7900 2650 50  0000 C CNN
F 1 "74LS00" H 7950 2550 50  0000 C CNN
F 2 "" H 8150 2250 60  0001 C CNN
F 3 "" H 8150 2250 60  0001 C CNN
	3    8150 2250
	1    0    0    -1  
$EndComp
$Comp
L Device:C_Small C9
U 1 1 5CBAFCCE
P 8700 2000
F 0 "C9" H 8792 2046 50  0000 L CNN
F 1 "100nF" H 8792 1955 50  0000 L CNN
F 2 "" H 8700 2000 50  0001 C CNN
F 3 "~" H 8700 2000 50  0001 C CNN
	1    8700 2000
	-1   0    0    1   
$EndComp
Wire Wire Line
	6250 1000 6100 1000
Wire Wire Line
	6100 1000 6100 1100
Wire Wire Line
	6100 1100 6000 1100
Wire Wire Line
	6250 1200 6100 1200
Wire Wire Line
	6100 1200 6100 1100
Connection ~ 6100 1100
Wire Wire Line
	7250 1100 7400 1100
Text GLabel 7400 1100 2    50   Output ~ 0
ALE
Text GLabel 7350 2250 0    50   Input ~ 0
R_~W
Wire Wire Line
	7650 2150 7500 2150
Wire Wire Line
	7500 2150 7500 2250
Wire Wire Line
	7500 2250 7350 2250
Wire Wire Line
	7650 2350 7500 2350
Wire Wire Line
	7500 2350 7500 2250
Connection ~ 7500 2250
Wire Wire Line
	8650 2250 9100 2250
Text GLabel 9100 2250 2    50   Output ~ 0
~R~_W
$Comp
L power:+5V #PWR014
U 1 1 5CD0D739
P 8150 1750
F 0 "#PWR014" H 8150 1600 50  0001 C CNN
F 1 "+5V" H 8165 1923 50  0000 C CNN
F 2 "" H 8150 1750 50  0001 C CNN
F 3 "" H 8150 1750 50  0001 C CNN
	1    8150 1750
	1    0    0    -1  
$EndComp
$Comp
L power:GND #PWR015
U 1 1 5CD0DC14
P 8150 2750
F 0 "#PWR015" H 8150 2500 50  0001 C CNN
F 1 "GND" H 8155 2577 50  0000 C CNN
F 2 "" H 8150 2750 50  0001 C CNN
F 3 "" H 8150 2750 50  0001 C CNN
	1    8150 2750
	1    0    0    -1  
$EndComp
Wire Wire Line
	8150 1750 8150 1850
Wire Wire Line
	8150 2500 8150 2650
Wire Wire Line
	8700 1850 8700 1900
Connection ~ 8150 1850
Wire Wire Line
	8150 1850 8150 2000
Wire Wire Line
	8700 2100 8700 2650
Wire Wire Line
	8700 2650 8150 2650
Connection ~ 8150 2650
Wire Wire Line
	8150 2650 8150 2750
Text GLabel 13800 4050 0    50   Output ~ 0
RAM_R_~W
Text GLabel 13800 4650 0    50   Output ~ 0
RAM_W_~R
Wire Wire Line
	13800 4050 14000 4050
Wire Wire Line
	13800 4650 14000 4650
Wire Wire Line
	11150 4300 11350 4300
Wire Wire Line
	8150 1850 8700 1850
Text Notes 9950 2050 0    50   ~ 0
Verknüpfung der ~CS~ Leitungen \nnoch notwendig.
$Comp
L 65xx-FPU-rescue:74HCT139-65xx-Computer-65xx-SOUND-rescue U9
U 2 1 5CBC0A76
P 12100 7900
F 0 "U9" H 12100 8466 50  0000 C CNN
F 1 "74HCT139" H 12100 8375 50  0000 C CNN
F 2 "" H 12100 7900 50  0001 C CNN
F 3 "" H 12100 7900 50  0001 C CNN
	2    12100 7900
	1    0    0    -1  
$EndComp
$Comp
L 65xx-FPU-rescue:74HCT139-65xx-Computer-65xx-SOUND-rescue U9
U 1 1 5CBBF7B6
P 12050 6550
F 0 "U9" H 12050 7116 50  0000 C CNN
F 1 "74HCT139" H 12050 7025 50  0000 C CNN
F 2 "" H 12050 6550 50  0001 C CNN
F 3 "" H 12050 6550 50  0001 C CNN
	1    12050 6550
	1    0    0    -1  
$EndComp
Wire Wire Line
	11600 5850 11600 6150
Wire Wire Line
	11600 5850 13000 5850
Connection ~ 11600 5850
Wire Wire Line
	11600 7100 13000 7100
Wire Wire Line
	11600 7050 11600 7100
Wire Wire Line
	11600 6950 11600 7100
Text GLabel 13300 3950 0    50   Output ~ 0
A3
Wire Wire Line
	14000 3950 13300 3950
Wire Wire Line
	14000 3750 13300 3750
Text GLabel 13300 3750 0    50   Output ~ 0
A2
Text GLabel 11000 6300 0    50   Input ~ 0
A2
Text GLabel 10800 6450 0    50   Input ~ 0
A3
Wire Wire Line
	11200 6300 11000 6300
Wire Wire Line
	11200 6450 10800 6450
Text GLabel 10900 6800 0    50   Input ~ 0
~CS
Wire Wire Line
	11200 6800 10900 6800
Text GLabel 13150 6250 2    50   Output ~ 0
~CS_RTC
Text GLabel 13150 6450 2    50   Output ~ 0
~CS_OPL3
Wire Wire Line
	13150 6250 12900 6250
Wire Wire Line
	13150 6450 12900 6450
Text GLabel 11000 2150 0    50   Input ~ 0
~CS
Text GLabel 11000 8150 0    50   Input ~ 0
~CS_RTC
Wire Wire Line
	11250 8150 11000 8150
Text GLabel 11000 7650 0    50   Input ~ 0
A0
Wire Wire Line
	11250 7650 11000 7650
Text GLabel 13750 3450 0    50   Output ~ 0
PHI2
Text GLabel 11000 7800 0    50   Input ~ 0
PHI2
Wire Wire Line
	11250 7800 11000 7800
Wire Wire Line
	12950 8200 13150 8200
Text GLabel 13150 8200 2    50   Output ~ 0
~ALE
$Comp
L power:+5V #PWR021
U 1 1 5CCC459B
P 7450 3350
F 0 "#PWR021" H 7450 3200 50  0001 C CNN
F 1 "+5V" H 7465 3523 50  0000 C CNN
F 2 "" H 7450 3350 50  0001 C CNN
F 3 "" H 7450 3350 50  0001 C CNN
	1    7450 3350
	1    0    0    -1  
$EndComp
$Comp
L Device:C_Small C10
U 1 1 5CCC45A1
P 9050 3450
F 0 "C10" H 9142 3496 50  0000 L CNN
F 1 "100nF" H 9142 3405 50  0000 L CNN
F 2 "" H 9050 3450 50  0001 C CNN
F 3 "~" H 9050 3450 50  0001 C CNN
	1    9050 3450
	1    0    0    -1  
$EndComp
Wire Wire Line
	7650 3350 7450 3350
$Comp
L 65xx-FPU-rescue:74HCT139-65xx-Computer-65xx-SOUND-rescue U7
U 1 1 5CCC45B7
P 8100 4050
F 0 "U7" H 8100 4616 50  0000 C CNN
F 1 "74HCT139" H 8100 4525 50  0000 C CNN
F 2 "" H 8100 4050 50  0001 C CNN
F 3 "" H 8100 4050 50  0001 C CNN
	1    8100 4050
	1    0    0    -1  
$EndComp
Wire Wire Line
	7650 3350 7650 3650
Wire Wire Line
	7650 3350 9050 3350
Connection ~ 7650 3350
Text GLabel 9250 3750 2    50   Output ~ 0
~WR
Wire Wire Line
	8950 3750 9250 3750
Text GLabel 7000 3800 0    50   Input ~ 0
A0
Text GLabel 7050 3950 0    50   Input ~ 0
R_~W
Text GLabel 7050 4300 0    50   Input ~ 0
~CS_RTC
Wire Wire Line
	7250 3800 7000 3800
Wire Wire Line
	7050 3950 7250 3950
Wire Wire Line
	7250 4300 7050 4300
Wire Bus Line
	11350 2350 11350 3250
$Comp
L 65xx-Computer:Am9511 U?
U 1 1 61B858F2
P 4200 5250
F 0 "U?" H 4200 6047 60  0000 C CNN
F 1 "Am9511" H 4200 5941 60  0000 C CNN
F 2 "" H 4200 5500 60  0000 C CNN
F 3 "" H 4200 5500 60  0000 C CNN
	1    4200 5250
	1    0    0    -1  
$EndComp
$Comp
L 65xx-Computer:74HC74 U?
U 1 1 61B88019
P 6250 6400
F 0 "U?" H 6250 6881 50  0000 C CNN
F 1 "74HC74" H 6250 6790 50  0000 C CNN
F 2 "" H 6250 6400 50  0001 C CNN
F 3 "74xx/74hc_hct74.pdf" H 6250 6400 50  0001 C CNN
	1    6250 6400
	1    0    0    -1  
$EndComp
$Comp
L 65xx-Computer:74HC74 U?
U 2 1 61B88CDD
P 6150 7350
F 0 "U?" H 6150 7831 50  0000 C CNN
F 1 "74HC74" H 6150 7740 50  0000 C CNN
F 2 "" H 6150 7350 50  0001 C CNN
F 3 "74xx/74hc_hct74.pdf" H 6150 7350 50  0001 C CNN
	2    6150 7350
	1    0    0    -1  
$EndComp
$Comp
L 65xx-Computer:74HC74 U?
U 3 1 61B89926
P 7350 6900
F 0 "U?" H 7580 6946 50  0000 L CNN
F 1 "74HC74" H 7580 6855 50  0000 L CNN
F 2 "" H 7350 6900 50  0001 C CNN
F 3 "74xx/74hc_hct74.pdf" H 7350 6900 50  0001 C CNN
	3    7350 6900
	1    0    0    -1  
$EndComp
$Comp
L 65xx-Computer:74HC04 U?
U 1 1 61B8AEF7
P 2800 7400
F 0 "U?" H 2800 7866 50  0000 C CNN
F 1 "74HC04" H 2800 7775 50  0000 C CNN
F 2 "" H 2800 7400 60  0001 C CNN
F 3 "" H 2800 7400 60  0001 C CNN
	1    2800 7400
	1    0    0    -1  
$EndComp
$Comp
L 65xx-Computer:74HC04 U?
U 2 1 61B8BC30
P 2650 8350
F 0 "U?" H 2650 8816 50  0000 C CNN
F 1 "74HC04" H 2650 8725 50  0000 C CNN
F 2 "" H 2650 8350 60  0001 C CNN
F 3 "" H 2650 8350 60  0001 C CNN
	2    2650 8350
	1    0    0    -1  
$EndComp
$Comp
L 65xx-Computer:74HC04 U?
U 3 1 61B8D049
P 2650 9250
F 0 "U?" H 2650 9716 50  0000 C CNN
F 1 "74HC04" H 2650 9625 50  0000 C CNN
F 2 "" H 2650 9250 60  0001 C CNN
F 3 "" H 2650 9250 60  0001 C CNN
	3    2650 9250
	1    0    0    -1  
$EndComp
$Comp
L 65xx-Computer:74HC04 U?
U 4 1 61B8DF4B
P 2750 10000
F 0 "U?" H 2750 10466 50  0000 C CNN
F 1 "74HC04" H 2750 10375 50  0000 C CNN
F 2 "" H 2750 10000 60  0001 C CNN
F 3 "" H 2750 10000 60  0001 C CNN
	4    2750 10000
	1    0    0    -1  
$EndComp
$Comp
L 65xx-Computer:74HC04 U?
U 5 1 61B8F187
P 4300 7450
F 0 "U?" H 4300 7916 50  0000 C CNN
F 1 "74HC04" H 4300 7825 50  0000 C CNN
F 2 "" H 4300 7450 60  0001 C CNN
F 3 "" H 4300 7450 60  0001 C CNN
	5    4300 7450
	1    0    0    -1  
$EndComp
$Comp
L 65xx-Computer:74HC04 U?
U 6 1 61B90178
P 4350 8400
F 0 "U?" H 4350 8866 50  0000 C CNN
F 1 "74HC04" H 4350 8775 50  0000 C CNN
F 2 "" H 4350 8400 60  0001 C CNN
F 3 "" H 4350 8400 60  0001 C CNN
	6    4350 8400
	1    0    0    -1  
$EndComp
$Comp
L 65xx-Computer:74LS09 U?
U 1 1 61B911CA
P 5300 9450
F 0 "U?" H 5300 9866 50  0000 C CNN
F 1 "74LS09" H 5300 9775 50  0000 C CNN
F 2 "" H 5300 9450 50  0001 C CNN
F 3 "" H 5300 9450 50  0001 C CNN
	1    5300 9450
	1    0    0    -1  
$EndComp
$Comp
L 65xx-Computer:74LS09 U?
U 2 1 61B91BE5
P 6700 9450
F 0 "U?" H 6700 9866 50  0000 C CNN
F 1 "74LS09" H 6700 9775 50  0000 C CNN
F 2 "" H 6700 9450 50  0001 C CNN
F 3 "" H 6700 9450 50  0001 C CNN
	2    6700 9450
	1    0    0    -1  
$EndComp
$Comp
L 65xx-Computer:74LS09 U?
U 4 1 61B9323D
P 6900 10200
F 0 "U?" H 6900 10616 50  0000 C CNN
F 1 "74LS09" H 6900 10525 50  0000 C CNN
F 2 "" H 6900 10200 50  0001 C CNN
F 3 "" H 6900 10200 50  0001 C CNN
	4    6900 10200
	1    0    0    -1  
$EndComp
$Comp
L 65xx-Computer:74LS09 U?
U 3 1 61B9429C
P 5450 10200
F 0 "U?" H 5450 10616 50  0000 C CNN
F 1 "74LS09" H 5450 10525 50  0000 C CNN
F 2 "" H 5450 10200 50  0001 C CNN
F 3 "" H 5450 10200 50  0001 C CNN
	3    5450 10200
	1    0    0    -1  
$EndComp
$Comp
L 65xx-Computer:74HCT03 U?
U 1 1 61B95BFF
P 8700 8600
F 0 "U?" H 8700 9066 50  0000 C CNN
F 1 "74HCT03" H 8700 8975 50  0000 C CNN
F 2 "" H 8700 8600 50  0001 C CNN
F 3 "" H 8700 8600 50  0001 C CNN
	1    8700 8600
	1    0    0    -1  
$EndComp
$Comp
L 65xx-Computer:74HCT03 U?
U 2 1 61B9671B
P 8700 9400
F 0 "U?" H 8700 9866 50  0000 C CNN
F 1 "74HCT03" H 8700 9775 50  0000 C CNN
F 2 "" H 8700 9400 50  0001 C CNN
F 3 "" H 8700 9400 50  0001 C CNN
	2    8700 9400
	1    0    0    -1  
$EndComp
$Comp
L 65xx-Computer:74HCT03 U?
U 3 1 61B97429
P 8700 10200
F 0 "U?" H 8700 10666 50  0000 C CNN
F 1 "74HCT03" H 8700 10575 50  0000 C CNN
F 2 "" H 8700 10200 50  0001 C CNN
F 3 "" H 8700 10200 50  0001 C CNN
	3    8700 10200
	1    0    0    -1  
$EndComp
$Comp
L 65xx-Computer:74HCT03 U?
U 4 1 61B9814C
P 10050 10200
F 0 "U?" H 10050 10666 50  0000 C CNN
F 1 "74HCT03" H 10050 10575 50  0000 C CNN
F 2 "" H 10050 10200 50  0001 C CNN
F 3 "" H 10050 10200 50  0001 C CNN
	4    10050 10200
	1    0    0    -1  
$EndComp
$EndSCHEMATC
