	FP_R	= $56	; unused
	FP_C	= $54
	FP_B	= $52
	FP_A	= $50
	phx	= $9	; unused
	phy	= $9	; unused
	fp_divide	= $1	; unused
	stz	= $0	; unused
	bra	= $9	; unused
	FP_DIVIDENT0	= $0	; unused
	fp_divide2	= $9	; ?
