	FP_R	= $56
	FP_C	= $54
	FP_B	= $52
	FP_A	= $50
	xba	= $23	; unused
	phx	= $4	; unused
	phy	= $59	; unused
	plx	= $4f	; unused
	rep	= $7d	; unused
	fp_divide	= $0	; unused
	stz	= $25	; unused
	fp_multiply	= $51	; unused
	bra	= $f	; unused
	FP_RETURN0	= $50	; ?
