	WD177XREADI	= $c8	; unused
	FDC_WaitBusy_FN	= $5	; unused
	FCB_3	= $420
	BRKVector_H	= $283	; unused
	FCB_2	= $3f0
	VIA1IFR	= $df1d	; unused
	DOS_CurrentCluster_H	= $2d3	; unused
	FCB_1	= $3c0
	PressKey	= $139d	; ?
	EF9367CMD	= $df30	; unused
	UARTSTATUS	= $df01	; unused
	BRKVector_L	= $282	; unused
	DOS_CurrentCluster_L	= $2d2	; unused
	DOS_ErrorCode	= $2d8	; unused
	FCB_4	= $450	; unused
	Restore_Video	= $1364	; unused
	VIA2T1LH	= $df27	; unused
	WD177XWRITES	= $a0	; unused
	STDIO_KEYB	= $0	; unused
	EF9367YMSB	= $df3a	; unused
	OS_Hex2byte_FN	= $5	; unused
	VIA2T1LL	= $df26	; unused
	mand_x2	= $68
	WD177XWRITET	= $f0	; unused
	FCB_Size	= $30
	mand_x0	= $60
	OS_STDIN_ASCII_TO_BCD_FN	= $10	; unused
	DS1685_ADDR	= $df81	; unused
	PTR_FLOPPY_H	= $3c	; unused
	CPU_Type	= $3	; unused
	FCB_FileSize	= $14	; unused
	DOS_DirFilesSum	= $2d7	; unused
	PatternBase+2	= $0	; unused
	PTR_FLOPPY_L	= $3b	; unused
	V9938_Set_Screen8	= $8	; unused
	V9938_Set_Screen6	= $6	; unused
	CLEAR_SCREEN	= $12e6	; ?
	V9938_Set_Screen7	= $7	; unused
	MAND_MAX_IT	= $f
	WD177XREADS	= $80	; unused
	PTR_S_L	= $33	; unused
	DS1685_REG_D	= $d	; unused
	V9938_Set_Screen5	= $5	; unused
	PTR_W_L	= $37	; unused
	DS1685_REG_C	= $c	; unused
	WD177XREADT	= $e0	; unused
	DS1685_REG_B	= $b	; unused
	DS1685_REG_A	= $a	; unused
	Floppy_Blk_Low	= $2a	; unused
	PTR_S_H	= $34	; unused
	PTR_W_H	= $38	; unused
	FP_R	= $56
	OS_Bin2BCD32_FN	= $3	; unused
	ETX	= $3	; unused
	FCB_ThisFATEntOffset	= $21	; unused
	EF9367PAGE	= $df40	; unused
	EF9367XMSB	= $df38	; unused
	FCB_Current_Cluster	= $18	; unused
	FDC_Function_Call	= $e009	; unused
	FP_C	= $54
	FP_B	= $52
	Floppy_DriveNo	= $2c	; unused
	FP_A	= $50
	PS2_DummyRead_FN	= $2	; unused
	VIA1T1LH	= $df17	; unused
	OS_RTC_Print_Date_FN	= $e	; unused
	COP_E_Vector_L	= $288	; unused
	FCB_FirstSecOfCluster	= $1b	; unused
	CLEAR_SCREEN5	= $132b
	XRegister_H	= $2c6	; unused
	CLEAR_SCREEN6	= $132d
	SOH	= $1	; unused
	VIA1T1LL	= $df16	; unused
	COP_E_Vector_H	= $289	; unused
	CLEAR_SCREEN1	= $1305	; unused
	DRegister_H	= $2bc	; unused
	CAN	= $18	; unused
	OS_Function_Call	= $e015
	CLEAR_SCREEN2	= $1307
	WD177XDAT	= $df63	; unused
	DPB_1	= $300
	OS_ChangeSTDOUT_FN	= $6	; unused
	TMS9918_TEMP2	= $10	; unused
	Mon_L	= $1a	; unused
	VDP_CURSOR_H	= $4
	TMS9918_TEMP1	= $9	; unused
	DPB_3	= $360
	VDP_Type	= $2b4	; unused
	DPB_2	= $330
	STDIN	= $2	; unused
	DPB_RootDirEntries	= $6	; unused
	OS_Print_Bin2Hex_FN	= $4	; unused
	Mon_H	= $1b	; unused
	PBRegister	= $2bd	; unused
	DPB_4	= $390	; unused
	VDP_Cursor_Off_FN	= $4	; unused
	FCB_WrtTime	= $e	; unused
	DS1685_CENTURY	= $48	; unused
	FDC_RTrack_FN	= $3	; unused
	VIA2T2CL	= $df28	; unused
	EF9367YLSB	= $df3b	; unused
	DPB_BytesPerSector	= $0	; unused
	VIA2T2CH	= $df29	; unused
	FDC_WTrack_FN	= $6	; unused
	DBRegister	= $2be	; unused
	VIA2ORA2	= $df2f	; unused
	VIA2DDRA	= $df23	; unused
	VIA2DDRB	= $df22	; unused
	SPRegister_H	= $2c2	; unused
	Floppy_Head	= $28	; unused
	SetNameTableBase	= $12db	; ?
	WaitKey	= $134d	; unused
	STDIO_UART	= $2	; unused
	PTR_J_H	= $3a	; unused
	WD37C65_OPER	= $df73	; unused
	DS1685_DAY	= $6	; unused
	PTR_R_L	= $35	; unused
	OS_ChangeSTDIN_FN	= $7	; unused
	OS_Version_H	= $2b3	; unused
	VDP_CURSOR_V	= $5
	PTR_J_L	= $39	; unused
	DPB_FatCopies	= $5	; unused
	IO_BASE	= $df00
	PTR_R_H	= $36	; unused
	OS_Version_L	= $2b2	; unused
	FCB_CurrentByteNum	= $23	; unused
	UARTCTRL	= $df03	; unused
	DS1685_MONTH	= $8	; unused
	OS_LineEditor_FN	= $9	; unused
	OS_Print_BIN2DIG_FN	= $13	; unused
	LF	= $a
	VIA1DDRA	= $df13	; unused
	Rbuff	= $b00	; unused
	VIA1DDRB	= $df12	; unused
	Floppy_Track	= $27	; unused
	VIA2IFR	= $df2d	; unused
	ColorTableBase	= $2000
	FF	= $c	; unused
	PS2_Function_Vector_H	= $293	; unused
	UART_CHAR_Transmit_FN	= $1	; unused
	EF9367XLSB	= $df39	; unused
	DRegister	= $2bb	; unused
	PS2_Function_Vector_L	= $292	; unused
	FCB_FATOffset	= $1d	; unused
	BRegister	= $2c8	; unused
	Floppy_Blk_High	= $2b	; unused
	ARegister	= $2c7	; unused
	OS_Divide16_FN	= $c	; unused
	HT	= $9	; unused
	EF9367CTRL1	= $df31	; unused
	DOS_Load_Byte_FN	= $1	; unused
	StartText	= $1371	; ?
	EF9367CTRL2	= $df32	; unused
	VDP_Function_Vector_H	= $291	; unused
	VDP_Function_Call	= $e00c
	BS	= $8	; unused
	DS1685_SECONDS	= $0	; unused
	OS_Get_CHR_FN	= $1	; unused
	NUL	= $0	; unused
	VDP_Function_Vector_L	= $290	; unused
	YRegister	= $2c3	; unused
	XRegister	= $2c5	; unused
	NAK	= $15	; unused
	StartMessage2	= $1348
	VIA2SR	= $df2a	; unused
	VDP_print_CHR_FN	= $2	; unused
	DPB_ReservedSectors	= $3	; unused
	STDOUT	= $1	; unused
	DOS_Function_Call	= $e012	; unused
	VDP_Cursor_Back	= $8	; unused
	YRegister_H	= $2c4	; unused
	VIA1T2CL	= $df18	; unused
	mand_x	= $64
	VDP_Detect_CTRL_Type_FN	= $6	; unused
	DPB_SIZE	= $30
	BEL	= $7	; unused
	mand_y	= $66
	PRegister	= $2ba	; unused
	DPB_NumSectors	= $8	; unused
	VIA1T2CH	= $df19	; unused
	VIA1ORA2	= $df1f	; unused
	VT	= $b	; unused
	MAND_XMAX	= $380
	TMS9918RAM	= $df50
	DPB_SectorsPerCluster	= $2	; unused
	FCB_FstClusHI	= $c	; unused
	VIA1ACR	= $df1b	; unused
	VIA1IER	= $df1e	; unused
	ABORT_E_Vector_L	= $286	; unused
	DOS_CTRL_Error_Code	= $2cc	; unused
	FCB_FstClusLO	= $12	; unused
	ABORT_E_Vector_H	= $287	; unused
	TMS9918REG	= $df51
	PS2_GetKey_FN	= $0
	DPB_NumberOfHeads	= $f	; unused
	FCB_File_Name	= $1	; unused
	VIA2T1CL	= $df24	; unused
	WD177XREST	= $0	; unused
	NMIVector_L	= $284	; unused
	fp_divide	= $1008
	mand_y2	= $6a
	WD37C65_CONF	= $df72	; unused
	FDC_Status_FN	= $8	; unused
	Floppy_Sector	= $29	; unused
	Vwrite	= $5b
	mand_y0	= $62
	VIA2T1CH	= $df25	; unused
	OS_XModem_FN	= $8	; unused
	NMIVector_H	= $285	; unused
	PTR_TMS9918W_H	= $30	; unused
	Vaddress	= $58	; unused
	DOS_FATSectorBuffDrive	= $2cf	; unused
	DOS_DataSectorBuffDrive	= $2d6	; unused
	MAND_XMIN	= $fd80
	DOS_DataSectorBuff	= $b00	; unused
	Reset	= $e000	; unused
	PTR_TMS9918W_L	= $2f	; unused
	StartMessage	= $133b	; ?
	DOS_CurrentAttr	= $2cb	; unused
	DPB_FirstDataSector	= $13	; unused
	DPB_TotalDataSectors	= $15	; unused
	VIA1ORB	= $df10	; unused
	OS_Bell_FN	= $d	; unused
	ACIA_Function_Call	= $e003	; unused
	VIA1ORA	= $df11	; unused
	DOS_TotalFreeClusters_H	= $2d1	; unused
	mand_get	= $112d
	DOS_TotalFreeClusters_L	= $2d0	; unused
	OS_Print_BCD_FN	= $a	; unused
	VDP_Video_Mode	= $2b5	; unused
	DOS_FATSectorBuffLBA_L	= $2cd	; unused
	MAND_YMAX	= $200
	YMF262_ADDR2	= $df86	; unused
	YMF262_ADDR1	= $df84	; unused
	OS_Print_Bin2BCD_2D_FN	= $11	; unused
	PTR_DOS_FCB_H	= $40	; unused
	EOT	= $4	; unused
	SetColorPattern	= $12f9	; ?
	DOS_DataSectorBuffLBA_L	= $2d4	; unused
	DOS_FATSectorBuffLBA_H	= $2ce	; unused
	V9958_Set_Screen12	= $c	; unused
	DPB_SectorsPerTrack	= $d	; unused
	Vread	= $5a	; unused
	PTR_DOS_FCB_L	= $3f	; unused
	VIA2PCR	= $df2c	; unused
	DOS_DataSectorBuffLBA_H	= $2d5	; unused
	Mon_YSAV	= $1c	; unused
	OS_RTC_Print_Time_FN	= $f	; unused
	fp_multiply	= $109b
	start	= $12ac	; ?
	WD177XTRK	= $df61	; unused
	DOS_Init_FN	= $5	; unused
	loopx	= $58	; unused
	loopy	= $5a	; unused
	OS_Function_Vector_L	= $294	; unused
	MAND_YMIN	= $ff00
	FDC_Function_Vector_L	= $28e	; unused
	DPB_MediaType	= $a	; unused
	OS_Function_Vector_H	= $295	; unused
	FDC_Function_Vector_H	= $28f	; unused
	TMS9918_Set_Screen0	= $0
	VIA1SR	= $df1a	; unused
	TMS9918_Set_Screen1	= $1
	TMS9918_Set_Screen2	= $2	; unused
	FCB_Sector_Count	= $1a	; unused
	ACK	= $6	; unused
	MEMTOP_H	= $2b1	; unused
	VIA1T1CL	= $df14	; unused
	TMS9918_Set_Screen3	= $3	; unused
	ESC	= $1b	; unused
	Mon_MODE	= $1d	; unused
	MEMTOP_L	= $2b0	; unused
	MAND_WIDTH	= $20
	VIA1T1CH	= $df15	; unused
	WD177XSEEK	= $10	; unused
	FP_RETURN0	= $1096
	UARTCMD	= $df02	; unused
	FLOPPYLATCH	= $df64	; unused
	CRCHI	= $e00	; unused
	DOS_LEditor_FN	= $6	; unused
	VIA1PCR	= $df1c	; unused
	NameTableBase	= $1800
	CRCLO	= $d00	; unused
	VDP_Set_Video_Mode_FN	= $0
	ACIA_Function_Vector_L	= $28c	; unused
	FCB_WrtDate	= $10	; unused
	UARTDATA	= $df00	; unused
	VDP_Init_Pattern_FN	= $1
	BRKService816Vector_L	= $28a	; unused
	ACIA_Function_Vector_H	= $28d	; unused
	SpriteAttrBase	= $1b00
	UART_Init_FN	= $0	; unused
	EndMessage	= $1353	; ?
	DOS_Open_File_FN	= $0	; unused
	BRKService816Vector_H	= $28b	; unused
	DS1685_YEAR	= $9	; unused
	PTR_TMS9918R_H	= $32	; unused
	VDP_Pattern_H	= $2b7	; unused
	PCHRegister	= $2c0	; unused
	FP_DIVIDENT0	= $1003
	DPB_CountofClusters	= $17	; unused
	PS2_Function_Call	= $e00f
	PTR_TMS9918R_L	= $31	; unused
	DPB_SectorsPerFAT	= $b	; unused
	MAND_HEIGHT	= $16
	VDP_Pattern_L	= $2b6	; unused
	PCLRegister	= $2bf	; unused
	SPRegister	= $2c1	; unused
	FCB_Drive_Number	= $0	; unused
	VIA2_Init	= $e006	; unused
	V9938PALREG	= $df52	; unused
	VDP_Wait_V_SYNC_FN	= $7	; unused
	DOS_Search_FN	= $3	; unused
	VDP_Layout_H	= $2b9	; unused
	IRQVector_H	= $281	; unused
	FDC_Addr_FN	= $2	; unused
	UART_CHAR_Receive_FN	= $2	; unused
	VDP_Cursor_On_FN	= $3	; unused
	WD37C65_STAT	= $df70	; unused
	YMF262_DATA2	= $df87	; unused
	VDP_Layout_L	= $2b8	; unused
	IRQVector_L	= $280	; unused
	YMF262_DATA1	= $df85	; unused
	Operand6	= $23	; unused
	PTR_DOS_DPB_H	= $3e	; unused
	V9938INDREG	= $df53	; unused
	Operand7	= $24	; unused
	VIA2ACR	= $df2b	; unused
	Operand4	= $21	; unused
	VIA2IER	= $df2e	; unused
	Operand5	= $22	; unused
	WD37C65_DATA	= $df71	; unused
	PTR_DOS_DPB_L	= $3d	; unused
	VDP_Text_MaxV	= $7	; unused
	Operand2	= $1f	; unused
	OS_Print_CHR_FN	= $0	; unused
	Operand3	= $20	; unused
	DOS	= $2c9
	fp_multiply3	= $10af	; ?
	SetScreen_Mode2	= $12f1	; ?
	fp_multiply2	= $10a5	; ?
	FDC_RSect_FN	= $4	; unused
	Operand1	= $1e	; unused
	WD177XCMD	= $df60	; unused
	PTR_String_H	= $2e
	FCB_ThisFATSecNum	= $1f	; unused
	DS1685_DATA	= $df80	; unused
	DPB_FirstRootDirSecNum	= $11	; unused
	PS2_ChkKey_FN	= $1	; unused
	VDP_Clear_Text_Screen_FN	= $5
	PTR_String_L	= $2d
	FDC_WSect_FN	= $7	; unused
	DS1685_HOURS	= $4	; unused
	DS1685_DATE	= $7	; unused
	OS_Multiply16_FN	= $b	; unused
	Operand8	= $25	; unused
	WD177XSEC	= $df62	; unused
	FDC_Reset_FN	= $0	; unused
	DOS_Close_File_FN	= $2	; unused
	Operand9	= $26	; unused
	DOS_Function_Vector_H	= $297	; unused
	V9938_Set_Screen0_W80	= $d	; unused
	CR	= $d	; unused
	DOS_FATSectorBuff	= $d00	; unused
	fp_divide2	= $1012	; ?
	DOS_CurrentDirEntry	= $2c9	; unused
	DOS_Dir_FN	= $4	; unused
	DOS_Function_Vector_L	= $296	; unused
	mand_xtemp	= $6c
	OS_ASCII_to_BCD_FN	= $12	; unused
	OS_Print_String_FN	= $2
	FDC_Restore_FN	= $1	; unused
	VIA2ORB	= $df20	; unused
	SP	= $20	; unused
	VIA2ORA	= $df21	; unused
	VDP_Text_MaxH	= $6	; unused
	InBuffer	= $200	; unused
	STDIO_DISP	= $3	; unused
	DS1685_MINUTES	= $2	; unused
